1.250000e-02 0.000000e+00 5.000000e-02
2.500000e-02 0.000000e+00 1.000000e-01
-1.250000e-02 2.165064e-02 1.000000e-01
-1.250000e-02 -2.165064e-02 1.000000e-01
3.750000e-02 0.000000e+00 1.500000e-01
2.296213e-18 3.750000e-02 1.500000e-01
-3.750000e-02 4.592425e-18 1.500000e-01
-6.888638e-18 -3.750000e-02 1.500000e-01
5.000000e-02 0.000000e+00 2.000000e-01
2.500000e-02 4.330127e-02 2.000000e-01
-2.500000e-02 4.330127e-02 2.000000e-01
-5.000000e-02 6.123234e-18 2.000000e-01
-2.500000e-02 -4.330127e-02 2.000000e-01
2.500000e-02 -4.330127e-02 2.000000e-01
6.250000e-02 0.000000e+00 2.500000e-01
3.896811e-02 4.886447e-02 2.500000e-01
-1.390756e-02 6.093299e-02 2.500000e-01
-5.631055e-02 2.711773e-02 2.500000e-01
-5.631055e-02 -2.711773e-02 2.500000e-01
-1.390756e-02 -6.093299e-02 2.500000e-01
3.896811e-02 -4.886447e-02 2.500000e-01
7.500000e-02 0.000000e+00 3.000000e-01
5.745333e-02 4.820907e-02 3.000000e-01
1.302361e-02 7.386058e-02 3.000000e-01
-3.750000e-02 6.495191e-02 3.000000e-01
-7.047695e-02 2.565151e-02 3.000000e-01
-7.047695e-02 -2.565151e-02 3.000000e-01
-3.750000e-02 -6.495191e-02 3.000000e-01
1.302361e-02 -7.386058e-02 3.000000e-01
5.745333e-02 -4.820907e-02 3.000000e-01
8.750000e-02 0.000000e+00 3.500000e-01
7.078899e-02 5.143121e-02 3.500000e-01
2.703899e-02 8.321745e-02 3.500000e-01
-2.703899e-02 8.321745e-02 3.500000e-01
-7.078899e-02 5.143121e-02 3.500000e-01
-8.750000e-02 1.071566e-17 3.500000e-01
-7.078899e-02 -5.143121e-02 3.500000e-01
-2.703899e-02 -8.321745e-02 3.500000e-01
2.703899e-02 -8.321745e-02 3.500000e-01
7.078899e-02 -5.143121e-02 3.500000e-01
1.000000e-01 0.000000e+00 4.000000e-01
8.660254e-02 5.000000e-02 4.000000e-01
5.000000e-02 8.660254e-02 4.000000e-01
6.123234e-18 1.000000e-01 4.000000e-01
-5.000000e-02 8.660254e-02 4.000000e-01
-8.660254e-02 5.000000e-02 4.000000e-01
-1.000000e-01 1.224647e-17 4.000000e-01
-8.660254e-02 -5.000000e-02 4.000000e-01
-5.000000e-02 -8.660254e-02 4.000000e-01
-1.836970e-17 -1.000000e-01 4.000000e-01
5.000000e-02 -8.660254e-02 4.000000e-01
8.660254e-02 -5.000000e-02 4.000000e-01
1.125000e-01 0.000000e+00 4.500000e-01
9.961380e-02 5.228136e-02 4.500000e-01
6.390728e-02 9.258568e-02 4.500000e-01
1.356038e-02 1.116797e-01 4.500000e-01
-3.989305e-02 1.051893e-01 4.500000e-01
-8.420746e-02 7.460130e-02 4.500000e-01
-1.092310e-01 2.692301e-02 4.500000e-01
-1.092310e-01 -2.692301e-02 4.500000e-01
-8.420746e-02 -7.460130e-02 4.500000e-01
-3.989305e-02 -1.051893e-01 4.500000e-01
1.356038e-02 -1.116797e-01 4.500000e-01
6.390728e-02 -9.258568e-02 4.500000e-01
9.961380e-02 -5.228136e-02 4.500000e-01
1.250000e-01 0.000000e+00 5.000000e-01
1.141932e-01 5.084208e-02 5.000000e-01
8.364133e-02 9.289310e-02 5.000000e-01
3.862712e-02 1.188821e-01 5.000000e-01
-1.306606e-02 1.243152e-01 5.000000e-01
-6.250000e-02 1.082532e-01 5.000000e-01
-1.011271e-01 7.347316e-02 5.000000e-01
-1.222685e-01 2.598896e-02 5.000000e-01
-1.222685e-01 -2.598896e-02 5.000000e-01
-1.011271e-01 -7.347316e-02 5.000000e-01
-6.250000e-02 -1.082532e-01 5.000000e-01
-1.306606e-02 -1.243152e-01 5.000000e-01
3.862712e-02 -1.188821e-01 5.000000e-01
8.364133e-02 -9.289310e-02 5.000000e-01
1.141932e-01 -5.084208e-02 5.000000e-01
1.375000e-01 0.000000e+00 5.500000e-01
1.282149e-01 4.967073e-02 5.500000e-01
1.016137e-01 9.263315e-02 5.500000e-01
6.128902e-02 1.230850e-01 5.500000e-01
1.268690e-02 1.369134e-01 5.500000e-01
-3.762866e-02 1.322510e-01 5.500000e-01
-8.286226e-02 1.097274e-01 5.500000e-01
-1.169049e-01 7.238442e-02 5.500000e-01
-1.351588e-01 2.526556e-02 5.500000e-01
-1.351588e-01 -2.526556e-02 5.500000e-01
-1.169049e-01 -7.238442e-02 5.500000e-01
-8.286226e-02 -1.097274e-01 5.500000e-01
-3.762866e-02 -1.322510e-01 5.500000e-01
1.268690e-02 -1.369134e-01 5.500000e-01
6.128902e-02 -1.230850e-01 5.500000e-01
1.016137e-01 -9.263315e-02 5.500000e-01
1.282149e-01 -4.967073e-02 5.500000e-01
1.500000e-01 0.000000e+00 6.000000e-01
1.409539e-01 5.130302e-02 6.000000e-01
1.149067e-01 9.641814e-02 6.000000e-01
7.500000e-02 1.299038e-01 6.000000e-01
2.604723e-02 1.477212e-01 6.000000e-01
-2.604723e-02 1.477212e-01 6.000000e-01
-7.500000e-02 1.299038e-01 6.000000e-01
-1.149067e-01 9.641814e-02 6.000000e-01
-1.409539e-01 5.130302e-02 6.000000e-01
-1.500000e-01 1.836970e-17 6.000000e-01
-1.409539e-01 -5.130302e-02 6.000000e-01
-1.149067e-01 -9.641814e-02 6.000000e-01
-7.500000e-02 -1.299038e-01 6.000000e-01
-2.604723e-02 -1.477212e-01 6.000000e-01
2.604723e-02 -1.477212e-01 6.000000e-01
7.500000e-02 -1.299038e-01 6.000000e-01
1.149067e-01 -9.641814e-02 6.000000e-01
1.409539e-01 -5.130302e-02 6.000000e-01
1.625000e-01 0.000000e+00 6.500000e-01
1.545467e-01 5.021526e-02 6.500000e-01
1.314653e-01 9.551510e-02 6.500000e-01
9.551510e-02 1.314653e-01 6.500000e-01
5.021526e-02 1.545467e-01 6.500000e-01
9.950255e-18 1.625000e-01 6.500000e-01
-5.021526e-02 1.545467e-01 6.500000e-01
-9.551510e-02 1.314653e-01 6.500000e-01
-1.314653e-01 9.551510e-02 6.500000e-01
-1.545467e-01 5.021526e-02 6.500000e-01
-1.625000e-01 1.990051e-17 6.500000e-01
-1.545467e-01 -5.021526e-02 6.500000e-01
-1.314653e-01 -9.551510e-02 6.500000e-01
-9.551510e-02 -1.314653e-01 6.500000e-01
-5.021526e-02 -1.545467e-01 6.500000e-01
-2.985077e-17 -1.625000e-01 6.500000e-01
5.021526e-02 -1.545467e-01 6.500000e-01
9.551510e-02 -1.314653e-01 6.500000e-01
1.314653e-01 -9.551510e-02 6.500000e-01
1.545467e-01 -5.021526e-02 6.500000e-01
1.750000e-01 0.000000e+00 7.000000e-01
1.672252e-01 5.158216e-02 7.000000e-01
1.445918e-01 9.858101e-02 7.000000e-01
1.091107e-01 1.368205e-01 7.000000e-01
6.393468e-02 1.629029e-01 7.000000e-01
1.307777e-02 1.745107e-01 7.000000e-01
-3.894116e-02 1.706124e-01 7.000000e-01
-8.750000e-02 1.515544e-01 7.000000e-01
-1.282841e-01 1.190302e-01 7.000000e-01
-1.576696e-01 7.592965e-02 7.000000e-01
-1.730454e-01 2.608240e-02 7.000000e-01
-1.730454e-01 -2.608240e-02 7.000000e-01
-1.576696e-01 -7.592965e-02 7.000000e-01
-1.282841e-01 -1.190302e-01 7.000000e-01
-8.750000e-02 -1.515544e-01 7.000000e-01
-3.894116e-02 -1.706124e-01 7.000000e-01
1.307777e-02 -1.745107e-01 7.000000e-01
6.393468e-02 -1.629029e-01 7.000000e-01
1.091107e-01 -1.368205e-01 7.000000e-01
1.445918e-01 -9.858101e-02 7.000000e-01
1.672252e-01 -5.158216e-02 7.000000e-01
1.875000e-01 0.000000e+00 7.500000e-01
1.805470e-01 5.058689e-02 7.500000e-01
1.602036e-01 9.742199e-02 7.500000e-01
1.279787e-01 1.370317e-01 7.500000e-01
8.626219e-02 1.664785e-01 7.500000e-01
3.814800e-02 1.835783e-01 7.500000e-01
-1.279545e-02 1.870629e-01 7.500000e-01
-6.278993e-02 1.766739e-01 7.500000e-01
-1.081276e-01 1.531819e-01 7.500000e-01
-1.454459e-01 1.183290e-01 7.500000e-01
-1.719771e-01 7.470020e-02 7.500000e-01
-1.857536e-01 2.553125e-02 7.500000e-01
-1.857536e-01 -2.553125e-02 7.500000e-01
-1.719771e-01 -7.470020e-02 7.500000e-01
-1.454459e-01 -1.183290e-01 7.500000e-01
-1.081276e-01 -1.531819e-01 7.500000e-01
-6.278993e-02 -1.766739e-01 7.500000e-01
-1.279545e-02 -1.870629e-01 7.500000e-01
3.814800e-02 -1.835783e-01 7.500000e-01
8.626219e-02 -1.664785e-01 7.500000e-01
1.279787e-01 -1.370317e-01 7.500000e-01
1.602036e-01 -9.742199e-02 7.500000e-01
1.805470e-01 -5.058689e-02 7.500000e-01
2.000000e-01 0.000000e+00 8.000000e-01
1.931852e-01 5.176381e-02 8.000000e-01
1.732051e-01 1.000000e-01 8.000000e-01
1.414214e-01 1.414214e-01 8.000000e-01
1.000000e-01 1.732051e-01 8.000000e-01
5.176381e-02 1.931852e-01 8.000000e-01
1.224647e-17 2.000000e-01 8.000000e-01
-5.176381e-02 1.931852e-01 8.000000e-01
-1.000000e-01 1.732051e-01 8.000000e-01
-1.414214e-01 1.414214e-01 8.000000e-01
-1.732051e-01 1.000000e-01 8.000000e-01
-1.931852e-01 5.176381e-02 8.000000e-01
-2.000000e-01 2.449294e-17 8.000000e-01
-1.931852e-01 -5.176381e-02 8.000000e-01
-1.732051e-01 -1.000000e-01 8.000000e-01
-1.414214e-01 -1.414214e-01 8.000000e-01
-1.000000e-01 -1.732051e-01 8.000000e-01
-5.176381e-02 -1.931852e-01 8.000000e-01
-3.673940e-17 -2.000000e-01 8.000000e-01
5.176381e-02 -1.931852e-01 8.000000e-01
1.000000e-01 -1.732051e-01 8.000000e-01
1.414214e-01 -1.414214e-01 8.000000e-01
1.732051e-01 -1.000000e-01 8.000000e-01
1.931852e-01 -5.176381e-02 8.000000e-01
2.125000e-01 0.000000e+00 8.500000e-01
2.063251e-01 5.085458e-02 8.500000e-01
1.881594e-01 9.875367e-02 8.500000e-01
1.590585e-01 1.409136e-01 8.500000e-01
1.207138e-01 1.748841e-01 8.500000e-01
7.535354e-02 1.986910e-01 8.500000e-01
2.561404e-02 2.109506e-01 8.500000e-01
-2.561404e-02 2.109506e-01 8.500000e-01
-7.535354e-02 1.986910e-01 8.500000e-01
-1.207138e-01 1.748841e-01 8.500000e-01
-1.590585e-01 1.409136e-01 8.500000e-01
-1.881594e-01 9.875367e-02 8.500000e-01
-2.063251e-01 5.085458e-02 8.500000e-01
-2.125000e-01 2.602374e-17 8.500000e-01
-2.063251e-01 -5.085458e-02 8.500000e-01
-1.881594e-01 -9.875367e-02 8.500000e-01
-1.590585e-01 -1.409136e-01 8.500000e-01
-1.207138e-01 -1.748841e-01 8.500000e-01
-7.535354e-02 -1.986910e-01 8.500000e-01
-2.561404e-02 -2.109506e-01 8.500000e-01
2.561404e-02 -2.109506e-01 8.500000e-01
7.535354e-02 -1.986910e-01 8.500000e-01
1.207138e-01 -1.748841e-01 8.500000e-01
1.590585e-01 -1.409136e-01 8.500000e-01
1.881594e-01 -9.875367e-02 8.500000e-01
2.063251e-01 -5.085458e-02 8.500000e-01
2.250000e-01 0.000000e+00 9.000000e-01
2.189351e-01 5.188857e-02 9.000000e-01
2.010673e-01 1.009798e-01 9.000000e-01
1.723600e-01 1.446272e-01 9.000000e-01
1.343607e-01 1.804777e-01 9.000000e-01
8.911795e-02 2.065986e-01 9.000000e-01
3.907084e-02 2.215817e-01 9.000000e-01
-1.308259e-02 2.246193e-01 9.000000e-01
-6.453073e-02 2.155476e-01 9.000000e-01
-1.125000e-01 1.948557e-01 9.000000e-01
-1.544044e-01 1.636591e-01 9.000000e-01
-1.879848e-01 1.236395e-01 9.000000e-01
-2.114308e-01 7.695453e-02 9.000000e-01
-2.234786e-01 2.612091e-02 9.000000e-01
-2.234786e-01 -2.612091e-02 9.000000e-01
-2.114308e-01 -7.695453e-02 9.000000e-01
-1.879848e-01 -1.236395e-01 9.000000e-01
-1.544044e-01 -1.636591e-01 9.000000e-01
-1.125000e-01 -1.948557e-01 9.000000e-01
-6.453073e-02 -2.155476e-01 9.000000e-01
-1.308259e-02 -2.246193e-01 9.000000e-01
3.907084e-02 -2.215817e-01 9.000000e-01
8.911795e-02 -2.065986e-01 9.000000e-01
1.343607e-01 -1.804777e-01 9.000000e-01
1.723600e-01 -1.446272e-01 9.000000e-01
2.010673e-01 -1.009798e-01 9.000000e-01
2.189351e-01 -5.188857e-02 9.000000e-01
2.375000e-01 0.000000e+00 9.500000e-01
2.319474e-01 5.105548e-02 9.500000e-01
2.155492e-01 9.972366e-02 9.500000e-01
1.890721e-01 1.437289e-01 9.500000e-01
1.537542e-01 1.810135e-01 9.500000e-01
1.112470e-01 2.098341e-01 9.500000e-01
6.353798e-02 2.288431e-01 9.500000e-01
1.285799e-02 2.371517e-01 9.500000e-01
-3.842322e-02 2.343713e-01 9.500000e-01
-8.790781e-02 2.206320e-01 9.500000e-01
-1.332819e-01 1.965761e-01 9.500000e-01
-1.724239e-01 1.633286e-01 9.500000e-01
-2.035036e-01 1.224440e-01 9.500000e-01
-2.250676e-01 7.583411e-02 9.500000e-01
-2.361078e-01 2.567827e-02 9.500000e-01
-2.361078e-01 -2.567827e-02 9.500000e-01
-2.250676e-01 -7.583411e-02 9.500000e-01
-2.035036e-01 -1.224440e-01 9.500000e-01
-1.724239e-01 -1.633286e-01 9.500000e-01
-1.332819e-01 -1.965761e-01 9.500000e-01
-8.790781e-02 -2.206320e-01 9.500000e-01
-3.842322e-02 -2.343713e-01 9.500000e-01
1.285799e-02 -2.371517e-01 9.500000e-01
6.353798e-02 -2.288431e-01 9.500000e-01
1.112470e-01 -2.098341e-01 9.500000e-01
1.537542e-01 -1.810135e-01 9.500000e-01
1.890721e-01 -1.437289e-01 9.500000e-01
2.155492e-01 -9.972366e-02 9.500000e-01
2.319474e-01 -5.105548e-02 9.500000e-01
2.500000e-01 0.000000e+00 1.000000e+00
2.448825e-01 5.032463e-02 1.000000e+00
2.297395e-01 9.858896e-02 1.000000e+00
2.051909e-01 1.428171e-01 1.000000e+00
1.722417e-01 1.811982e-01 1.000000e+00
1.322410e-01 2.121611e-01 1.000000e+00
8.682631e-02 2.344380e-01 1.000000e+00
3.785694e-02 2.471171e-01 1.000000e+00
-1.266229e-02 2.496791e-01 1.000000e+00
-6.266313e-02 2.420193e-01 1.000000e+00
-1.100985e-01 2.244511e-01 1.000000e+00
-1.530265e-01 1.976939e-01 1.000000e+00
-1.896895e-01 1.628431e-01 1.000000e+00
-2.185867e-01 1.213255e-01 1.000000e+00
-2.385348e-01 7.484078e-02 1.000000e+00
-2.487173e-01 2.529208e-02 1.000000e+00
-2.487173e-01 -2.529208e-02 1.000000e+00
-2.385348e-01 -7.484078e-02 1.000000e+00
-2.185867e-01 -1.213255e-01 1.000000e+00
-1.896895e-01 -1.628431e-01 1.000000e+00
-1.530265e-01 -1.976939e-01 1.000000e+00
-1.100985e-01 -2.244511e-01 1.000000e+00
-6.266313e-02 -2.420193e-01 1.000000e+00
-1.266229e-02 -2.496791e-01 1.000000e+00
3.785694e-02 -2.471171e-01 1.000000e+00
8.682631e-02 -2.344380e-01 1.000000e+00
1.322410e-01 -2.121611e-01 1.000000e+00
1.722417e-01 -1.811982e-01 1.000000e+00
2.051909e-01 -1.428171e-01 1.000000e+00
2.297395e-01 -9.858896e-02 1.000000e+00
2.448825e-01 -5.032463e-02 1.000000e+00
2.375000e-01 0.000000e+00 1.050000e+00
2.319474e-01 5.105548e-02 1.050000e+00
2.155492e-01 9.972366e-02 1.050000e+00
1.890721e-01 1.437289e-01 1.050000e+00
1.537542e-01 1.810135e-01 1.050000e+00
1.112470e-01 2.098341e-01 1.050000e+00
6.353798e-02 2.288431e-01 1.050000e+00
1.285799e-02 2.371517e-01 1.050000e+00
-3.842322e-02 2.343713e-01 1.050000e+00
-8.790781e-02 2.206320e-01 1.050000e+00
-1.332819e-01 1.965761e-01 1.050000e+00
-1.724239e-01 1.633286e-01 1.050000e+00
-2.035036e-01 1.224440e-01 1.050000e+00
-2.250676e-01 7.583411e-02 1.050000e+00
-2.361078e-01 2.567827e-02 1.050000e+00
-2.361078e-01 -2.567827e-02 1.050000e+00
-2.250676e-01 -7.583411e-02 1.050000e+00
-2.035036e-01 -1.224440e-01 1.050000e+00
-1.724239e-01 -1.633286e-01 1.050000e+00
-1.332819e-01 -1.965761e-01 1.050000e+00
-8.790781e-02 -2.206320e-01 1.050000e+00
-3.842322e-02 -2.343713e-01 1.050000e+00
1.285799e-02 -2.371517e-01 1.050000e+00
6.353798e-02 -2.288431e-01 1.050000e+00
1.112470e-01 -2.098341e-01 1.050000e+00
1.537542e-01 -1.810135e-01 1.050000e+00
1.890721e-01 -1.437289e-01 1.050000e+00
2.155492e-01 -9.972366e-02 1.050000e+00
2.319474e-01 -5.105548e-02 1.050000e+00
2.250000e-01 0.000000e+00 1.100000e+00
2.189351e-01 5.188857e-02 1.100000e+00
2.010673e-01 1.009798e-01 1.100000e+00
1.723600e-01 1.446272e-01 1.100000e+00
1.343607e-01 1.804777e-01 1.100000e+00
8.911795e-02 2.065986e-01 1.100000e+00
3.907084e-02 2.215817e-01 1.100000e+00
-1.308259e-02 2.246193e-01 1.100000e+00
-6.453073e-02 2.155476e-01 1.100000e+00
-1.125000e-01 1.948557e-01 1.100000e+00
-1.544044e-01 1.636591e-01 1.100000e+00
-1.879848e-01 1.236395e-01 1.100000e+00
-2.114308e-01 7.695453e-02 1.100000e+00
-2.234786e-01 2.612091e-02 1.100000e+00
-2.234786e-01 -2.612091e-02 1.100000e+00
-2.114308e-01 -7.695453e-02 1.100000e+00
-1.879848e-01 -1.236395e-01 1.100000e+00
-1.544044e-01 -1.636591e-01 1.100000e+00
-1.125000e-01 -1.948557e-01 1.100000e+00
-6.453073e-02 -2.155476e-01 1.100000e+00
-1.308259e-02 -2.246193e-01 1.100000e+00
3.907084e-02 -2.215817e-01 1.100000e+00
8.911795e-02 -2.065986e-01 1.100000e+00
1.343607e-01 -1.804777e-01 1.100000e+00
1.723600e-01 -1.446272e-01 1.100000e+00
2.010673e-01 -1.009798e-01 1.100000e+00
2.189351e-01 -5.188857e-02 1.100000e+00
2.125000e-01 0.000000e+00 1.150000e+00
2.063251e-01 5.085458e-02 1.150000e+00
1.881594e-01 9.875367e-02 1.150000e+00
1.590585e-01 1.409136e-01 1.150000e+00
1.207138e-01 1.748841e-01 1.150000e+00
7.535354e-02 1.986910e-01 1.150000e+00
2.561404e-02 2.109506e-01 1.150000e+00
-2.561404e-02 2.109506e-01 1.150000e+00
-7.535354e-02 1.986910e-01 1.150000e+00
-1.207138e-01 1.748841e-01 1.150000e+00
-1.590585e-01 1.409136e-01 1.150000e+00
-1.881594e-01 9.875367e-02 1.150000e+00
-2.063251e-01 5.085458e-02 1.150000e+00
-2.125000e-01 2.602374e-17 1.150000e+00
-2.063251e-01 -5.085458e-02 1.150000e+00
-1.881594e-01 -9.875367e-02 1.150000e+00
-1.590585e-01 -1.409136e-01 1.150000e+00
-1.207138e-01 -1.748841e-01 1.150000e+00
-7.535354e-02 -1.986910e-01 1.150000e+00
-2.561404e-02 -2.109506e-01 1.150000e+00
2.561404e-02 -2.109506e-01 1.150000e+00
7.535354e-02 -1.986910e-01 1.150000e+00
1.207138e-01 -1.748841e-01 1.150000e+00
1.590585e-01 -1.409136e-01 1.150000e+00
1.881594e-01 -9.875367e-02 1.150000e+00
2.063251e-01 -5.085458e-02 1.150000e+00
2.000000e-01 0.000000e+00 1.200000e+00
1.931852e-01 5.176381e-02 1.200000e+00
1.732051e-01 1.000000e-01 1.200000e+00
1.414214e-01 1.414214e-01 1.200000e+00
1.000000e-01 1.732051e-01 1.200000e+00
5.176381e-02 1.931852e-01 1.200000e+00
1.224647e-17 2.000000e-01 1.200000e+00
-5.176381e-02 1.931852e-01 1.200000e+00
-1.000000e-01 1.732051e-01 1.200000e+00
-1.414214e-01 1.414214e-01 1.200000e+00
-1.732051e-01 1.000000e-01 1.200000e+00
-1.931852e-01 5.176381e-02 1.200000e+00
-2.000000e-01 2.449294e-17 1.200000e+00
-1.931852e-01 -5.176381e-02 1.200000e+00
-1.732051e-01 -1.000000e-01 1.200000e+00
-1.414214e-01 -1.414214e-01 1.200000e+00
-1.000000e-01 -1.732051e-01 1.200000e+00
-5.176381e-02 -1.931852e-01 1.200000e+00
-3.673940e-17 -2.000000e-01 1.200000e+00
5.176381e-02 -1.931852e-01 1.200000e+00
1.000000e-01 -1.732051e-01 1.200000e+00
1.414214e-01 -1.414214e-01 1.200000e+00
1.732051e-01 -1.000000e-01 1.200000e+00
1.931852e-01 -5.176381e-02 1.200000e+00
1.875000e-01 0.000000e+00 1.250000e+00
1.805470e-01 5.058689e-02 1.250000e+00
1.602036e-01 9.742199e-02 1.250000e+00
1.279787e-01 1.370317e-01 1.250000e+00
8.626219e-02 1.664785e-01 1.250000e+00
3.814800e-02 1.835783e-01 1.250000e+00
-1.279545e-02 1.870629e-01 1.250000e+00
-6.278993e-02 1.766739e-01 1.250000e+00
-1.081276e-01 1.531819e-01 1.250000e+00
-1.454459e-01 1.183290e-01 1.250000e+00
-1.719771e-01 7.470020e-02 1.250000e+00
-1.857536e-01 2.553125e-02 1.250000e+00
-1.857536e-01 -2.553125e-02 1.250000e+00
-1.719771e-01 -7.470020e-02 1.250000e+00
-1.454459e-01 -1.183290e-01 1.250000e+00
-1.081276e-01 -1.531819e-01 1.250000e+00
-6.278993e-02 -1.766739e-01 1.250000e+00
-1.279545e-02 -1.870629e-01 1.250000e+00
3.814800e-02 -1.835783e-01 1.250000e+00
8.626219e-02 -1.664785e-01 1.250000e+00
1.279787e-01 -1.370317e-01 1.250000e+00
1.602036e-01 -9.742199e-02 1.250000e+00
1.805470e-01 -5.058689e-02 1.250000e+00
1.750000e-01 0.000000e+00 1.300000e+00
1.672252e-01 5.158216e-02 1.300000e+00
1.445918e-01 9.858101e-02 1.300000e+00
1.091107e-01 1.368205e-01 1.300000e+00
6.393468e-02 1.629029e-01 1.300000e+00
1.307777e-02 1.745107e-01 1.300000e+00
-3.894116e-02 1.706124e-01 1.300000e+00
-8.750000e-02 1.515544e-01 1.300000e+00
-1.282841e-01 1.190302e-01 1.300000e+00
-1.576696e-01 7.592965e-02 1.300000e+00
-1.730454e-01 2.608240e-02 1.300000e+00
-1.730454e-01 -2.608240e-02 1.300000e+00
-1.576696e-01 -7.592965e-02 1.300000e+00
-1.282841e-01 -1.190302e-01 1.300000e+00
-8.750000e-02 -1.515544e-01 1.300000e+00
-3.894116e-02 -1.706124e-01 1.300000e+00
1.307777e-02 -1.745107e-01 1.300000e+00
6.393468e-02 -1.629029e-01 1.300000e+00
1.091107e-01 -1.368205e-01 1.300000e+00
1.445918e-01 -9.858101e-02 1.300000e+00
1.672252e-01 -5.158216e-02 1.300000e+00
1.625000e-01 0.000000e+00 1.350000e+00
1.545467e-01 5.021526e-02 1.350000e+00
1.314653e-01 9.551510e-02 1.350000e+00
9.551510e-02 1.314653e-01 1.350000e+00
5.021526e-02 1.545467e-01 1.350000e+00
9.950255e-18 1.625000e-01 1.350000e+00
-5.021526e-02 1.545467e-01 1.350000e+00
-9.551510e-02 1.314653e-01 1.350000e+00
-1.314653e-01 9.551510e-02 1.350000e+00
-1.545467e-01 5.021526e-02 1.350000e+00
-1.625000e-01 1.990051e-17 1.350000e+00
-1.545467e-01 -5.021526e-02 1.350000e+00
-1.314653e-01 -9.551510e-02 1.350000e+00
-9.551510e-02 -1.314653e-01 1.350000e+00
-5.021526e-02 -1.545467e-01 1.350000e+00
-2.985077e-17 -1.625000e-01 1.350000e+00
5.021526e-02 -1.545467e-01 1.350000e+00
9.551510e-02 -1.314653e-01 1.350000e+00
1.314653e-01 -9.551510e-02 1.350000e+00
1.545467e-01 -5.021526e-02 1.350000e+00
1.500000e-01 0.000000e+00 1.400000e+00
1.409539e-01 5.130302e-02 1.400000e+00
1.149067e-01 9.641814e-02 1.400000e+00
7.500000e-02 1.299038e-01 1.400000e+00
2.604723e-02 1.477212e-01 1.400000e+00
-2.604723e-02 1.477212e-01 1.400000e+00
-7.500000e-02 1.299038e-01 1.400000e+00
-1.149067e-01 9.641814e-02 1.400000e+00
-1.409539e-01 5.130302e-02 1.400000e+00
-1.500000e-01 1.836970e-17 1.400000e+00
-1.409539e-01 -5.130302e-02 1.400000e+00
-1.149067e-01 -9.641814e-02 1.400000e+00
-7.500000e-02 -1.299038e-01 1.400000e+00
-2.604723e-02 -1.477212e-01 1.400000e+00
2.604723e-02 -1.477212e-01 1.400000e+00
7.500000e-02 -1.299038e-01 1.400000e+00
1.149067e-01 -9.641814e-02 1.400000e+00
1.409539e-01 -5.130302e-02 1.400000e+00
1.375000e-01 0.000000e+00 1.450000e+00
1.282149e-01 4.967073e-02 1.450000e+00
1.016137e-01 9.263315e-02 1.450000e+00
6.128902e-02 1.230850e-01 1.450000e+00
1.268690e-02 1.369134e-01 1.450000e+00
-3.762866e-02 1.322510e-01 1.450000e+00
-8.286226e-02 1.097274e-01 1.450000e+00
-1.169049e-01 7.238442e-02 1.450000e+00
-1.351588e-01 2.526556e-02 1.450000e+00
-1.351588e-01 -2.526556e-02 1.450000e+00
-1.169049e-01 -7.238442e-02 1.450000e+00
-8.286226e-02 -1.097274e-01 1.450000e+00
-3.762866e-02 -1.322510e-01 1.450000e+00
1.268690e-02 -1.369134e-01 1.450000e+00
6.128902e-02 -1.230850e-01 1.450000e+00
1.016137e-01 -9.263315e-02 1.450000e+00
1.282149e-01 -4.967073e-02 1.450000e+00
1.250000e-01 0.000000e+00 1.500000e+00
1.141932e-01 5.084208e-02 1.500000e+00
8.364133e-02 9.289310e-02 1.500000e+00
3.862712e-02 1.188821e-01 1.500000e+00
-1.306606e-02 1.243152e-01 1.500000e+00
-6.250000e-02 1.082532e-01 1.500000e+00
-1.011271e-01 7.347316e-02 1.500000e+00
-1.222685e-01 2.598896e-02 1.500000e+00
-1.222685e-01 -2.598896e-02 1.500000e+00
-1.011271e-01 -7.347316e-02 1.500000e+00
-6.250000e-02 -1.082532e-01 1.500000e+00
-1.306606e-02 -1.243152e-01 1.500000e+00
3.862712e-02 -1.188821e-01 1.500000e+00
8.364133e-02 -9.289310e-02 1.500000e+00
1.141932e-01 -5.084208e-02 1.500000e+00
1.125000e-01 0.000000e+00 1.550000e+00
9.961380e-02 5.228136e-02 1.550000e+00
6.390728e-02 9.258568e-02 1.550000e+00
1.356038e-02 1.116797e-01 1.550000e+00
-3.989305e-02 1.051893e-01 1.550000e+00
-8.420746e-02 7.460130e-02 1.550000e+00
-1.092310e-01 2.692301e-02 1.550000e+00
-1.092310e-01 -2.692301e-02 1.550000e+00
-8.420746e-02 -7.460130e-02 1.550000e+00
-3.989305e-02 -1.051893e-01 1.550000e+00
1.356038e-02 -1.116797e-01 1.550000e+00
6.390728e-02 -9.258568e-02 1.550000e+00
9.961380e-02 -5.228136e-02 1.550000e+00
1.000000e-01 0.000000e+00 1.600000e+00
8.660254e-02 5.000000e-02 1.600000e+00
5.000000e-02 8.660254e-02 1.600000e+00
6.123234e-18 1.000000e-01 1.600000e+00
-5.000000e-02 8.660254e-02 1.600000e+00
-8.660254e-02 5.000000e-02 1.600000e+00
-1.000000e-01 1.224647e-17 1.600000e+00
-8.660254e-02 -5.000000e-02 1.600000e+00
-5.000000e-02 -8.660254e-02 1.600000e+00
-1.836970e-17 -1.000000e-01 1.600000e+00
5.000000e-02 -8.660254e-02 1.600000e+00
8.660254e-02 -5.000000e-02 1.600000e+00
8.750000e-02 0.000000e+00 1.650000e+00
7.078899e-02 5.143121e-02 1.650000e+00
2.703899e-02 8.321745e-02 1.650000e+00
-2.703899e-02 8.321745e-02 1.650000e+00
-7.078899e-02 5.143121e-02 1.650000e+00
-8.750000e-02 1.071566e-17 1.650000e+00
-7.078899e-02 -5.143121e-02 1.650000e+00
-2.703899e-02 -8.321745e-02 1.650000e+00
2.703899e-02 -8.321745e-02 1.650000e+00
7.078899e-02 -5.143121e-02 1.650000e+00
7.500000e-02 0.000000e+00 1.700000e+00
5.745333e-02 4.820907e-02 1.700000e+00
1.302361e-02 7.386058e-02 1.700000e+00
-3.750000e-02 6.495191e-02 1.700000e+00
-7.047695e-02 2.565151e-02 1.700000e+00
-7.047695e-02 -2.565151e-02 1.700000e+00
-3.750000e-02 -6.495191e-02 1.700000e+00
1.302361e-02 -7.386058e-02 1.700000e+00
5.745333e-02 -4.820907e-02 1.700000e+00
6.250000e-02 0.000000e+00 1.750000e+00
3.896811e-02 4.886447e-02 1.750000e+00
-1.390756e-02 6.093299e-02 1.750000e+00
-5.631055e-02 2.711773e-02 1.750000e+00
-5.631055e-02 -2.711773e-02 1.750000e+00
-1.390756e-02 -6.093299e-02 1.750000e+00
3.896811e-02 -4.886447e-02 1.750000e+00
5.000000e-02 0.000000e+00 1.800000e+00
2.500000e-02 4.330127e-02 1.800000e+00
-2.500000e-02 4.330127e-02 1.800000e+00
-5.000000e-02 6.123234e-18 1.800000e+00
-2.500000e-02 -4.330127e-02 1.800000e+00
2.500000e-02 -4.330127e-02 1.800000e+00
3.750000e-02 0.000000e+00 1.850000e+00
2.296213e-18 3.750000e-02 1.850000e+00
-3.750000e-02 4.592425e-18 1.850000e+00
-6.888638e-18 -3.750000e-02 1.850000e+00
2.500000e-02 0.000000e+00 1.900000e+00
-1.250000e-02 2.165064e-02 1.900000e+00
-1.250000e-02 -2.165064e-02 1.900000e+00
1.250000e-02 0.000000e+00 1.950000e+00
