1.561249e-01 0.000000e+00 5.000000e-02
1.476657e-01 5.069369e-02 5.000000e-02
1.232045e-01 9.589393e-02 5.000000e-02
8.539225e-02 1.307026e-01 5.000000e-02
3.832641e-02 1.513476e-01 5.000000e-02
-1.289270e-02 1.555917e-01 5.000000e-02
-6.271468e-02 1.429751e-01 5.000000e-02
-1.057406e-01 1.148649e-01 5.000000e-02
-1.373078e-01 7.430726e-02 5.000000e-02
-1.539956e-01 2.569732e-02 5.000000e-02
-1.539956e-01 -2.569732e-02 5.000000e-02
-1.373078e-01 -7.430726e-02 5.000000e-02
-1.057406e-01 -1.148649e-01 5.000000e-02
-6.271468e-02 -1.429751e-01 5.000000e-02
-1.289270e-02 -1.555917e-01 5.000000e-02
3.832641e-02 -1.513476e-01 5.000000e-02
8.539225e-02 -1.307026e-01 5.000000e-02
1.232045e-01 -9.589393e-02 5.000000e-02
1.476657e-01 -5.069369e-02 5.000000e-02
2.179449e-01 0.000000e+00 1.000000e-01
2.120702e-01 5.026156e-02 1.000000e-01
1.947627e-01 9.781351e-02 1.000000e-01
1.669555e-01 1.400923e-01 1.000000e-01
1.301477e-01 1.748187e-01 1.000000e-01
8.632358e-02 2.001206e-01 1.000000e-01
3.784574e-02 2.146339e-01 1.000000e-01
-1.267237e-02 2.175762e-01 1.000000e-01
-6.250732e-02 2.087890e-01 1.000000e-01
-1.089725e-01 1.887459e-01 1.000000e-01
-1.495629e-01 1.585274e-01 1.000000e-01
-1.820903e-01 1.197627e-01 1.000000e-01
-2.048013e-01 7.454156e-02 1.000000e-01
-2.164713e-01 2.530186e-02 1.000000e-01
-2.164713e-01 -2.530186e-02 1.000000e-01
-2.048013e-01 -7.454156e-02 1.000000e-01
-1.820903e-01 -1.197627e-01 1.000000e-01
-1.495629e-01 -1.585274e-01 1.000000e-01
-1.089725e-01 -1.887459e-01 1.000000e-01
-6.250732e-02 -2.087890e-01 1.000000e-01
-1.267237e-02 -2.175762e-01 1.000000e-01
3.784574e-02 -2.146339e-01 1.000000e-01
8.632358e-02 -2.001206e-01 1.000000e-01
1.301477e-01 -1.748187e-01 1.000000e-01
1.669555e-01 -1.400923e-01 1.000000e-01
1.947627e-01 -9.781351e-02 1.000000e-01
2.120702e-01 -5.026156e-02 1.000000e-01
2.633913e-01 0.000000e+00 1.500000e-01
2.583304e-01 5.138510e-02 1.500000e-01
2.433419e-01 1.007955e-01 1.500000e-01
2.190019e-01 1.463324e-01 1.500000e-01
1.862458e-01 1.862458e-01 1.500000e-01
1.463324e-01 2.190019e-01 1.500000e-01
1.007955e-01 2.433419e-01 1.500000e-01
5.138510e-02 2.583304e-01 1.500000e-01
1.612807e-17 2.633913e-01 1.500000e-01
-5.138510e-02 2.583304e-01 1.500000e-01
-1.007955e-01 2.433419e-01 1.500000e-01
-1.463324e-01 2.190019e-01 1.500000e-01
-1.862458e-01 1.862458e-01 1.500000e-01
-2.190019e-01 1.463324e-01 1.500000e-01
-2.433419e-01 1.007955e-01 1.500000e-01
-2.583304e-01 5.138510e-02 1.500000e-01
-2.633913e-01 3.225614e-17 1.500000e-01
-2.583304e-01 -5.138510e-02 1.500000e-01
-2.433419e-01 -1.007955e-01 1.500000e-01
-2.190019e-01 -1.463324e-01 1.500000e-01
-1.862458e-01 -1.862458e-01 1.500000e-01
-1.463324e-01 -2.190019e-01 1.500000e-01
-1.007955e-01 -2.433419e-01 1.500000e-01
-5.138510e-02 -2.583304e-01 1.500000e-01
-4.838420e-17 -2.633913e-01 1.500000e-01
5.138510e-02 -2.583304e-01 1.500000e-01
1.007955e-01 -2.433419e-01 1.500000e-01
1.463324e-01 -2.190019e-01 1.500000e-01
1.862458e-01 -1.862458e-01 1.500000e-01
2.190019e-01 -1.463324e-01 1.500000e-01
2.433419e-01 -1.007955e-01 1.500000e-01
2.583304e-01 -5.138510e-02 1.500000e-01
3.000000e-01 0.000000e+00 2.000000e-01
2.956848e-01 5.070025e-02 2.000000e-01
2.828632e-01 9.994194e-02 2.000000e-01
2.619042e-01 1.463085e-01 2.000000e-01
2.334107e-01 1.884660e-01 2.000000e-01
1.982024e-01 2.252017e-01 2.000000e-01
1.572922e-01 2.554587e-01 2.000000e-01
1.118569e-01 2.783667e-01 2.000000e-01
6.320378e-02 2.932666e-01 2.000000e-01
1.273236e-02 2.997297e-01 2.000000e-01
-3.810535e-02 2.975701e-01 2.000000e-01
-8.784683e-02 2.868500e-01 2.000000e-01
-1.350611e-01 2.678778e-01 2.000000e-01
-1.783900e-01 2.411991e-01 2.000000e-01
-2.165868e-01 2.075817e-01 2.000000e-01
-2.485529e-01 1.679924e-01 2.000000e-01
-2.733685e-01 1.235704e-01 2.000000e-01
-2.903199e-01 7.559342e-02 2.000000e-01
-2.989192e-01 2.544178e-02 2.000000e-01
-2.989192e-01 -2.544178e-02 2.000000e-01
-2.903199e-01 -7.559342e-02 2.000000e-01
-2.733685e-01 -1.235704e-01 2.000000e-01
-2.485529e-01 -1.679924e-01 2.000000e-01
-2.165868e-01 -2.075817e-01 2.000000e-01
-1.783900e-01 -2.411991e-01 2.000000e-01
-1.350611e-01 -2.678778e-01 2.000000e-01
-8.784683e-02 -2.868500e-01 2.000000e-01
-3.810535e-02 -2.975701e-01 2.000000e-01
1.273236e-02 -2.997297e-01 2.000000e-01
6.320378e-02 -2.932666e-01 2.000000e-01
1.118569e-01 -2.783667e-01 2.000000e-01
1.572922e-01 -2.554587e-01 2.000000e-01
1.982024e-01 -2.252017e-01 2.000000e-01
2.334107e-01 -1.884660e-01 2.000000e-01
2.619042e-01 -1.463085e-01 2.000000e-01
2.828632e-01 -9.994194e-02 2.000000e-01
2.956848e-01 -5.070025e-02 2.000000e-01
3.307189e-01 0.000000e+00 2.500000e-01
3.268430e-01 5.048401e-02 2.500000e-01
3.153062e-01 9.978471e-02 2.500000e-01
2.963789e-01 1.467465e-01 2.500000e-01
2.705047e-01 1.902688e-01 2.500000e-01
2.382901e-01 2.293312e-01 2.500000e-01
2.004902e-01 2.630184e-01 2.500000e-01
1.579910e-01 2.905406e-01 2.500000e-01
1.117886e-01 3.112528e-01 2.500000e-01
6.296594e-02 3.246695e-01 2.500000e-01
1.266744e-02 3.304762e-01 2.500000e-01
-3.792798e-02 3.285369e-01 2.500000e-01
-8.763439e-02 3.188969e-01 2.500000e-01
-1.352867e-01 3.017822e-01 2.500000e-01
-1.797681e-01 2.775940e-01 2.500000e-01
-2.200358e-01 2.468993e-01 2.500000e-01
-2.551461e-01 2.104174e-01 2.500000e-01
-2.842759e-01 1.690035e-01 2.500000e-01
-3.067426e-01 1.236284e-01 2.500000e-01
-3.220195e-01 7.535546e-02 2.500000e-01
-3.297485e-01 2.531629e-02 2.500000e-01
-3.297485e-01 -2.531629e-02 2.500000e-01
-3.220195e-01 -7.535546e-02 2.500000e-01
-3.067426e-01 -1.236284e-01 2.500000e-01
-2.842759e-01 -1.690035e-01 2.500000e-01
-2.551461e-01 -2.104174e-01 2.500000e-01
-2.200358e-01 -2.468993e-01 2.500000e-01
-1.797681e-01 -2.775940e-01 2.500000e-01
-1.352867e-01 -3.017822e-01 2.500000e-01
-8.763439e-02 -3.188969e-01 2.500000e-01
-3.792798e-02 -3.285369e-01 2.500000e-01
1.266744e-02 -3.304762e-01 2.500000e-01
6.296594e-02 -3.246695e-01 2.500000e-01
1.117886e-01 -3.112528e-01 2.500000e-01
1.579910e-01 -2.905406e-01 2.500000e-01
2.004902e-01 -2.630184e-01 2.500000e-01
2.382901e-01 -2.293312e-01 2.500000e-01
2.705047e-01 -1.902688e-01 2.500000e-01
2.963789e-01 -1.467465e-01 2.500000e-01
3.153062e-01 -9.978471e-02 2.500000e-01
3.268430e-01 -5.048401e-02 2.500000e-01
3.570714e-01 0.000000e+00 3.000000e-01
3.534369e-01 5.081656e-02 3.000000e-01
3.426075e-01 1.005986e-01 3.000000e-01
3.248036e-01 1.483328e-01 3.000000e-01
3.003876e-01 1.930474e-01 3.000000e-01
2.698566e-01 2.338321e-01 3.000000e-01
2.338321e-01 2.698566e-01 3.000000e-01
1.930474e-01 3.003876e-01 3.000000e-01
1.483328e-01 3.248036e-01 3.000000e-01
1.005986e-01 3.426075e-01 3.000000e-01
5.081656e-02 3.534369e-01 3.000000e-01
2.186432e-17 3.570714e-01 3.000000e-01
-5.081656e-02 3.534369e-01 3.000000e-01
-1.005986e-01 3.426075e-01 3.000000e-01
-1.483328e-01 3.248036e-01 3.000000e-01
-1.930474e-01 3.003876e-01 3.000000e-01
-2.338321e-01 2.698566e-01 3.000000e-01
-2.698566e-01 2.338321e-01 3.000000e-01
-3.003876e-01 1.930474e-01 3.000000e-01
-3.248036e-01 1.483328e-01 3.000000e-01
-3.426075e-01 1.005986e-01 3.000000e-01
-3.534369e-01 5.081656e-02 3.000000e-01
-3.570714e-01 4.372864e-17 3.000000e-01
-3.534369e-01 -5.081656e-02 3.000000e-01
-3.426075e-01 -1.005986e-01 3.000000e-01
-3.248036e-01 -1.483328e-01 3.000000e-01
-3.003876e-01 -1.930474e-01 3.000000e-01
-2.698566e-01 -2.338321e-01 3.000000e-01
-2.338321e-01 -2.698566e-01 3.000000e-01
-1.930474e-01 -3.003876e-01 3.000000e-01
-1.483328e-01 -3.248036e-01 3.000000e-01
-1.005986e-01 -3.426075e-01 3.000000e-01
-5.081656e-02 -3.534369e-01 3.000000e-01
-6.559296e-17 -3.570714e-01 3.000000e-01
5.081656e-02 -3.534369e-01 3.000000e-01
1.005986e-01 -3.426075e-01 3.000000e-01
1.483328e-01 -3.248036e-01 3.000000e-01
1.930474e-01 -3.003876e-01 3.000000e-01
2.338321e-01 -2.698566e-01 3.000000e-01
2.698566e-01 -2.338321e-01 3.000000e-01
3.003876e-01 -1.930474e-01 3.000000e-01
3.248036e-01 -1.483328e-01 3.000000e-01
3.426075e-01 -1.005986e-01 3.000000e-01
3.534369e-01 -5.081656e-02 3.000000e-01
3.799671e-01 0.000000e+00 3.500000e-01
3.765768e-01 5.064466e-02 3.500000e-01
3.664666e-01 1.003856e-01 3.500000e-01
3.498167e-01 1.483351e-01 3.500000e-01
3.269243e-01 1.936376e-01 3.500000e-01
2.981979e-01 2.354846e-01 3.500000e-01
2.641503e-01 2.731294e-01 3.500000e-01
2.253888e-01 3.059001e-01 3.500000e-01
1.826053e-01 3.332121e-01 3.500000e-01
1.365631e-01 3.545779e-01 3.500000e-01
8.808403e-02 3.696163e-01 3.500000e-01
3.803307e-02 3.780588e-01 3.500000e-01
-1.269659e-02 3.797549e-01 3.500000e-01
-6.319968e-02 3.746743e-01 3.500000e-01
-1.125750e-01 3.629075e-01 3.500000e-01
-1.599414e-01 3.446647e-01 3.500000e-01
-2.044536e-01 3.202713e-01 3.500000e-01
-2.453173e-01 2.901627e-01 3.500000e-01
-2.818034e-01 2.548761e-01 3.500000e-01
-3.132607e-01 2.150413e-01 3.500000e-01
-3.391278e-01 1.713690e-01 3.500000e-01
-3.589432e-01 1.246387e-01 3.500000e-01
-3.723532e-01 7.568412e-02 3.500000e-01
-3.791186e-01 2.537900e-02 3.500000e-01
-3.791186e-01 -2.537900e-02 3.500000e-01
-3.723532e-01 -7.568412e-02 3.500000e-01
-3.589432e-01 -1.246387e-01 3.500000e-01
-3.391278e-01 -1.713690e-01 3.500000e-01
-3.132607e-01 -2.150413e-01 3.500000e-01
-2.818034e-01 -2.548761e-01 3.500000e-01
-2.453173e-01 -2.901627e-01 3.500000e-01
-2.044536e-01 -3.202713e-01 3.500000e-01
-1.599414e-01 -3.446647e-01 3.500000e-01
-1.125750e-01 -3.629075e-01 3.500000e-01
-6.319968e-02 -3.746743e-01 3.500000e-01
-1.269659e-02 -3.797549e-01 3.500000e-01
3.803307e-02 -3.780588e-01 3.500000e-01
8.808403e-02 -3.696163e-01 3.500000e-01
1.365631e-01 -3.545779e-01 3.500000e-01
1.826053e-01 -3.332121e-01 3.500000e-01
2.253888e-01 -3.059001e-01 3.500000e-01
2.641503e-01 -2.731294e-01 3.500000e-01
2.981979e-01 -2.354846e-01 3.500000e-01
3.269243e-01 -1.936376e-01 3.500000e-01
3.498167e-01 -1.483351e-01 3.500000e-01
3.664666e-01 -1.003856e-01 3.500000e-01
3.765768e-01 -5.064466e-02 3.500000e-01
4.000000e-01 0.000000e+00 4.000000e-01
3.967160e-01 5.115086e-02 4.000000e-01
3.869179e-01 1.014618e-01 4.000000e-01
3.707667e-01 1.501068e-01 4.000000e-01
3.485275e-01 1.962870e-01 4.000000e-01
3.205654e-01 2.392442e-01 4.000000e-01
2.873397e-01 2.782730e-01 4.000000e-01
2.493959e-01 3.127326e-01 4.000000e-01
2.073570e-01 3.420571e-01 4.000000e-01
1.619133e-01 3.657650e-01 4.000000e-01
1.138110e-01 3.834671e-01 4.000000e-01
6.383996e-02 3.948727e-01 4.000000e-01
1.282063e-02 3.997945e-01 4.000000e-01
-3.840921e-02 3.981516e-01 4.000000e-01
-8.900837e-02 3.899712e-01 4.000000e-01
-1.381460e-01 3.753874e-01 4.000000e-01
-1.850153e-01 3.546397e-01 4.000000e-01
-2.288467e-01 3.280689e-01 4.000000e-01
-2.689204e-01 2.961112e-01 4.000000e-01
-3.045784e-01 2.592914e-01 4.000000e-01
-3.352352e-01 2.182140e-01 4.000000e-01
-3.603875e-01 1.735535e-01 4.000000e-01
-3.796223e-01 1.260433e-01 4.000000e-01
-3.926237e-01 7.646345e-02 4.000000e-01
-3.991782e-01 2.562809e-02 4.000000e-01
-3.991782e-01 -2.562809e-02 4.000000e-01
-3.926237e-01 -7.646345e-02 4.000000e-01
-3.796223e-01 -1.260433e-01 4.000000e-01
-3.603875e-01 -1.735535e-01 4.000000e-01
-3.352352e-01 -2.182140e-01 4.000000e-01
-3.045784e-01 -2.592914e-01 4.000000e-01
-2.689204e-01 -2.961112e-01 4.000000e-01
-2.288467e-01 -3.280689e-01 4.000000e-01
-1.850153e-01 -3.546397e-01 4.000000e-01
-1.381460e-01 -3.753874e-01 4.000000e-01
-8.900837e-02 -3.899712e-01 4.000000e-01
-3.840921e-02 -3.981516e-01 4.000000e-01
1.282063e-02 -3.997945e-01 4.000000e-01
6.383996e-02 -3.948727e-01 4.000000e-01
1.138110e-01 -3.834671e-01 4.000000e-01
1.619133e-01 -3.657650e-01 4.000000e-01
2.073570e-01 -3.420571e-01 4.000000e-01
2.493959e-01 -3.127326e-01 4.000000e-01
2.873397e-01 -2.782730e-01 4.000000e-01
3.205654e-01 -2.392442e-01 4.000000e-01
3.485275e-01 -1.962870e-01 4.000000e-01
3.707667e-01 -1.501068e-01 4.000000e-01
3.869179e-01 -1.014618e-01 4.000000e-01
3.967160e-01 -5.115086e-02 4.000000e-01
4.175823e-01 0.000000e+00 4.500000e-01
4.144173e-01 5.131598e-02 4.500000e-01
4.049701e-01 1.018541e-01 4.500000e-01
3.893839e-01 1.508481e-01 4.500000e-01
3.678951e-01 1.975555e-01 4.500000e-01
3.408294e-01 2.412681e-01 4.500000e-01
3.085971e-01 2.813234e-01 4.500000e-01
2.716867e-01 3.171141e-01 4.500000e-01
2.306579e-01 3.480976e-01 4.500000e-01
1.861325e-01 3.738044e-01 4.500000e-01
1.387855e-01 3.938446e-01 4.500000e-01
8.933467e-02 4.079146e-01 4.500000e-01
3.852964e-02 4.158010e-01 4.500000e-01
-1.285947e-02 4.173843e-01 4.500000e-01
-6.405364e-02 4.126404e-01 4.500000e-01
-1.142768e-01 4.016414e-01 4.500000e-01
-1.627677e-01 3.845539e-01 4.500000e-01
-2.087912e-01 3.616369e-01 4.500000e-01
-2.516496e-01 3.332379e-01 4.500000e-01
-2.906932e-01 2.997873e-01 4.500000e-01
-3.253303e-01 2.617923e-01 4.500000e-01
-3.550357e-01 2.198288e-01 4.500000e-01
-3.793590e-01 1.745329e-01 4.500000e-01
-3.979317e-01 1.265912e-01 4.500000e-01
-4.104722e-01 7.673055e-02 4.500000e-01
-4.167903e-01 2.570675e-02 4.500000e-01
-4.167903e-01 -2.570675e-02 4.500000e-01
-4.104722e-01 -7.673055e-02 4.500000e-01
-3.979317e-01 -1.265912e-01 4.500000e-01
-3.793590e-01 -1.745329e-01 4.500000e-01
-3.550357e-01 -2.198288e-01 4.500000e-01
-3.253303e-01 -2.617923e-01 4.500000e-01
-2.906932e-01 -2.997873e-01 4.500000e-01
-2.516496e-01 -3.332379e-01 4.500000e-01
-2.087912e-01 -3.616369e-01 4.500000e-01
-1.627677e-01 -3.845539e-01 4.500000e-01
-1.142768e-01 -4.016414e-01 4.500000e-01
-6.405364e-02 -4.126404e-01 4.500000e-01
-1.285947e-02 -4.173843e-01 4.500000e-01
3.852964e-02 -4.158010e-01 4.500000e-01
8.933467e-02 -4.079146e-01 4.500000e-01
1.387855e-01 -3.938446e-01 4.500000e-01
1.861325e-01 -3.738044e-01 4.500000e-01
2.306579e-01 -3.480976e-01 4.500000e-01
2.716867e-01 -3.171141e-01 4.500000e-01
3.085971e-01 -2.813234e-01 4.500000e-01
3.408294e-01 -2.412681e-01 4.500000e-01
3.678951e-01 -1.975555e-01 4.500000e-01
3.893839e-01 -1.508481e-01 4.500000e-01
4.049701e-01 -1.018541e-01 4.500000e-01
4.144173e-01 -5.131598e-02 4.500000e-01
4.330127e-01 0.000000e+00 5.000000e-01
4.299734e-01 5.121379e-02 5.000000e-01
4.208983e-01 1.017086e-01 5.000000e-01
4.059146e-01 1.507757e-01 5.000000e-01
3.852328e-01 1.977263e-01 5.000000e-01
3.591432e-01 2.419011e-01 5.000000e-01
3.280120e-01 2.826803e-01 5.000000e-01
2.922762e-01 3.194912e-01 5.000000e-01
2.524375e-01 3.518171e-01 5.000000e-01
2.090552e-01 3.792044e-01 5.000000e-01
1.627381e-01 4.012684e-01 5.000000e-01
1.141366e-01 4.176995e-01 5.000000e-01
6.393284e-02 4.282670e-01 5.000000e-01
1.283161e-02 4.328225e-01 5.000000e-01
-3.844975e-02 4.313022e-01 5.000000e-01
-8.919136e-02 4.237274e-01 5.000000e-01
-1.386809e-01 4.102043e-01 5.000000e-01
-1.862237e-01 3.909229e-01 5.000000e-01
-2.311523e-01 3.661538e-01 5.000000e-01
-2.728360e-01 3.362447e-01 5.000000e-01
-3.106898e-01 3.016154e-01 5.000000e-01
-3.441821e-01 2.627522e-01 5.000000e-01
-3.728428e-01 2.202004e-01 5.000000e-01
-3.962697e-01 1.745576e-01 5.000000e-01
-4.141338e-01 1.264643e-01 5.000000e-01
-4.261843e-01 7.659574e-02 5.000000e-01
-4.322522e-01 2.565194e-02 5.000000e-01
-4.322522e-01 -2.565194e-02 5.000000e-01
-4.261843e-01 -7.659574e-02 5.000000e-01
-4.141338e-01 -1.264643e-01 5.000000e-01
-3.962697e-01 -1.745576e-01 5.000000e-01
-3.728428e-01 -2.202004e-01 5.000000e-01
-3.441821e-01 -2.627522e-01 5.000000e-01
-3.106898e-01 -3.016154e-01 5.000000e-01
-2.728360e-01 -3.362447e-01 5.000000e-01
-2.311523e-01 -3.661538e-01 5.000000e-01
-1.862237e-01 -3.909229e-01 5.000000e-01
-1.386809e-01 -4.102043e-01 5.000000e-01
-8.919136e-02 -4.237274e-01 5.000000e-01
-3.844975e-02 -4.313022e-01 5.000000e-01
1.283161e-02 -4.328225e-01 5.000000e-01
6.393284e-02 -4.282670e-01 5.000000e-01
1.141366e-01 -4.176995e-01 5.000000e-01
1.627381e-01 -4.012684e-01 5.000000e-01
2.090552e-01 -3.792044e-01 5.000000e-01
2.524375e-01 -3.518171e-01 5.000000e-01
2.922762e-01 -3.194912e-01 5.000000e-01
3.280120e-01 -2.826803e-01 5.000000e-01
3.591432e-01 -2.419011e-01 5.000000e-01
3.852328e-01 -1.977263e-01 5.000000e-01
4.059146e-01 -1.507757e-01 5.000000e-01
4.208983e-01 -1.017086e-01 5.000000e-01
4.299734e-01 -5.121379e-02 5.000000e-01
4.465143e-01 0.000000e+00 5.500000e-01
4.436038e-01 5.089879e-02 5.500000e-01
4.349102e-01 1.011340e-01 5.500000e-01
4.205470e-01 1.500509e-01 5.500000e-01
4.007012e-01 1.970115e-01 5.500000e-01
3.756317e-01 2.414038e-01 5.500000e-01
3.456653e-01 2.826491e-01 5.500000e-01
3.111926e-01 3.202096e-01 5.500000e-01
2.726630e-01 3.535957e-01 5.500000e-01
2.305788e-01 3.823721e-01 5.500000e-01
1.854887e-01 4.061637e-01 5.500000e-01
1.379805e-01 4.246603e-01 5.500000e-01
8.867348e-02 4.376209e-01 5.500000e-01
3.821046e-02 4.448763e-01 5.500000e-01
-1.275068e-02 4.463322e-01 5.500000e-01
-6.354561e-02 4.419694e-01 5.500000e-01
-1.135121e-01 4.318449e-01 5.500000e-01
-1.619988e-01 4.160906e-01 5.500000e-01
-2.083736e-01 3.949119e-01 5.500000e-01
-2.520320e-01 3.685850e-01 5.500000e-01
-2.924047e-01 3.374530e-01 5.500000e-01
-3.289654e-01 3.019217e-01 5.500000e-01
-3.612376e-01 2.624545e-01 5.500000e-01
-3.888006e-01 2.195658e-01 5.500000e-01
-4.112949e-01 1.738147e-01 5.500000e-01
-4.284273e-01 1.257976e-01 5.500000e-01
-4.399746e-01 7.614059e-02 5.500000e-01
-4.457861e-01 2.549097e-02 5.500000e-01
-4.457861e-01 -2.549097e-02 5.500000e-01
-4.399746e-01 -7.614059e-02 5.500000e-01
-4.284273e-01 -1.257976e-01 5.500000e-01
-4.112949e-01 -1.738147e-01 5.500000e-01
-3.888006e-01 -2.195658e-01 5.500000e-01
-3.612376e-01 -2.624545e-01 5.500000e-01
-3.289654e-01 -3.019217e-01 5.500000e-01
-2.924047e-01 -3.374530e-01 5.500000e-01
-2.520320e-01 -3.685850e-01 5.500000e-01
-2.083736e-01 -3.949119e-01 5.500000e-01
-1.619988e-01 -4.160906e-01 5.500000e-01
-1.135121e-01 -4.318449e-01 5.500000e-01
-6.354561e-02 -4.419694e-01 5.500000e-01
-1.275068e-02 -4.463322e-01 5.500000e-01
3.821046e-02 -4.448763e-01 5.500000e-01
8.867348e-02 -4.376209e-01 5.500000e-01
1.379805e-01 -4.246603e-01 5.500000e-01
1.854887e-01 -4.061637e-01 5.500000e-01
2.305788e-01 -3.823721e-01 5.500000e-01
2.726630e-01 -3.535957e-01 5.500000e-01
3.111926e-01 -3.202096e-01 5.500000e-01
3.456653e-01 -2.826491e-01 5.500000e-01
3.756317e-01 -2.414038e-01 5.500000e-01
4.007012e-01 -1.970115e-01 5.500000e-01
4.205470e-01 -1.500509e-01 5.500000e-01
4.349102e-01 -1.011340e-01 5.500000e-01
4.436038e-01 -5.089879e-02 5.500000e-01
4.582576e-01 0.000000e+00 6.000000e-01
4.553761e-01 5.130857e-02 6.000000e-01
4.467681e-01 1.019719e-01 6.000000e-01
4.325417e-01 1.513529e-01 6.000000e-01
4.128758e-01 1.988305e-01 6.000000e-01
3.880178e-01 2.438077e-01 6.000000e-01
3.582802e-01 2.857189e-01 6.000000e-01
3.240370e-01 3.240370e-01 6.000000e-01
2.857189e-01 3.582802e-01 6.000000e-01
2.438077e-01 3.880178e-01 6.000000e-01
1.988305e-01 4.128758e-01 6.000000e-01
1.513529e-01 4.325417e-01 6.000000e-01
1.019719e-01 4.467681e-01 6.000000e-01
5.130857e-02 4.553761e-01 6.000000e-01
2.806018e-17 4.582576e-01 6.000000e-01
-5.130857e-02 4.553761e-01 6.000000e-01
-1.019719e-01 4.467681e-01 6.000000e-01
-1.513529e-01 4.325417e-01 6.000000e-01
-1.988305e-01 4.128758e-01 6.000000e-01
-2.438077e-01 3.880178e-01 6.000000e-01
-2.857189e-01 3.582802e-01 6.000000e-01
-3.240370e-01 3.240370e-01 6.000000e-01
-3.582802e-01 2.857189e-01 6.000000e-01
-3.880178e-01 2.438077e-01 6.000000e-01
-4.128758e-01 1.988305e-01 6.000000e-01
-4.325417e-01 1.513529e-01 6.000000e-01
-4.467681e-01 1.019719e-01 6.000000e-01
-4.553761e-01 5.130857e-02 6.000000e-01
-4.582576e-01 5.612037e-17 6.000000e-01
-4.553761e-01 -5.130857e-02 6.000000e-01
-4.467681e-01 -1.019719e-01 6.000000e-01
-4.325417e-01 -1.513529e-01 6.000000e-01
-4.128758e-01 -1.988305e-01 6.000000e-01
-3.880178e-01 -2.438077e-01 6.000000e-01
-3.582802e-01 -2.857189e-01 6.000000e-01
-3.240370e-01 -3.240370e-01 6.000000e-01
-2.857189e-01 -3.582802e-01 6.000000e-01
-2.438077e-01 -3.880178e-01 6.000000e-01
-1.988305e-01 -4.128758e-01 6.000000e-01
-1.513529e-01 -4.325417e-01 6.000000e-01
-1.019719e-01 -4.467681e-01 6.000000e-01
-5.130857e-02 -4.553761e-01 6.000000e-01
-8.418055e-17 -4.582576e-01 6.000000e-01
5.130857e-02 -4.553761e-01 6.000000e-01
1.019719e-01 -4.467681e-01 6.000000e-01
1.513529e-01 -4.325417e-01 6.000000e-01
1.988305e-01 -4.128758e-01 6.000000e-01
2.438077e-01 -3.880178e-01 6.000000e-01
2.857189e-01 -3.582802e-01 6.000000e-01
3.240370e-01 -3.240370e-01 6.000000e-01
3.582802e-01 -2.857189e-01 6.000000e-01
3.880178e-01 -2.438077e-01 6.000000e-01
4.128758e-01 -1.988305e-01 6.000000e-01
4.325417e-01 -1.513529e-01 6.000000e-01
4.467681e-01 -1.019719e-01 6.000000e-01
4.553761e-01 -5.130857e-02 6.000000e-01
4.683748e-01 0.000000e+00 6.500000e-01
4.656292e-01 5.064023e-02 6.500000e-01
4.574245e-01 1.006867e-01 6.500000e-01
4.438569e-01 1.495528e-01 6.500000e-01
4.250855e-01 1.966655e-01 6.500000e-01
4.013304e-01 2.414725e-01 6.500000e-01
3.728700e-01 2.834484e-01 6.500000e-01
3.400380e-01 3.221011e-01 6.500000e-01
3.032195e-01 3.569775e-01 6.500000e-01
2.628459e-01 3.876687e-01 6.500000e-01
2.193907e-01 4.138148e-01 6.500000e-01
1.733634e-01 4.351093e-01 6.500000e-01
1.253035e-01 4.513026e-01 6.500000e-01
7.577462e-02 4.622047e-01 6.500000e-01
2.535730e-02 4.676879e-01 6.500000e-01
-2.535730e-02 4.676879e-01 6.500000e-01
-7.577462e-02 4.622047e-01 6.500000e-01
-1.253035e-01 4.513026e-01 6.500000e-01
-1.733634e-01 4.351093e-01 6.500000e-01
-2.193907e-01 4.138148e-01 6.500000e-01
-2.628459e-01 3.876687e-01 6.500000e-01
-3.032195e-01 3.569775e-01 6.500000e-01
-3.400380e-01 3.221011e-01 6.500000e-01
-3.728700e-01 2.834484e-01 6.500000e-01
-4.013304e-01 2.414725e-01 6.500000e-01
-4.250855e-01 1.966655e-01 6.500000e-01
-4.438569e-01 1.495528e-01 6.500000e-01
-4.574245e-01 1.006867e-01 6.500000e-01
-4.656292e-01 5.064023e-02 6.500000e-01
-4.683748e-01 5.735938e-17 6.500000e-01
-4.656292e-01 -5.064023e-02 6.500000e-01
-4.574245e-01 -1.006867e-01 6.500000e-01
-4.438569e-01 -1.495528e-01 6.500000e-01
-4.250855e-01 -1.966655e-01 6.500000e-01
-4.013304e-01 -2.414725e-01 6.500000e-01
-3.728700e-01 -2.834484e-01 6.500000e-01
-3.400380e-01 -3.221011e-01 6.500000e-01
-3.032195e-01 -3.569775e-01 6.500000e-01
-2.628459e-01 -3.876687e-01 6.500000e-01
-2.193907e-01 -4.138148e-01 6.500000e-01
-1.733634e-01 -4.351093e-01 6.500000e-01
-1.253035e-01 -4.513026e-01 6.500000e-01
-7.577462e-02 -4.622047e-01 6.500000e-01
-2.535730e-02 -4.676879e-01 6.500000e-01
2.535730e-02 -4.676879e-01 6.500000e-01
7.577462e-02 -4.622047e-01 6.500000e-01
1.253035e-01 -4.513026e-01 6.500000e-01
1.733634e-01 -4.351093e-01 6.500000e-01
2.193907e-01 -4.138148e-01 6.500000e-01
2.628459e-01 -3.876687e-01 6.500000e-01
3.032195e-01 -3.569775e-01 6.500000e-01
3.400380e-01 -3.221011e-01 6.500000e-01
3.728700e-01 -2.834484e-01 6.500000e-01
4.013304e-01 -2.414725e-01 6.500000e-01
4.250855e-01 -1.966655e-01 6.500000e-01
4.438569e-01 -1.495528e-01 6.500000e-01
4.574245e-01 -1.006867e-01 6.500000e-01
4.656292e-01 -5.064023e-02 6.500000e-01
4.769696e-01 0.000000e+00 7.000000e-01
4.742675e-01 5.069876e-02 7.000000e-01
4.661917e-01 1.008231e-01 7.000000e-01
4.528338e-01 1.498050e-01 7.000000e-01
4.343451e-01 1.970897e-01 7.000000e-01
4.109351e-01 2.421412e-01 7.000000e-01
3.828690e-01 2.844491e-01 7.000000e-01
3.504649e-01 3.235341e-01 7.000000e-01
3.140899e-01 3.589534e-01 7.000000e-01
2.741561e-01 3.903055e-01 7.000000e-01
2.311160e-01 4.172354e-01 7.000000e-01
1.854573e-01 4.394378e-01 7.000000e-01
1.376973e-01 4.566612e-01 7.000000e-01
8.837709e-02 4.687105e-01 7.000000e-01
3.805555e-02 4.754490e-01 7.000000e-01
-1.269718e-02 4.768006e-01 7.000000e-01
-6.330604e-02 4.727498e-01 7.000000e-01
-1.131976e-01 4.633425e-01 7.000000e-01
-1.618066e-01 4.486854e-01 7.000000e-01
-2.085823e-01 4.289445e-01 7.000000e-01
-2.529946e-01 4.043436e-01 7.000000e-01
-2.945405e-01 3.751612e-01 7.000000e-01
-3.327490e-01 3.417281e-01 7.000000e-01
-3.671874e-01 3.044231e-01 7.000000e-01
-3.974654e-01 2.636688e-01 7.000000e-01
-4.232400e-01 2.199271e-01 7.000000e-01
-4.442190e-01 1.736935e-01 7.000000e-01
-4.601649e-01 1.254919e-01 7.000000e-01
-4.708970e-01 7.586845e-02 7.000000e-01
-4.762936e-01 2.538536e-02 7.000000e-01
-4.762936e-01 -2.538536e-02 7.000000e-01
-4.708970e-01 -7.586845e-02 7.000000e-01
-4.601649e-01 -1.254919e-01 7.000000e-01
-4.442190e-01 -1.736935e-01 7.000000e-01
-4.232400e-01 -2.199271e-01 7.000000e-01
-3.974654e-01 -2.636688e-01 7.000000e-01
-3.671874e-01 -3.044231e-01 7.000000e-01
-3.327490e-01 -3.417281e-01 7.000000e-01
-2.945405e-01 -3.751612e-01 7.000000e-01
-2.529946e-01 -4.043436e-01 7.000000e-01
-2.085823e-01 -4.289445e-01 7.000000e-01
-1.618066e-01 -4.486854e-01 7.000000e-01
-1.131976e-01 -4.633425e-01 7.000000e-01
-6.330604e-02 -4.727498e-01 7.000000e-01
-1.269718e-02 -4.768006e-01 7.000000e-01
3.805555e-02 -4.754490e-01 7.000000e-01
8.837709e-02 -4.687105e-01 7.000000e-01
1.376973e-01 -4.566612e-01 7.000000e-01
1.854573e-01 -4.394378e-01 7.000000e-01
2.311160e-01 -4.172354e-01 7.000000e-01
2.741561e-01 -3.903055e-01 7.000000e-01
3.140899e-01 -3.589534e-01 7.000000e-01
3.504649e-01 -3.235341e-01 7.000000e-01
3.828690e-01 -2.844491e-01 7.000000e-01
4.109351e-01 -2.421412e-01 7.000000e-01
4.343451e-01 -1.970897e-01 7.000000e-01
4.528338e-01 -1.498050e-01 7.000000e-01
4.661917e-01 -1.008231e-01 7.000000e-01
4.742675e-01 -5.069876e-02 7.000000e-01
4.841229e-01 0.000000e+00 7.500000e-01
4.814708e-01 5.060462e-02 7.500000e-01
4.735437e-01 1.006548e-01 7.500000e-01
4.604283e-01 1.496022e-01 7.500000e-01
4.422683e-01 1.969105e-01 7.500000e-01
4.192627e-01 2.420615e-01 7.500000e-01
3.916637e-01 2.845603e-01 7.500000e-01
3.597734e-01 3.239415e-01 7.500000e-01
3.239415e-01 3.597734e-01 7.500000e-01
2.845603e-01 3.916637e-01 7.500000e-01
2.420615e-01 4.192627e-01 7.500000e-01
1.969105e-01 4.422683e-01 7.500000e-01
1.496022e-01 4.604283e-01 7.500000e-01
1.006548e-01 4.735437e-01 7.500000e-01
5.060462e-02 4.814708e-01 7.500000e-01
2.964398e-17 4.841229e-01 7.500000e-01
-5.060462e-02 4.814708e-01 7.500000e-01
-1.006548e-01 4.735437e-01 7.500000e-01
-1.496022e-01 4.604283e-01 7.500000e-01
-1.969105e-01 4.422683e-01 7.500000e-01
-2.420615e-01 4.192627e-01 7.500000e-01
-2.845603e-01 3.916637e-01 7.500000e-01
-3.239415e-01 3.597734e-01 7.500000e-01
-3.597734e-01 3.239415e-01 7.500000e-01
-3.916637e-01 2.845603e-01 7.500000e-01
-4.192627e-01 2.420615e-01 7.500000e-01
-4.422683e-01 1.969105e-01 7.500000e-01
-4.604283e-01 1.496022e-01 7.500000e-01
-4.735437e-01 1.006548e-01 7.500000e-01
-4.814708e-01 5.060462e-02 7.500000e-01
-4.841229e-01 5.928796e-17 7.500000e-01
-4.814708e-01 -5.060462e-02 7.500000e-01
-4.735437e-01 -1.006548e-01 7.500000e-01
-4.604283e-01 -1.496022e-01 7.500000e-01
-4.422683e-01 -1.969105e-01 7.500000e-01
-4.192627e-01 -2.420615e-01 7.500000e-01
-3.916637e-01 -2.845603e-01 7.500000e-01
-3.597734e-01 -3.239415e-01 7.500000e-01
-3.239415e-01 -3.597734e-01 7.500000e-01
-2.845603e-01 -3.916637e-01 7.500000e-01
-2.420615e-01 -4.192627e-01 7.500000e-01
-1.969105e-01 -4.422683e-01 7.500000e-01
-1.496022e-01 -4.604283e-01 7.500000e-01
-1.006548e-01 -4.735437e-01 7.500000e-01
-5.060462e-02 -4.814708e-01 7.500000e-01
-8.893194e-17 -4.841229e-01 7.500000e-01
5.060462e-02 -4.814708e-01 7.500000e-01
1.006548e-01 -4.735437e-01 7.500000e-01
1.496022e-01 -4.604283e-01 7.500000e-01
1.969105e-01 -4.422683e-01 7.500000e-01
2.420615e-01 -4.192627e-01 7.500000e-01
2.845603e-01 -3.916637e-01 7.500000e-01
3.239415e-01 -3.597734e-01 7.500000e-01
3.597734e-01 -3.239415e-01 7.500000e-01
3.916637e-01 -2.845603e-01 7.500000e-01
4.192627e-01 -2.420615e-01 7.500000e-01
4.422683e-01 -1.969105e-01 7.500000e-01
4.604283e-01 -1.496022e-01 7.500000e-01
4.735437e-01 -1.006548e-01 7.500000e-01
4.814708e-01 -5.060462e-02 7.500000e-01
4.898979e-01 0.000000e+00 8.000000e-01
4.872142e-01 5.120828e-02 8.000000e-01
4.791925e-01 1.018555e-01 8.000000e-01
4.659206e-01 1.513868e-01 8.000000e-01
4.475440e-01 1.992594e-01 8.000000e-01
4.242641e-01 2.449490e-01 8.000000e-01
3.963358e-01 2.879548e-01 8.000000e-01
3.640651e-01 3.278057e-01 8.000000e-01
3.278057e-01 3.640651e-01 8.000000e-01
2.879548e-01 3.963358e-01 8.000000e-01
2.449490e-01 4.242641e-01 8.000000e-01
1.992594e-01 4.475440e-01 8.000000e-01
1.513868e-01 4.659206e-01 8.000000e-01
1.018555e-01 4.791925e-01 8.000000e-01
5.120828e-02 4.872142e-01 8.000000e-01
2.999760e-17 4.898979e-01 8.000000e-01
-5.120828e-02 4.872142e-01 8.000000e-01
-1.018555e-01 4.791925e-01 8.000000e-01
-1.513868e-01 4.659206e-01 8.000000e-01
-1.992594e-01 4.475440e-01 8.000000e-01
-2.449490e-01 4.242641e-01 8.000000e-01
-2.879548e-01 3.963358e-01 8.000000e-01
-3.278057e-01 3.640651e-01 8.000000e-01
-3.640651e-01 3.278057e-01 8.000000e-01
-3.963358e-01 2.879548e-01 8.000000e-01
-4.242641e-01 2.449490e-01 8.000000e-01
-4.475440e-01 1.992594e-01 8.000000e-01
-4.659206e-01 1.513868e-01 8.000000e-01
-4.791925e-01 1.018555e-01 8.000000e-01
-4.872142e-01 5.120828e-02 8.000000e-01
-4.898979e-01 5.999520e-17 8.000000e-01
-4.872142e-01 -5.120828e-02 8.000000e-01
-4.791925e-01 -1.018555e-01 8.000000e-01
-4.659206e-01 -1.513868e-01 8.000000e-01
-4.475440e-01 -1.992594e-01 8.000000e-01
-4.242641e-01 -2.449490e-01 8.000000e-01
-3.963358e-01 -2.879548e-01 8.000000e-01
-3.640651e-01 -3.278057e-01 8.000000e-01
-3.278057e-01 -3.640651e-01 8.000000e-01
-2.879548e-01 -3.963358e-01 8.000000e-01
-2.449490e-01 -4.242641e-01 8.000000e-01
-1.992594e-01 -4.475440e-01 8.000000e-01
-1.513868e-01 -4.659206e-01 8.000000e-01
-1.018555e-01 -4.791925e-01 8.000000e-01
-5.120828e-02 -4.872142e-01 8.000000e-01
-8.999279e-17 -4.898979e-01 8.000000e-01
5.120828e-02 -4.872142e-01 8.000000e-01
1.018555e-01 -4.791925e-01 8.000000e-01
1.513868e-01 -4.659206e-01 8.000000e-01
1.992594e-01 -4.475440e-01 8.000000e-01
2.449490e-01 -4.242641e-01 8.000000e-01
2.879548e-01 -3.963358e-01 8.000000e-01
3.278057e-01 -3.640651e-01 8.000000e-01
3.640651e-01 -3.278057e-01 8.000000e-01
3.963358e-01 -2.879548e-01 8.000000e-01
4.242641e-01 -2.449490e-01 8.000000e-01
4.475440e-01 -1.992594e-01 8.000000e-01
4.659206e-01 -1.513868e-01 8.000000e-01
4.791925e-01 -1.018555e-01 8.000000e-01
4.872142e-01 -5.120828e-02 8.000000e-01
4.943430e-01 0.000000e+00 8.500000e-01
4.917229e-01 5.082884e-02 8.500000e-01
4.838905e-01 1.011189e-01 8.500000e-01
4.709286e-01 1.503370e-01 8.500000e-01
4.529748e-01 1.979616e-01 8.500000e-01
4.302194e-01 2.434877e-01 8.500000e-01
4.029036e-01 2.864328e-01 8.500000e-01
3.713168e-01 3.263416e-01 8.500000e-01
3.357940e-01 3.627911e-01 8.500000e-01
2.967117e-01 3.953949e-01 8.500000e-01
2.544842e-01 4.238075e-01 8.500000e-01
2.095591e-01 4.477276e-01 8.500000e-01
1.624126e-01 4.669016e-01 8.500000e-01
1.135445e-01 4.811264e-01 8.500000e-01
6.347283e-02 4.902512e-01 8.500000e-01
1.272830e-02 4.941791e-01 8.500000e-01
-3.815115e-02 4.928686e-01 8.500000e-01
-8.862619e-02 4.863336e-01 8.500000e-01
-1.381618e-01 4.746434e-01 8.500000e-01
-1.862328e-01 4.579218e-01 8.500000e-01
-2.323297e-01 4.363461e-01 8.500000e-01
-2.759639e-01 4.101450e-01 8.500000e-01
-3.166728e-01 3.795963e-01 8.500000e-01
-3.540248e-01 3.450238e-01 8.500000e-01
-3.876241e-01 3.067940e-01 8.500000e-01
-4.171145e-01 2.653120e-01 8.500000e-01
-4.421834e-01 2.210177e-01 8.500000e-01
-4.625651e-01 1.743805e-01 8.500000e-01
-4.780434e-01 1.258949e-01 8.500000e-01
-4.884543e-01 7.607473e-02 8.500000e-01
-4.936875e-01 2.544816e-02 8.500000e-01
-4.936875e-01 -2.544816e-02 8.500000e-01
-4.884543e-01 -7.607473e-02 8.500000e-01
-4.780434e-01 -1.258949e-01 8.500000e-01
-4.625651e-01 -1.743805e-01 8.500000e-01
-4.421834e-01 -2.210177e-01 8.500000e-01
-4.171145e-01 -2.653120e-01 8.500000e-01
-3.876241e-01 -3.067940e-01 8.500000e-01
-3.540248e-01 -3.450238e-01 8.500000e-01
-3.166728e-01 -3.795963e-01 8.500000e-01
-2.759639e-01 -4.101450e-01 8.500000e-01
-2.323297e-01 -4.363461e-01 8.500000e-01
-1.862328e-01 -4.579218e-01 8.500000e-01
-1.381618e-01 -4.746434e-01 8.500000e-01
-8.862619e-02 -4.863336e-01 8.500000e-01
-3.815115e-02 -4.928686e-01 8.500000e-01
1.272830e-02 -4.941791e-01 8.500000e-01
6.347283e-02 -4.902512e-01 8.500000e-01
1.135445e-01 -4.811264e-01 8.500000e-01
1.624126e-01 -4.669016e-01 8.500000e-01
2.095591e-01 -4.477276e-01 8.500000e-01
2.544842e-01 -4.238075e-01 8.500000e-01
2.967117e-01 -3.953949e-01 8.500000e-01
3.357940e-01 -3.627911e-01 8.500000e-01
3.713168e-01 -3.263416e-01 8.500000e-01
4.029036e-01 -2.864328e-01 8.500000e-01
4.302194e-01 -2.434877e-01 8.500000e-01
4.529748e-01 -1.979616e-01 8.500000e-01
4.709286e-01 -1.503370e-01 8.500000e-01
4.838905e-01 -1.011189e-01 8.500000e-01
4.917229e-01 -5.082884e-02 8.500000e-01
4.974937e-01 0.000000e+00 9.000000e-01
4.948569e-01 5.115280e-02 9.000000e-01
4.869746e-01 1.017634e-01 9.000000e-01
4.739301e-01 1.512952e-01 9.000000e-01
4.558619e-01 1.992233e-01 9.000000e-01
4.329614e-01 2.450396e-01 9.000000e-01
4.054715e-01 2.882584e-01 9.000000e-01
3.736834e-01 3.284215e-01 9.000000e-01
3.379342e-01 3.651034e-01 9.000000e-01
2.986028e-01 3.979150e-01 9.000000e-01
2.561062e-01 4.265086e-01 9.000000e-01
2.108947e-01 4.505812e-01 9.000000e-01
1.634478e-01 4.698775e-01 9.000000e-01
1.142682e-01 4.841929e-01 9.000000e-01
6.387738e-02 4.933758e-01 9.000000e-01
1.280943e-02 4.973288e-01 9.000000e-01
-3.839431e-02 4.960100e-01 9.000000e-01
-8.919105e-02 4.894333e-01 9.000000e-01
-1.390423e-01 4.776685e-01 9.000000e-01
-1.874198e-01 4.608404e-01 9.000000e-01
-2.338105e-01 4.391272e-01 9.000000e-01
-2.777227e-01 4.127591e-01 9.000000e-01
-3.186911e-01 3.820157e-01 9.000000e-01
-3.562812e-01 3.472228e-01 9.000000e-01
-3.900947e-01 3.087493e-01 9.000000e-01
-4.197730e-01 2.670030e-01 9.000000e-01
-4.450017e-01 2.224264e-01 9.000000e-01
-4.655132e-01 1.754919e-01 9.000000e-01
-4.810902e-01 1.266973e-01 9.000000e-01
-4.915675e-01 7.655960e-02 9.000000e-01
-4.968341e-01 2.561036e-02 9.000000e-01
-4.968341e-01 -2.561036e-02 9.000000e-01
-4.915675e-01 -7.655960e-02 9.000000e-01
-4.810902e-01 -1.266973e-01 9.000000e-01
-4.655132e-01 -1.754919e-01 9.000000e-01
-4.450017e-01 -2.224264e-01 9.000000e-01
-4.197730e-01 -2.670030e-01 9.000000e-01
-3.900947e-01 -3.087493e-01 9.000000e-01
-3.562812e-01 -3.472228e-01 9.000000e-01
-3.186911e-01 -3.820157e-01 9.000000e-01
-2.777227e-01 -4.127591e-01 9.000000e-01
-2.338105e-01 -4.391272e-01 9.000000e-01
-1.874198e-01 -4.608404e-01 9.000000e-01
-1.390423e-01 -4.776685e-01 9.000000e-01
-8.919105e-02 -4.894333e-01 9.000000e-01
-3.839431e-02 -4.960100e-01 9.000000e-01
1.280943e-02 -4.973288e-01 9.000000e-01
6.387738e-02 -4.933758e-01 9.000000e-01
1.142682e-01 -4.841929e-01 9.000000e-01
1.634478e-01 -4.698775e-01 9.000000e-01
2.108947e-01 -4.505812e-01 9.000000e-01
2.561062e-01 -4.265086e-01 9.000000e-01
2.986028e-01 -3.979150e-01 9.000000e-01
3.379342e-01 -3.651034e-01 9.000000e-01
3.736834e-01 -3.284215e-01 9.000000e-01
4.054715e-01 -2.882584e-01 9.000000e-01
4.329614e-01 -2.450396e-01 9.000000e-01
4.558619e-01 -1.992233e-01 9.000000e-01
4.739301e-01 -1.512952e-01 9.000000e-01
4.869746e-01 -1.017634e-01 9.000000e-01
4.948569e-01 -5.115280e-02 9.000000e-01
4.993746e-01 0.000000e+00 9.500000e-01
4.967279e-01 5.134620e-02 9.500000e-01
4.888157e-01 1.021481e-01 9.500000e-01
4.757219e-01 1.518672e-01 9.500000e-01
4.575854e-01 1.999765e-01 9.500000e-01
4.345984e-01 2.459660e-01 9.500000e-01
4.070045e-01 2.893482e-01 9.500000e-01
3.750962e-01 3.296632e-01 9.500000e-01
3.392119e-01 3.664837e-01 9.500000e-01
2.997318e-01 3.994194e-01 9.500000e-01
2.570745e-01 4.281212e-01 9.500000e-01
2.116921e-01 4.522847e-01 9.500000e-01
1.640657e-01 4.716539e-01 9.500000e-01
1.147002e-01 4.860235e-01 9.500000e-01
6.411888e-02 4.952411e-01 9.500000e-01
1.285785e-02 4.992090e-01 9.500000e-01
-3.853947e-02 4.978852e-01 9.500000e-01
-8.952826e-02 4.912837e-01 9.500000e-01
-1.395680e-01 4.794745e-01 9.500000e-01
-1.881283e-01 4.625827e-01 9.500000e-01
-2.346945e-01 4.407874e-01 9.500000e-01
-2.787727e-01 4.143196e-01 9.500000e-01
-3.198960e-01 3.834600e-01 9.500000e-01
-3.576282e-01 3.485356e-01 9.500000e-01
-3.915695e-01 3.099166e-01 9.500000e-01
-4.213601e-01 2.680125e-01 9.500000e-01
-4.466841e-01 2.232673e-01 9.500000e-01
-4.672732e-01 1.761554e-01 9.500000e-01
-4.829091e-01 1.271763e-01 9.500000e-01
-4.934260e-01 7.684905e-02 9.500000e-01
-4.987125e-01 2.570718e-02 9.500000e-01
-4.987125e-01 -2.570718e-02 9.500000e-01
-4.934260e-01 -7.684905e-02 9.500000e-01
-4.829091e-01 -1.271763e-01 9.500000e-01
-4.672732e-01 -1.761554e-01 9.500000e-01
-4.466841e-01 -2.232673e-01 9.500000e-01
-4.213601e-01 -2.680125e-01 9.500000e-01
-3.915695e-01 -3.099166e-01 9.500000e-01
-3.576282e-01 -3.485356e-01 9.500000e-01
-3.198960e-01 -3.834600e-01 9.500000e-01
-2.787727e-01 -4.143196e-01 9.500000e-01
-2.346945e-01 -4.407874e-01 9.500000e-01
-1.881283e-01 -4.625827e-01 9.500000e-01
-1.395680e-01 -4.794745e-01 9.500000e-01
-8.952826e-02 -4.912837e-01 9.500000e-01
-3.853947e-02 -4.978852e-01 9.500000e-01
1.285785e-02 -4.992090e-01 9.500000e-01
6.411888e-02 -4.952411e-01 9.500000e-01
1.147002e-01 -4.860235e-01 9.500000e-01
1.640657e-01 -4.716539e-01 9.500000e-01
2.116921e-01 -4.522847e-01 9.500000e-01
2.570745e-01 -4.281212e-01 9.500000e-01
2.997318e-01 -3.994194e-01 9.500000e-01
3.392119e-01 -3.664837e-01 9.500000e-01
3.750962e-01 -3.296632e-01 9.500000e-01
4.070045e-01 -2.893482e-01 9.500000e-01
4.345984e-01 -2.459660e-01 9.500000e-01
4.575854e-01 -1.999765e-01 9.500000e-01
4.757219e-01 -1.518672e-01 9.500000e-01
4.888157e-01 -1.021481e-01 9.500000e-01
4.967279e-01 -5.134620e-02 9.500000e-01
5.000000e-01 0.000000e+00 1.000000e+00
4.974347e-01 5.058416e-02 1.000000e+00
4.897650e-01 1.006493e-01 1.000000e+00
4.770696e-01 1.496816e-01 1.000000e+00
4.594789e-01 1.971779e-01 1.000000e+00
4.371733e-01 2.426510e-01 1.000000e+00
4.103817e-01 2.856341e-01 1.000000e+00
3.793791e-01 3.256862e-01 1.000000e+00
3.444835e-01 3.623964e-01 1.000000e+00
3.060530e-01 3.953879e-01 1.000000e+00
2.644820e-01 4.243221e-01 1.000000e+00
2.201971e-01 4.489023e-01 1.000000e+00
1.736526e-01 4.688761e-01 1.000000e+00
1.253263e-01 4.840386e-01 1.000000e+00
7.571389e-02 4.942342e-01 1.000000e+00
2.532458e-02 4.993583e-01 1.000000e+00
-2.532458e-02 4.993583e-01 1.000000e+00
-7.571389e-02 4.942342e-01 1.000000e+00
-1.253263e-01 4.840386e-01 1.000000e+00
-1.736526e-01 4.688761e-01 1.000000e+00
-2.201971e-01 4.489023e-01 1.000000e+00
-2.644820e-01 4.243221e-01 1.000000e+00
-3.060530e-01 3.953879e-01 1.000000e+00
-3.444835e-01 3.623964e-01 1.000000e+00
-3.793791e-01 3.256862e-01 1.000000e+00
-4.103817e-01 2.856341e-01 1.000000e+00
-4.371733e-01 2.426510e-01 1.000000e+00
-4.594789e-01 1.971779e-01 1.000000e+00
-4.770696e-01 1.496816e-01 1.000000e+00
-4.897650e-01 1.006493e-01 1.000000e+00
-4.974347e-01 5.058416e-02 1.000000e+00
-5.000000e-01 6.123234e-17 1.000000e+00
-4.974347e-01 -5.058416e-02 1.000000e+00
-4.897650e-01 -1.006493e-01 1.000000e+00
-4.770696e-01 -1.496816e-01 1.000000e+00
-4.594789e-01 -1.971779e-01 1.000000e+00
-4.371733e-01 -2.426510e-01 1.000000e+00
-4.103817e-01 -2.856341e-01 1.000000e+00
-3.793791e-01 -3.256862e-01 1.000000e+00
-3.444835e-01 -3.623964e-01 1.000000e+00
-3.060530e-01 -3.953879e-01 1.000000e+00
-2.644820e-01 -4.243221e-01 1.000000e+00
-2.201971e-01 -4.489023e-01 1.000000e+00
-1.736526e-01 -4.688761e-01 1.000000e+00
-1.253263e-01 -4.840386e-01 1.000000e+00
-7.571389e-02 -4.942342e-01 1.000000e+00
-2.532458e-02 -4.993583e-01 1.000000e+00
2.532458e-02 -4.993583e-01 1.000000e+00
7.571389e-02 -4.942342e-01 1.000000e+00
1.253263e-01 -4.840386e-01 1.000000e+00
1.736526e-01 -4.688761e-01 1.000000e+00
2.201971e-01 -4.489023e-01 1.000000e+00
2.644820e-01 -4.243221e-01 1.000000e+00
3.060530e-01 -3.953879e-01 1.000000e+00
3.444835e-01 -3.623964e-01 1.000000e+00
3.793791e-01 -3.256862e-01 1.000000e+00
4.103817e-01 -2.856341e-01 1.000000e+00
4.371733e-01 -2.426510e-01 1.000000e+00
4.594789e-01 -1.971779e-01 1.000000e+00
4.770696e-01 -1.496816e-01 1.000000e+00
4.897650e-01 -1.006493e-01 1.000000e+00
4.974347e-01 -5.058416e-02 1.000000e+00
4.993746e-01 0.000000e+00 1.050000e+00
4.967279e-01 5.134620e-02 1.050000e+00
4.888157e-01 1.021481e-01 1.050000e+00
4.757219e-01 1.518672e-01 1.050000e+00
4.575854e-01 1.999765e-01 1.050000e+00
4.345984e-01 2.459660e-01 1.050000e+00
4.070045e-01 2.893482e-01 1.050000e+00
3.750962e-01 3.296632e-01 1.050000e+00
3.392119e-01 3.664837e-01 1.050000e+00
2.997318e-01 3.994194e-01 1.050000e+00
2.570745e-01 4.281212e-01 1.050000e+00
2.116921e-01 4.522847e-01 1.050000e+00
1.640657e-01 4.716539e-01 1.050000e+00
1.147002e-01 4.860235e-01 1.050000e+00
6.411888e-02 4.952411e-01 1.050000e+00
1.285785e-02 4.992090e-01 1.050000e+00
-3.853947e-02 4.978852e-01 1.050000e+00
-8.952826e-02 4.912837e-01 1.050000e+00
-1.395680e-01 4.794745e-01 1.050000e+00
-1.881283e-01 4.625827e-01 1.050000e+00
-2.346945e-01 4.407874e-01 1.050000e+00
-2.787727e-01 4.143196e-01 1.050000e+00
-3.198960e-01 3.834600e-01 1.050000e+00
-3.576282e-01 3.485356e-01 1.050000e+00
-3.915695e-01 3.099166e-01 1.050000e+00
-4.213601e-01 2.680125e-01 1.050000e+00
-4.466841e-01 2.232673e-01 1.050000e+00
-4.672732e-01 1.761554e-01 1.050000e+00
-4.829091e-01 1.271763e-01 1.050000e+00
-4.934260e-01 7.684905e-02 1.050000e+00
-4.987125e-01 2.570718e-02 1.050000e+00
-4.987125e-01 -2.570718e-02 1.050000e+00
-4.934260e-01 -7.684905e-02 1.050000e+00
-4.829091e-01 -1.271763e-01 1.050000e+00
-4.672732e-01 -1.761554e-01 1.050000e+00
-4.466841e-01 -2.232673e-01 1.050000e+00
-4.213601e-01 -2.680125e-01 1.050000e+00
-3.915695e-01 -3.099166e-01 1.050000e+00
-3.576282e-01 -3.485356e-01 1.050000e+00
-3.198960e-01 -3.834600e-01 1.050000e+00
-2.787727e-01 -4.143196e-01 1.050000e+00
-2.346945e-01 -4.407874e-01 1.050000e+00
-1.881283e-01 -4.625827e-01 1.050000e+00
-1.395680e-01 -4.794745e-01 1.050000e+00
-8.952826e-02 -4.912837e-01 1.050000e+00
-3.853947e-02 -4.978852e-01 1.050000e+00
1.285785e-02 -4.992090e-01 1.050000e+00
6.411888e-02 -4.952411e-01 1.050000e+00
1.147002e-01 -4.860235e-01 1.050000e+00
1.640657e-01 -4.716539e-01 1.050000e+00
2.116921e-01 -4.522847e-01 1.050000e+00
2.570745e-01 -4.281212e-01 1.050000e+00
2.997318e-01 -3.994194e-01 1.050000e+00
3.392119e-01 -3.664837e-01 1.050000e+00
3.750962e-01 -3.296632e-01 1.050000e+00
4.070045e-01 -2.893482e-01 1.050000e+00
4.345984e-01 -2.459660e-01 1.050000e+00
4.575854e-01 -1.999765e-01 1.050000e+00
4.757219e-01 -1.518672e-01 1.050000e+00
4.888157e-01 -1.021481e-01 1.050000e+00
4.967279e-01 -5.134620e-02 1.050000e+00
4.974937e-01 0.000000e+00 1.100000e+00
4.948569e-01 5.115280e-02 1.100000e+00
4.869746e-01 1.017634e-01 1.100000e+00
4.739301e-01 1.512952e-01 1.100000e+00
4.558619e-01 1.992233e-01 1.100000e+00
4.329614e-01 2.450396e-01 1.100000e+00
4.054715e-01 2.882584e-01 1.100000e+00
3.736834e-01 3.284215e-01 1.100000e+00
3.379342e-01 3.651034e-01 1.100000e+00
2.986028e-01 3.979150e-01 1.100000e+00
2.561062e-01 4.265086e-01 1.100000e+00
2.108947e-01 4.505812e-01 1.100000e+00
1.634478e-01 4.698775e-01 1.100000e+00
1.142682e-01 4.841929e-01 1.100000e+00
6.387738e-02 4.933758e-01 1.100000e+00
1.280943e-02 4.973288e-01 1.100000e+00
-3.839431e-02 4.960100e-01 1.100000e+00
-8.919105e-02 4.894333e-01 1.100000e+00
-1.390423e-01 4.776685e-01 1.100000e+00
-1.874198e-01 4.608404e-01 1.100000e+00
-2.338105e-01 4.391272e-01 1.100000e+00
-2.777227e-01 4.127591e-01 1.100000e+00
-3.186911e-01 3.820157e-01 1.100000e+00
-3.562812e-01 3.472228e-01 1.100000e+00
-3.900947e-01 3.087493e-01 1.100000e+00
-4.197730e-01 2.670030e-01 1.100000e+00
-4.450017e-01 2.224264e-01 1.100000e+00
-4.655132e-01 1.754919e-01 1.100000e+00
-4.810902e-01 1.266973e-01 1.100000e+00
-4.915675e-01 7.655960e-02 1.100000e+00
-4.968341e-01 2.561036e-02 1.100000e+00
-4.968341e-01 -2.561036e-02 1.100000e+00
-4.915675e-01 -7.655960e-02 1.100000e+00
-4.810902e-01 -1.266973e-01 1.100000e+00
-4.655132e-01 -1.754919e-01 1.100000e+00
-4.450017e-01 -2.224264e-01 1.100000e+00
-4.197730e-01 -2.670030e-01 1.100000e+00
-3.900947e-01 -3.087493e-01 1.100000e+00
-3.562812e-01 -3.472228e-01 1.100000e+00
-3.186911e-01 -3.820157e-01 1.100000e+00
-2.777227e-01 -4.127591e-01 1.100000e+00
-2.338105e-01 -4.391272e-01 1.100000e+00
-1.874198e-01 -4.608404e-01 1.100000e+00
-1.390423e-01 -4.776685e-01 1.100000e+00
-8.919105e-02 -4.894333e-01 1.100000e+00
-3.839431e-02 -4.960100e-01 1.100000e+00
1.280943e-02 -4.973288e-01 1.100000e+00
6.387738e-02 -4.933758e-01 1.100000e+00
1.142682e-01 -4.841929e-01 1.100000e+00
1.634478e-01 -4.698775e-01 1.100000e+00
2.108947e-01 -4.505812e-01 1.100000e+00
2.561062e-01 -4.265086e-01 1.100000e+00
2.986028e-01 -3.979150e-01 1.100000e+00
3.379342e-01 -3.651034e-01 1.100000e+00
3.736834e-01 -3.284215e-01 1.100000e+00
4.054715e-01 -2.882584e-01 1.100000e+00
4.329614e-01 -2.450396e-01 1.100000e+00
4.558619e-01 -1.992233e-01 1.100000e+00
4.739301e-01 -1.512952e-01 1.100000e+00
4.869746e-01 -1.017634e-01 1.100000e+00
4.948569e-01 -5.115280e-02 1.100000e+00
4.943430e-01 0.000000e+00 1.150000e+00
4.917229e-01 5.082884e-02 1.150000e+00
4.838905e-01 1.011189e-01 1.150000e+00
4.709286e-01 1.503370e-01 1.150000e+00
4.529748e-01 1.979616e-01 1.150000e+00
4.302194e-01 2.434877e-01 1.150000e+00
4.029036e-01 2.864328e-01 1.150000e+00
3.713168e-01 3.263416e-01 1.150000e+00
3.357940e-01 3.627911e-01 1.150000e+00
2.967117e-01 3.953949e-01 1.150000e+00
2.544842e-01 4.238075e-01 1.150000e+00
2.095591e-01 4.477276e-01 1.150000e+00
1.624126e-01 4.669016e-01 1.150000e+00
1.135445e-01 4.811264e-01 1.150000e+00
6.347283e-02 4.902512e-01 1.150000e+00
1.272830e-02 4.941791e-01 1.150000e+00
-3.815115e-02 4.928686e-01 1.150000e+00
-8.862619e-02 4.863336e-01 1.150000e+00
-1.381618e-01 4.746434e-01 1.150000e+00
-1.862328e-01 4.579218e-01 1.150000e+00
-2.323297e-01 4.363461e-01 1.150000e+00
-2.759639e-01 4.101450e-01 1.150000e+00
-3.166728e-01 3.795963e-01 1.150000e+00
-3.540248e-01 3.450238e-01 1.150000e+00
-3.876241e-01 3.067940e-01 1.150000e+00
-4.171145e-01 2.653120e-01 1.150000e+00
-4.421834e-01 2.210177e-01 1.150000e+00
-4.625651e-01 1.743805e-01 1.150000e+00
-4.780434e-01 1.258949e-01 1.150000e+00
-4.884543e-01 7.607473e-02 1.150000e+00
-4.936875e-01 2.544816e-02 1.150000e+00
-4.936875e-01 -2.544816e-02 1.150000e+00
-4.884543e-01 -7.607473e-02 1.150000e+00
-4.780434e-01 -1.258949e-01 1.150000e+00
-4.625651e-01 -1.743805e-01 1.150000e+00
-4.421834e-01 -2.210177e-01 1.150000e+00
-4.171145e-01 -2.653120e-01 1.150000e+00
-3.876241e-01 -3.067940e-01 1.150000e+00
-3.540248e-01 -3.450238e-01 1.150000e+00
-3.166728e-01 -3.795963e-01 1.150000e+00
-2.759639e-01 -4.101450e-01 1.150000e+00
-2.323297e-01 -4.363461e-01 1.150000e+00
-1.862328e-01 -4.579218e-01 1.150000e+00
-1.381618e-01 -4.746434e-01 1.150000e+00
-8.862619e-02 -4.863336e-01 1.150000e+00
-3.815115e-02 -4.928686e-01 1.150000e+00
1.272830e-02 -4.941791e-01 1.150000e+00
6.347283e-02 -4.902512e-01 1.150000e+00
1.135445e-01 -4.811264e-01 1.150000e+00
1.624126e-01 -4.669016e-01 1.150000e+00
2.095591e-01 -4.477276e-01 1.150000e+00
2.544842e-01 -4.238075e-01 1.150000e+00
2.967117e-01 -3.953949e-01 1.150000e+00
3.357940e-01 -3.627911e-01 1.150000e+00
3.713168e-01 -3.263416e-01 1.150000e+00
4.029036e-01 -2.864328e-01 1.150000e+00
4.302194e-01 -2.434877e-01 1.150000e+00
4.529748e-01 -1.979616e-01 1.150000e+00
4.709286e-01 -1.503370e-01 1.150000e+00
4.838905e-01 -1.011189e-01 1.150000e+00
4.917229e-01 -5.082884e-02 1.150000e+00
4.898979e-01 0.000000e+00 1.200000e+00
4.872142e-01 5.120828e-02 1.200000e+00
4.791925e-01 1.018555e-01 1.200000e+00
4.659206e-01 1.513868e-01 1.200000e+00
4.475440e-01 1.992594e-01 1.200000e+00
4.242641e-01 2.449490e-01 1.200000e+00
3.963358e-01 2.879548e-01 1.200000e+00
3.640651e-01 3.278057e-01 1.200000e+00
3.278057e-01 3.640651e-01 1.200000e+00
2.879548e-01 3.963358e-01 1.200000e+00
2.449490e-01 4.242641e-01 1.200000e+00
1.992594e-01 4.475440e-01 1.200000e+00
1.513868e-01 4.659206e-01 1.200000e+00
1.018555e-01 4.791925e-01 1.200000e+00
5.120828e-02 4.872142e-01 1.200000e+00
2.999760e-17 4.898979e-01 1.200000e+00
-5.120828e-02 4.872142e-01 1.200000e+00
-1.018555e-01 4.791925e-01 1.200000e+00
-1.513868e-01 4.659206e-01 1.200000e+00
-1.992594e-01 4.475440e-01 1.200000e+00
-2.449490e-01 4.242641e-01 1.200000e+00
-2.879548e-01 3.963358e-01 1.200000e+00
-3.278057e-01 3.640651e-01 1.200000e+00
-3.640651e-01 3.278057e-01 1.200000e+00
-3.963358e-01 2.879548e-01 1.200000e+00
-4.242641e-01 2.449490e-01 1.200000e+00
-4.475440e-01 1.992594e-01 1.200000e+00
-4.659206e-01 1.513868e-01 1.200000e+00
-4.791925e-01 1.018555e-01 1.200000e+00
-4.872142e-01 5.120828e-02 1.200000e+00
-4.898979e-01 5.999520e-17 1.200000e+00
-4.872142e-01 -5.120828e-02 1.200000e+00
-4.791925e-01 -1.018555e-01 1.200000e+00
-4.659206e-01 -1.513868e-01 1.200000e+00
-4.475440e-01 -1.992594e-01 1.200000e+00
-4.242641e-01 -2.449490e-01 1.200000e+00
-3.963358e-01 -2.879548e-01 1.200000e+00
-3.640651e-01 -3.278057e-01 1.200000e+00
-3.278057e-01 -3.640651e-01 1.200000e+00
-2.879548e-01 -3.963358e-01 1.200000e+00
-2.449490e-01 -4.242641e-01 1.200000e+00
-1.992594e-01 -4.475440e-01 1.200000e+00
-1.513868e-01 -4.659206e-01 1.200000e+00
-1.018555e-01 -4.791925e-01 1.200000e+00
-5.120828e-02 -4.872142e-01 1.200000e+00
-8.999279e-17 -4.898979e-01 1.200000e+00
5.120828e-02 -4.872142e-01 1.200000e+00
1.018555e-01 -4.791925e-01 1.200000e+00
1.513868e-01 -4.659206e-01 1.200000e+00
1.992594e-01 -4.475440e-01 1.200000e+00
2.449490e-01 -4.242641e-01 1.200000e+00
2.879548e-01 -3.963358e-01 1.200000e+00
3.278057e-01 -3.640651e-01 1.200000e+00
3.640651e-01 -3.278057e-01 1.200000e+00
3.963358e-01 -2.879548e-01 1.200000e+00
4.242641e-01 -2.449490e-01 1.200000e+00
4.475440e-01 -1.992594e-01 1.200000e+00
4.659206e-01 -1.513868e-01 1.200000e+00
4.791925e-01 -1.018555e-01 1.200000e+00
4.872142e-01 -5.120828e-02 1.200000e+00
4.841229e-01 0.000000e+00 1.250000e+00
4.814708e-01 5.060462e-02 1.250000e+00
4.735437e-01 1.006548e-01 1.250000e+00
4.604283e-01 1.496022e-01 1.250000e+00
4.422683e-01 1.969105e-01 1.250000e+00
4.192627e-01 2.420615e-01 1.250000e+00
3.916637e-01 2.845603e-01 1.250000e+00
3.597734e-01 3.239415e-01 1.250000e+00
3.239415e-01 3.597734e-01 1.250000e+00
2.845603e-01 3.916637e-01 1.250000e+00
2.420615e-01 4.192627e-01 1.250000e+00
1.969105e-01 4.422683e-01 1.250000e+00
1.496022e-01 4.604283e-01 1.250000e+00
1.006548e-01 4.735437e-01 1.250000e+00
5.060462e-02 4.814708e-01 1.250000e+00
2.964398e-17 4.841229e-01 1.250000e+00
-5.060462e-02 4.814708e-01 1.250000e+00
-1.006548e-01 4.735437e-01 1.250000e+00
-1.496022e-01 4.604283e-01 1.250000e+00
-1.969105e-01 4.422683e-01 1.250000e+00
-2.420615e-01 4.192627e-01 1.250000e+00
-2.845603e-01 3.916637e-01 1.250000e+00
-3.239415e-01 3.597734e-01 1.250000e+00
-3.597734e-01 3.239415e-01 1.250000e+00
-3.916637e-01 2.845603e-01 1.250000e+00
-4.192627e-01 2.420615e-01 1.250000e+00
-4.422683e-01 1.969105e-01 1.250000e+00
-4.604283e-01 1.496022e-01 1.250000e+00
-4.735437e-01 1.006548e-01 1.250000e+00
-4.814708e-01 5.060462e-02 1.250000e+00
-4.841229e-01 5.928796e-17 1.250000e+00
-4.814708e-01 -5.060462e-02 1.250000e+00
-4.735437e-01 -1.006548e-01 1.250000e+00
-4.604283e-01 -1.496022e-01 1.250000e+00
-4.422683e-01 -1.969105e-01 1.250000e+00
-4.192627e-01 -2.420615e-01 1.250000e+00
-3.916637e-01 -2.845603e-01 1.250000e+00
-3.597734e-01 -3.239415e-01 1.250000e+00
-3.239415e-01 -3.597734e-01 1.250000e+00
-2.845603e-01 -3.916637e-01 1.250000e+00
-2.420615e-01 -4.192627e-01 1.250000e+00
-1.969105e-01 -4.422683e-01 1.250000e+00
-1.496022e-01 -4.604283e-01 1.250000e+00
-1.006548e-01 -4.735437e-01 1.250000e+00
-5.060462e-02 -4.814708e-01 1.250000e+00
-8.893194e-17 -4.841229e-01 1.250000e+00
5.060462e-02 -4.814708e-01 1.250000e+00
1.006548e-01 -4.735437e-01 1.250000e+00
1.496022e-01 -4.604283e-01 1.250000e+00
1.969105e-01 -4.422683e-01 1.250000e+00
2.420615e-01 -4.192627e-01 1.250000e+00
2.845603e-01 -3.916637e-01 1.250000e+00
3.239415e-01 -3.597734e-01 1.250000e+00
3.597734e-01 -3.239415e-01 1.250000e+00
3.916637e-01 -2.845603e-01 1.250000e+00
4.192627e-01 -2.420615e-01 1.250000e+00
4.422683e-01 -1.969105e-01 1.250000e+00
4.604283e-01 -1.496022e-01 1.250000e+00
4.735437e-01 -1.006548e-01 1.250000e+00
4.814708e-01 -5.060462e-02 1.250000e+00
4.769696e-01 0.000000e+00 1.300000e+00
4.742675e-01 5.069876e-02 1.300000e+00
4.661917e-01 1.008231e-01 1.300000e+00
4.528338e-01 1.498050e-01 1.300000e+00
4.343451e-01 1.970897e-01 1.300000e+00
4.109351e-01 2.421412e-01 1.300000e+00
3.828690e-01 2.844491e-01 1.300000e+00
3.504649e-01 3.235341e-01 1.300000e+00
3.140899e-01 3.589534e-01 1.300000e+00
2.741561e-01 3.903055e-01 1.300000e+00
2.311160e-01 4.172354e-01 1.300000e+00
1.854573e-01 4.394378e-01 1.300000e+00
1.376973e-01 4.566612e-01 1.300000e+00
8.837709e-02 4.687105e-01 1.300000e+00
3.805555e-02 4.754490e-01 1.300000e+00
-1.269718e-02 4.768006e-01 1.300000e+00
-6.330604e-02 4.727498e-01 1.300000e+00
-1.131976e-01 4.633425e-01 1.300000e+00
-1.618066e-01 4.486854e-01 1.300000e+00
-2.085823e-01 4.289445e-01 1.300000e+00
-2.529946e-01 4.043436e-01 1.300000e+00
-2.945405e-01 3.751612e-01 1.300000e+00
-3.327490e-01 3.417281e-01 1.300000e+00
-3.671874e-01 3.044231e-01 1.300000e+00
-3.974654e-01 2.636688e-01 1.300000e+00
-4.232400e-01 2.199271e-01 1.300000e+00
-4.442190e-01 1.736935e-01 1.300000e+00
-4.601649e-01 1.254919e-01 1.300000e+00
-4.708970e-01 7.586845e-02 1.300000e+00
-4.762936e-01 2.538536e-02 1.300000e+00
-4.762936e-01 -2.538536e-02 1.300000e+00
-4.708970e-01 -7.586845e-02 1.300000e+00
-4.601649e-01 -1.254919e-01 1.300000e+00
-4.442190e-01 -1.736935e-01 1.300000e+00
-4.232400e-01 -2.199271e-01 1.300000e+00
-3.974654e-01 -2.636688e-01 1.300000e+00
-3.671874e-01 -3.044231e-01 1.300000e+00
-3.327490e-01 -3.417281e-01 1.300000e+00
-2.945405e-01 -3.751612e-01 1.300000e+00
-2.529946e-01 -4.043436e-01 1.300000e+00
-2.085823e-01 -4.289445e-01 1.300000e+00
-1.618066e-01 -4.486854e-01 1.300000e+00
-1.131976e-01 -4.633425e-01 1.300000e+00
-6.330604e-02 -4.727498e-01 1.300000e+00
-1.269718e-02 -4.768006e-01 1.300000e+00
3.805555e-02 -4.754490e-01 1.300000e+00
8.837709e-02 -4.687105e-01 1.300000e+00
1.376973e-01 -4.566612e-01 1.300000e+00
1.854573e-01 -4.394378e-01 1.300000e+00
2.311160e-01 -4.172354e-01 1.300000e+00
2.741561e-01 -3.903055e-01 1.300000e+00
3.140899e-01 -3.589534e-01 1.300000e+00
3.504649e-01 -3.235341e-01 1.300000e+00
3.828690e-01 -2.844491e-01 1.300000e+00
4.109351e-01 -2.421412e-01 1.300000e+00
4.343451e-01 -1.970897e-01 1.300000e+00
4.528338e-01 -1.498050e-01 1.300000e+00
4.661917e-01 -1.008231e-01 1.300000e+00
4.742675e-01 -5.069876e-02 1.300000e+00
4.683748e-01 0.000000e+00 1.350000e+00
4.656292e-01 5.064023e-02 1.350000e+00
4.574245e-01 1.006867e-01 1.350000e+00
4.438569e-01 1.495528e-01 1.350000e+00
4.250855e-01 1.966655e-01 1.350000e+00
4.013304e-01 2.414725e-01 1.350000e+00
3.728700e-01 2.834484e-01 1.350000e+00
3.400380e-01 3.221011e-01 1.350000e+00
3.032195e-01 3.569775e-01 1.350000e+00
2.628459e-01 3.876687e-01 1.350000e+00
2.193907e-01 4.138148e-01 1.350000e+00
1.733634e-01 4.351093e-01 1.350000e+00
1.253035e-01 4.513026e-01 1.350000e+00
7.577462e-02 4.622047e-01 1.350000e+00
2.535730e-02 4.676879e-01 1.350000e+00
-2.535730e-02 4.676879e-01 1.350000e+00
-7.577462e-02 4.622047e-01 1.350000e+00
-1.253035e-01 4.513026e-01 1.350000e+00
-1.733634e-01 4.351093e-01 1.350000e+00
-2.193907e-01 4.138148e-01 1.350000e+00
-2.628459e-01 3.876687e-01 1.350000e+00
-3.032195e-01 3.569775e-01 1.350000e+00
-3.400380e-01 3.221011e-01 1.350000e+00
-3.728700e-01 2.834484e-01 1.350000e+00
-4.013304e-01 2.414725e-01 1.350000e+00
-4.250855e-01 1.966655e-01 1.350000e+00
-4.438569e-01 1.495528e-01 1.350000e+00
-4.574245e-01 1.006867e-01 1.350000e+00
-4.656292e-01 5.064023e-02 1.350000e+00
-4.683748e-01 5.735938e-17 1.350000e+00
-4.656292e-01 -5.064023e-02 1.350000e+00
-4.574245e-01 -1.006867e-01 1.350000e+00
-4.438569e-01 -1.495528e-01 1.350000e+00
-4.250855e-01 -1.966655e-01 1.350000e+00
-4.013304e-01 -2.414725e-01 1.350000e+00
-3.728700e-01 -2.834484e-01 1.350000e+00
-3.400380e-01 -3.221011e-01 1.350000e+00
-3.032195e-01 -3.569775e-01 1.350000e+00
-2.628459e-01 -3.876687e-01 1.350000e+00
-2.193907e-01 -4.138148e-01 1.350000e+00
-1.733634e-01 -4.351093e-01 1.350000e+00
-1.253035e-01 -4.513026e-01 1.350000e+00
-7.577462e-02 -4.622047e-01 1.350000e+00
-2.535730e-02 -4.676879e-01 1.350000e+00
2.535730e-02 -4.676879e-01 1.350000e+00
7.577462e-02 -4.622047e-01 1.350000e+00
1.253035e-01 -4.513026e-01 1.350000e+00
1.733634e-01 -4.351093e-01 1.350000e+00
2.193907e-01 -4.138148e-01 1.350000e+00
2.628459e-01 -3.876687e-01 1.350000e+00
3.032195e-01 -3.569775e-01 1.350000e+00
3.400380e-01 -3.221011e-01 1.350000e+00
3.728700e-01 -2.834484e-01 1.350000e+00
4.013304e-01 -2.414725e-01 1.350000e+00
4.250855e-01 -1.966655e-01 1.350000e+00
4.438569e-01 -1.495528e-01 1.350000e+00
4.574245e-01 -1.006867e-01 1.350000e+00
4.656292e-01 -5.064023e-02 1.350000e+00
4.582576e-01 0.000000e+00 1.400000e+00
4.553761e-01 5.130857e-02 1.400000e+00
4.467681e-01 1.019719e-01 1.400000e+00
4.325417e-01 1.513529e-01 1.400000e+00
4.128758e-01 1.988305e-01 1.400000e+00
3.880178e-01 2.438077e-01 1.400000e+00
3.582802e-01 2.857189e-01 1.400000e+00
3.240370e-01 3.240370e-01 1.400000e+00
2.857189e-01 3.582802e-01 1.400000e+00
2.438077e-01 3.880178e-01 1.400000e+00
1.988305e-01 4.128758e-01 1.400000e+00
1.513529e-01 4.325417e-01 1.400000e+00
1.019719e-01 4.467681e-01 1.400000e+00
5.130857e-02 4.553761e-01 1.400000e+00
2.806018e-17 4.582576e-01 1.400000e+00
-5.130857e-02 4.553761e-01 1.400000e+00
-1.019719e-01 4.467681e-01 1.400000e+00
-1.513529e-01 4.325417e-01 1.400000e+00
-1.988305e-01 4.128758e-01 1.400000e+00
-2.438077e-01 3.880178e-01 1.400000e+00
-2.857189e-01 3.582802e-01 1.400000e+00
-3.240370e-01 3.240370e-01 1.400000e+00
-3.582802e-01 2.857189e-01 1.400000e+00
-3.880178e-01 2.438077e-01 1.400000e+00
-4.128758e-01 1.988305e-01 1.400000e+00
-4.325417e-01 1.513529e-01 1.400000e+00
-4.467681e-01 1.019719e-01 1.400000e+00
-4.553761e-01 5.130857e-02 1.400000e+00
-4.582576e-01 5.612037e-17 1.400000e+00
-4.553761e-01 -5.130857e-02 1.400000e+00
-4.467681e-01 -1.019719e-01 1.400000e+00
-4.325417e-01 -1.513529e-01 1.400000e+00
-4.128758e-01 -1.988305e-01 1.400000e+00
-3.880178e-01 -2.438077e-01 1.400000e+00
-3.582802e-01 -2.857189e-01 1.400000e+00
-3.240370e-01 -3.240370e-01 1.400000e+00
-2.857189e-01 -3.582802e-01 1.400000e+00
-2.438077e-01 -3.880178e-01 1.400000e+00
-1.988305e-01 -4.128758e-01 1.400000e+00
-1.513529e-01 -4.325417e-01 1.400000e+00
-1.019719e-01 -4.467681e-01 1.400000e+00
-5.130857e-02 -4.553761e-01 1.400000e+00
-8.418055e-17 -4.582576e-01 1.400000e+00
5.130857e-02 -4.553761e-01 1.400000e+00
1.019719e-01 -4.467681e-01 1.400000e+00
1.513529e-01 -4.325417e-01 1.400000e+00
1.988305e-01 -4.128758e-01 1.400000e+00
2.438077e-01 -3.880178e-01 1.400000e+00
2.857189e-01 -3.582802e-01 1.400000e+00
3.240370e-01 -3.240370e-01 1.400000e+00
3.582802e-01 -2.857189e-01 1.400000e+00
3.880178e-01 -2.438077e-01 1.400000e+00
4.128758e-01 -1.988305e-01 1.400000e+00
4.325417e-01 -1.513529e-01 1.400000e+00
4.467681e-01 -1.019719e-01 1.400000e+00
4.553761e-01 -5.130857e-02 1.400000e+00
4.465143e-01 0.000000e+00 1.450000e+00
4.436038e-01 5.089879e-02 1.450000e+00
4.349102e-01 1.011340e-01 1.450000e+00
4.205470e-01 1.500509e-01 1.450000e+00
4.007012e-01 1.970115e-01 1.450000e+00
3.756317e-01 2.414038e-01 1.450000e+00
3.456653e-01 2.826491e-01 1.450000e+00
3.111926e-01 3.202096e-01 1.450000e+00
2.726630e-01 3.535957e-01 1.450000e+00
2.305788e-01 3.823721e-01 1.450000e+00
1.854887e-01 4.061637e-01 1.450000e+00
1.379805e-01 4.246603e-01 1.450000e+00
8.867348e-02 4.376209e-01 1.450000e+00
3.821046e-02 4.448763e-01 1.450000e+00
-1.275068e-02 4.463322e-01 1.450000e+00
-6.354561e-02 4.419694e-01 1.450000e+00
-1.135121e-01 4.318449e-01 1.450000e+00
-1.619988e-01 4.160906e-01 1.450000e+00
-2.083736e-01 3.949119e-01 1.450000e+00
-2.520320e-01 3.685850e-01 1.450000e+00
-2.924047e-01 3.374530e-01 1.450000e+00
-3.289654e-01 3.019217e-01 1.450000e+00
-3.612376e-01 2.624545e-01 1.450000e+00
-3.888006e-01 2.195658e-01 1.450000e+00
-4.112949e-01 1.738147e-01 1.450000e+00
-4.284273e-01 1.257976e-01 1.450000e+00
-4.399746e-01 7.614059e-02 1.450000e+00
-4.457861e-01 2.549097e-02 1.450000e+00
-4.457861e-01 -2.549097e-02 1.450000e+00
-4.399746e-01 -7.614059e-02 1.450000e+00
-4.284273e-01 -1.257976e-01 1.450000e+00
-4.112949e-01 -1.738147e-01 1.450000e+00
-3.888006e-01 -2.195658e-01 1.450000e+00
-3.612376e-01 -2.624545e-01 1.450000e+00
-3.289654e-01 -3.019217e-01 1.450000e+00
-2.924047e-01 -3.374530e-01 1.450000e+00
-2.520320e-01 -3.685850e-01 1.450000e+00
-2.083736e-01 -3.949119e-01 1.450000e+00
-1.619988e-01 -4.160906e-01 1.450000e+00
-1.135121e-01 -4.318449e-01 1.450000e+00
-6.354561e-02 -4.419694e-01 1.450000e+00
-1.275068e-02 -4.463322e-01 1.450000e+00
3.821046e-02 -4.448763e-01 1.450000e+00
8.867348e-02 -4.376209e-01 1.450000e+00
1.379805e-01 -4.246603e-01 1.450000e+00
1.854887e-01 -4.061637e-01 1.450000e+00
2.305788e-01 -3.823721e-01 1.450000e+00
2.726630e-01 -3.535957e-01 1.450000e+00
3.111926e-01 -3.202096e-01 1.450000e+00
3.456653e-01 -2.826491e-01 1.450000e+00
3.756317e-01 -2.414038e-01 1.450000e+00
4.007012e-01 -1.970115e-01 1.450000e+00
4.205470e-01 -1.500509e-01 1.450000e+00
4.349102e-01 -1.011340e-01 1.450000e+00
4.436038e-01 -5.089879e-02 1.450000e+00
4.330127e-01 0.000000e+00 1.500000e+00
4.299734e-01 5.121379e-02 1.500000e+00
4.208983e-01 1.017086e-01 1.500000e+00
4.059146e-01 1.507757e-01 1.500000e+00
3.852328e-01 1.977263e-01 1.500000e+00
3.591432e-01 2.419011e-01 1.500000e+00
3.280120e-01 2.826803e-01 1.500000e+00
2.922762e-01 3.194912e-01 1.500000e+00
2.524375e-01 3.518171e-01 1.500000e+00
2.090552e-01 3.792044e-01 1.500000e+00
1.627381e-01 4.012684e-01 1.500000e+00
1.141366e-01 4.176995e-01 1.500000e+00
6.393284e-02 4.282670e-01 1.500000e+00
1.283161e-02 4.328225e-01 1.500000e+00
-3.844975e-02 4.313022e-01 1.500000e+00
-8.919136e-02 4.237274e-01 1.500000e+00
-1.386809e-01 4.102043e-01 1.500000e+00
-1.862237e-01 3.909229e-01 1.500000e+00
-2.311523e-01 3.661538e-01 1.500000e+00
-2.728360e-01 3.362447e-01 1.500000e+00
-3.106898e-01 3.016154e-01 1.500000e+00
-3.441821e-01 2.627522e-01 1.500000e+00
-3.728428e-01 2.202004e-01 1.500000e+00
-3.962697e-01 1.745576e-01 1.500000e+00
-4.141338e-01 1.264643e-01 1.500000e+00
-4.261843e-01 7.659574e-02 1.500000e+00
-4.322522e-01 2.565194e-02 1.500000e+00
-4.322522e-01 -2.565194e-02 1.500000e+00
-4.261843e-01 -7.659574e-02 1.500000e+00
-4.141338e-01 -1.264643e-01 1.500000e+00
-3.962697e-01 -1.745576e-01 1.500000e+00
-3.728428e-01 -2.202004e-01 1.500000e+00
-3.441821e-01 -2.627522e-01 1.500000e+00
-3.106898e-01 -3.016154e-01 1.500000e+00
-2.728360e-01 -3.362447e-01 1.500000e+00
-2.311523e-01 -3.661538e-01 1.500000e+00
-1.862237e-01 -3.909229e-01 1.500000e+00
-1.386809e-01 -4.102043e-01 1.500000e+00
-8.919136e-02 -4.237274e-01 1.500000e+00
-3.844975e-02 -4.313022e-01 1.500000e+00
1.283161e-02 -4.328225e-01 1.500000e+00
6.393284e-02 -4.282670e-01 1.500000e+00
1.141366e-01 -4.176995e-01 1.500000e+00
1.627381e-01 -4.012684e-01 1.500000e+00
2.090552e-01 -3.792044e-01 1.500000e+00
2.524375e-01 -3.518171e-01 1.500000e+00
2.922762e-01 -3.194912e-01 1.500000e+00
3.280120e-01 -2.826803e-01 1.500000e+00
3.591432e-01 -2.419011e-01 1.500000e+00
3.852328e-01 -1.977263e-01 1.500000e+00
4.059146e-01 -1.507757e-01 1.500000e+00
4.208983e-01 -1.017086e-01 1.500000e+00
4.299734e-01 -5.121379e-02 1.500000e+00
4.175823e-01 0.000000e+00 1.550000e+00
4.144173e-01 5.131598e-02 1.550000e+00
4.049701e-01 1.018541e-01 1.550000e+00
3.893839e-01 1.508481e-01 1.550000e+00
3.678951e-01 1.975555e-01 1.550000e+00
3.408294e-01 2.412681e-01 1.550000e+00
3.085971e-01 2.813234e-01 1.550000e+00
2.716867e-01 3.171141e-01 1.550000e+00
2.306579e-01 3.480976e-01 1.550000e+00
1.861325e-01 3.738044e-01 1.550000e+00
1.387855e-01 3.938446e-01 1.550000e+00
8.933467e-02 4.079146e-01 1.550000e+00
3.852964e-02 4.158010e-01 1.550000e+00
-1.285947e-02 4.173843e-01 1.550000e+00
-6.405364e-02 4.126404e-01 1.550000e+00
-1.142768e-01 4.016414e-01 1.550000e+00
-1.627677e-01 3.845539e-01 1.550000e+00
-2.087912e-01 3.616369e-01 1.550000e+00
-2.516496e-01 3.332379e-01 1.550000e+00
-2.906932e-01 2.997873e-01 1.550000e+00
-3.253303e-01 2.617923e-01 1.550000e+00
-3.550357e-01 2.198288e-01 1.550000e+00
-3.793590e-01 1.745329e-01 1.550000e+00
-3.979317e-01 1.265912e-01 1.550000e+00
-4.104722e-01 7.673055e-02 1.550000e+00
-4.167903e-01 2.570675e-02 1.550000e+00
-4.167903e-01 -2.570675e-02 1.550000e+00
-4.104722e-01 -7.673055e-02 1.550000e+00
-3.979317e-01 -1.265912e-01 1.550000e+00
-3.793590e-01 -1.745329e-01 1.550000e+00
-3.550357e-01 -2.198288e-01 1.550000e+00
-3.253303e-01 -2.617923e-01 1.550000e+00
-2.906932e-01 -2.997873e-01 1.550000e+00
-2.516496e-01 -3.332379e-01 1.550000e+00
-2.087912e-01 -3.616369e-01 1.550000e+00
-1.627677e-01 -3.845539e-01 1.550000e+00
-1.142768e-01 -4.016414e-01 1.550000e+00
-6.405364e-02 -4.126404e-01 1.550000e+00
-1.285947e-02 -4.173843e-01 1.550000e+00
3.852964e-02 -4.158010e-01 1.550000e+00
8.933467e-02 -4.079146e-01 1.550000e+00
1.387855e-01 -3.938446e-01 1.550000e+00
1.861325e-01 -3.738044e-01 1.550000e+00
2.306579e-01 -3.480976e-01 1.550000e+00
2.716867e-01 -3.171141e-01 1.550000e+00
3.085971e-01 -2.813234e-01 1.550000e+00
3.408294e-01 -2.412681e-01 1.550000e+00
3.678951e-01 -1.975555e-01 1.550000e+00
3.893839e-01 -1.508481e-01 1.550000e+00
4.049701e-01 -1.018541e-01 1.550000e+00
4.144173e-01 -5.131598e-02 1.550000e+00
4.000000e-01 0.000000e+00 1.600000e+00
3.967160e-01 5.115086e-02 1.600000e+00
3.869179e-01 1.014618e-01 1.600000e+00
3.707667e-01 1.501068e-01 1.600000e+00
3.485275e-01 1.962870e-01 1.600000e+00
3.205654e-01 2.392442e-01 1.600000e+00
2.873397e-01 2.782730e-01 1.600000e+00
2.493959e-01 3.127326e-01 1.600000e+00
2.073570e-01 3.420571e-01 1.600000e+00
1.619133e-01 3.657650e-01 1.600000e+00
1.138110e-01 3.834671e-01 1.600000e+00
6.383996e-02 3.948727e-01 1.600000e+00
1.282063e-02 3.997945e-01 1.600000e+00
-3.840921e-02 3.981516e-01 1.600000e+00
-8.900837e-02 3.899712e-01 1.600000e+00
-1.381460e-01 3.753874e-01 1.600000e+00
-1.850153e-01 3.546397e-01 1.600000e+00
-2.288467e-01 3.280689e-01 1.600000e+00
-2.689204e-01 2.961112e-01 1.600000e+00
-3.045784e-01 2.592914e-01 1.600000e+00
-3.352352e-01 2.182140e-01 1.600000e+00
-3.603875e-01 1.735535e-01 1.600000e+00
-3.796223e-01 1.260433e-01 1.600000e+00
-3.926237e-01 7.646345e-02 1.600000e+00
-3.991782e-01 2.562809e-02 1.600000e+00
-3.991782e-01 -2.562809e-02 1.600000e+00
-3.926237e-01 -7.646345e-02 1.600000e+00
-3.796223e-01 -1.260433e-01 1.600000e+00
-3.603875e-01 -1.735535e-01 1.600000e+00
-3.352352e-01 -2.182140e-01 1.600000e+00
-3.045784e-01 -2.592914e-01 1.600000e+00
-2.689204e-01 -2.961112e-01 1.600000e+00
-2.288467e-01 -3.280689e-01 1.600000e+00
-1.850153e-01 -3.546397e-01 1.600000e+00
-1.381460e-01 -3.753874e-01 1.600000e+00
-8.900837e-02 -3.899712e-01 1.600000e+00
-3.840921e-02 -3.981516e-01 1.600000e+00
1.282063e-02 -3.997945e-01 1.600000e+00
6.383996e-02 -3.948727e-01 1.600000e+00
1.138110e-01 -3.834671e-01 1.600000e+00
1.619133e-01 -3.657650e-01 1.600000e+00
2.073570e-01 -3.420571e-01 1.600000e+00
2.493959e-01 -3.127326e-01 1.600000e+00
2.873397e-01 -2.782730e-01 1.600000e+00
3.205654e-01 -2.392442e-01 1.600000e+00
3.485275e-01 -1.962870e-01 1.600000e+00
3.707667e-01 -1.501068e-01 1.600000e+00
3.869179e-01 -1.014618e-01 1.600000e+00
3.967160e-01 -5.115086e-02 1.600000e+00
3.799671e-01 0.000000e+00 1.650000e+00
3.765768e-01 5.064466e-02 1.650000e+00
3.664666e-01 1.003856e-01 1.650000e+00
3.498167e-01 1.483351e-01 1.650000e+00
3.269243e-01 1.936376e-01 1.650000e+00
2.981979e-01 2.354846e-01 1.650000e+00
2.641503e-01 2.731294e-01 1.650000e+00
2.253888e-01 3.059001e-01 1.650000e+00
1.826053e-01 3.332121e-01 1.650000e+00
1.365631e-01 3.545779e-01 1.650000e+00
8.808403e-02 3.696163e-01 1.650000e+00
3.803307e-02 3.780588e-01 1.650000e+00
-1.269659e-02 3.797549e-01 1.650000e+00
-6.319968e-02 3.746743e-01 1.650000e+00
-1.125750e-01 3.629075e-01 1.650000e+00
-1.599414e-01 3.446647e-01 1.650000e+00
-2.044536e-01 3.202713e-01 1.650000e+00
-2.453173e-01 2.901627e-01 1.650000e+00
-2.818034e-01 2.548761e-01 1.650000e+00
-3.132607e-01 2.150413e-01 1.650000e+00
-3.391278e-01 1.713690e-01 1.650000e+00
-3.589432e-01 1.246387e-01 1.650000e+00
-3.723532e-01 7.568412e-02 1.650000e+00
-3.791186e-01 2.537900e-02 1.650000e+00
-3.791186e-01 -2.537900e-02 1.650000e+00
-3.723532e-01 -7.568412e-02 1.650000e+00
-3.589432e-01 -1.246387e-01 1.650000e+00
-3.391278e-01 -1.713690e-01 1.650000e+00
-3.132607e-01 -2.150413e-01 1.650000e+00
-2.818034e-01 -2.548761e-01 1.650000e+00
-2.453173e-01 -2.901627e-01 1.650000e+00
-2.044536e-01 -3.202713e-01 1.650000e+00
-1.599414e-01 -3.446647e-01 1.650000e+00
-1.125750e-01 -3.629075e-01 1.650000e+00
-6.319968e-02 -3.746743e-01 1.650000e+00
-1.269659e-02 -3.797549e-01 1.650000e+00
3.803307e-02 -3.780588e-01 1.650000e+00
8.808403e-02 -3.696163e-01 1.650000e+00
1.365631e-01 -3.545779e-01 1.650000e+00
1.826053e-01 -3.332121e-01 1.650000e+00
2.253888e-01 -3.059001e-01 1.650000e+00
2.641503e-01 -2.731294e-01 1.650000e+00
2.981979e-01 -2.354846e-01 1.650000e+00
3.269243e-01 -1.936376e-01 1.650000e+00
3.498167e-01 -1.483351e-01 1.650000e+00
3.664666e-01 -1.003856e-01 1.650000e+00
3.765768e-01 -5.064466e-02 1.650000e+00
3.570714e-01 0.000000e+00 1.700000e+00
3.534369e-01 5.081656e-02 1.700000e+00
3.426075e-01 1.005986e-01 1.700000e+00
3.248036e-01 1.483328e-01 1.700000e+00
3.003876e-01 1.930474e-01 1.700000e+00
2.698566e-01 2.338321e-01 1.700000e+00
2.338321e-01 2.698566e-01 1.700000e+00
1.930474e-01 3.003876e-01 1.700000e+00
1.483328e-01 3.248036e-01 1.700000e+00
1.005986e-01 3.426075e-01 1.700000e+00
5.081656e-02 3.534369e-01 1.700000e+00
2.186432e-17 3.570714e-01 1.700000e+00
-5.081656e-02 3.534369e-01 1.700000e+00
-1.005986e-01 3.426075e-01 1.700000e+00
-1.483328e-01 3.248036e-01 1.700000e+00
-1.930474e-01 3.003876e-01 1.700000e+00
-2.338321e-01 2.698566e-01 1.700000e+00
-2.698566e-01 2.338321e-01 1.700000e+00
-3.003876e-01 1.930474e-01 1.700000e+00
-3.248036e-01 1.483328e-01 1.700000e+00
-3.426075e-01 1.005986e-01 1.700000e+00
-3.534369e-01 5.081656e-02 1.700000e+00
-3.570714e-01 4.372864e-17 1.700000e+00
-3.534369e-01 -5.081656e-02 1.700000e+00
-3.426075e-01 -1.005986e-01 1.700000e+00
-3.248036e-01 -1.483328e-01 1.700000e+00
-3.003876e-01 -1.930474e-01 1.700000e+00
-2.698566e-01 -2.338321e-01 1.700000e+00
-2.338321e-01 -2.698566e-01 1.700000e+00
-1.930474e-01 -3.003876e-01 1.700000e+00
-1.483328e-01 -3.248036e-01 1.700000e+00
-1.005986e-01 -3.426075e-01 1.700000e+00
-5.081656e-02 -3.534369e-01 1.700000e+00
-6.559296e-17 -3.570714e-01 1.700000e+00
5.081656e-02 -3.534369e-01 1.700000e+00
1.005986e-01 -3.426075e-01 1.700000e+00
1.483328e-01 -3.248036e-01 1.700000e+00
1.930474e-01 -3.003876e-01 1.700000e+00
2.338321e-01 -2.698566e-01 1.700000e+00
2.698566e-01 -2.338321e-01 1.700000e+00
3.003876e-01 -1.930474e-01 1.700000e+00
3.248036e-01 -1.483328e-01 1.700000e+00
3.426075e-01 -1.005986e-01 1.700000e+00
3.534369e-01 -5.081656e-02 1.700000e+00
3.307189e-01 0.000000e+00 1.750000e+00
3.268430e-01 5.048401e-02 1.750000e+00
3.153062e-01 9.978471e-02 1.750000e+00
2.963789e-01 1.467465e-01 1.750000e+00
2.705047e-01 1.902688e-01 1.750000e+00
2.382901e-01 2.293312e-01 1.750000e+00
2.004902e-01 2.630184e-01 1.750000e+00
1.579910e-01 2.905406e-01 1.750000e+00
1.117886e-01 3.112528e-01 1.750000e+00
6.296594e-02 3.246695e-01 1.750000e+00
1.266744e-02 3.304762e-01 1.750000e+00
-3.792798e-02 3.285369e-01 1.750000e+00
-8.763439e-02 3.188969e-01 1.750000e+00
-1.352867e-01 3.017822e-01 1.750000e+00
-1.797681e-01 2.775940e-01 1.750000e+00
-2.200358e-01 2.468993e-01 1.750000e+00
-2.551461e-01 2.104174e-01 1.750000e+00
-2.842759e-01 1.690035e-01 1.750000e+00
-3.067426e-01 1.236284e-01 1.750000e+00
-3.220195e-01 7.535546e-02 1.750000e+00
-3.297485e-01 2.531629e-02 1.750000e+00
-3.297485e-01 -2.531629e-02 1.750000e+00
-3.220195e-01 -7.535546e-02 1.750000e+00
-3.067426e-01 -1.236284e-01 1.750000e+00
-2.842759e-01 -1.690035e-01 1.750000e+00
-2.551461e-01 -2.104174e-01 1.750000e+00
-2.200358e-01 -2.468993e-01 1.750000e+00
-1.797681e-01 -2.775940e-01 1.750000e+00
-1.352867e-01 -3.017822e-01 1.750000e+00
-8.763439e-02 -3.188969e-01 1.750000e+00
-3.792798e-02 -3.285369e-01 1.750000e+00
1.266744e-02 -3.304762e-01 1.750000e+00
6.296594e-02 -3.246695e-01 1.750000e+00
1.117886e-01 -3.112528e-01 1.750000e+00
1.579910e-01 -2.905406e-01 1.750000e+00
2.004902e-01 -2.630184e-01 1.750000e+00
2.382901e-01 -2.293312e-01 1.750000e+00
2.705047e-01 -1.902688e-01 1.750000e+00
2.963789e-01 -1.467465e-01 1.750000e+00
3.153062e-01 -9.978471e-02 1.750000e+00
3.268430e-01 -5.048401e-02 1.750000e+00
3.000000e-01 0.000000e+00 1.800000e+00
2.956848e-01 5.070025e-02 1.800000e+00
2.828632e-01 9.994194e-02 1.800000e+00
2.619042e-01 1.463085e-01 1.800000e+00
2.334107e-01 1.884660e-01 1.800000e+00
1.982024e-01 2.252017e-01 1.800000e+00
1.572922e-01 2.554587e-01 1.800000e+00
1.118569e-01 2.783667e-01 1.800000e+00
6.320378e-02 2.932666e-01 1.800000e+00
1.273236e-02 2.997297e-01 1.800000e+00
-3.810535e-02 2.975701e-01 1.800000e+00
-8.784683e-02 2.868500e-01 1.800000e+00
-1.350611e-01 2.678778e-01 1.800000e+00
-1.783900e-01 2.411991e-01 1.800000e+00
-2.165868e-01 2.075817e-01 1.800000e+00
-2.485529e-01 1.679924e-01 1.800000e+00
-2.733685e-01 1.235704e-01 1.800000e+00
-2.903199e-01 7.559342e-02 1.800000e+00
-2.989192e-01 2.544178e-02 1.800000e+00
-2.989192e-01 -2.544178e-02 1.800000e+00
-2.903199e-01 -7.559342e-02 1.800000e+00
-2.733685e-01 -1.235704e-01 1.800000e+00
-2.485529e-01 -1.679924e-01 1.800000e+00
-2.165868e-01 -2.075817e-01 1.800000e+00
-1.783900e-01 -2.411991e-01 1.800000e+00
-1.350611e-01 -2.678778e-01 1.800000e+00
-8.784683e-02 -2.868500e-01 1.800000e+00
-3.810535e-02 -2.975701e-01 1.800000e+00
1.273236e-02 -2.997297e-01 1.800000e+00
6.320378e-02 -2.932666e-01 1.800000e+00
1.118569e-01 -2.783667e-01 1.800000e+00
1.572922e-01 -2.554587e-01 1.800000e+00
1.982024e-01 -2.252017e-01 1.800000e+00
2.334107e-01 -1.884660e-01 1.800000e+00
2.619042e-01 -1.463085e-01 1.800000e+00
2.828632e-01 -9.994194e-02 1.800000e+00
2.956848e-01 -5.070025e-02 1.800000e+00
2.633913e-01 0.000000e+00 1.850000e+00
2.583304e-01 5.138510e-02 1.850000e+00
2.433419e-01 1.007955e-01 1.850000e+00
2.190019e-01 1.463324e-01 1.850000e+00
1.862458e-01 1.862458e-01 1.850000e+00
1.463324e-01 2.190019e-01 1.850000e+00
1.007955e-01 2.433419e-01 1.850000e+00
5.138510e-02 2.583304e-01 1.850000e+00
1.612807e-17 2.633913e-01 1.850000e+00
-5.138510e-02 2.583304e-01 1.850000e+00
-1.007955e-01 2.433419e-01 1.850000e+00
-1.463324e-01 2.190019e-01 1.850000e+00
-1.862458e-01 1.862458e-01 1.850000e+00
-2.190019e-01 1.463324e-01 1.850000e+00
-2.433419e-01 1.007955e-01 1.850000e+00
-2.583304e-01 5.138510e-02 1.850000e+00
-2.633913e-01 3.225614e-17 1.850000e+00
-2.583304e-01 -5.138510e-02 1.850000e+00
-2.433419e-01 -1.007955e-01 1.850000e+00
-2.190019e-01 -1.463324e-01 1.850000e+00
-1.862458e-01 -1.862458e-01 1.850000e+00
-1.463324e-01 -2.190019e-01 1.850000e+00
-1.007955e-01 -2.433419e-01 1.850000e+00
-5.138510e-02 -2.583304e-01 1.850000e+00
-4.838420e-17 -2.633913e-01 1.850000e+00
5.138510e-02 -2.583304e-01 1.850000e+00
1.007955e-01 -2.433419e-01 1.850000e+00
1.463324e-01 -2.190019e-01 1.850000e+00
1.862458e-01 -1.862458e-01 1.850000e+00
2.190019e-01 -1.463324e-01 1.850000e+00
2.433419e-01 -1.007955e-01 1.850000e+00
2.583304e-01 -5.138510e-02 1.850000e+00
2.179449e-01 0.000000e+00 1.900000e+00
2.120702e-01 5.026156e-02 1.900000e+00
1.947627e-01 9.781351e-02 1.900000e+00
1.669555e-01 1.400923e-01 1.900000e+00
1.301477e-01 1.748187e-01 1.900000e+00
8.632358e-02 2.001206e-01 1.900000e+00
3.784574e-02 2.146339e-01 1.900000e+00
-1.267237e-02 2.175762e-01 1.900000e+00
-6.250732e-02 2.087890e-01 1.900000e+00
-1.089725e-01 1.887459e-01 1.900000e+00
-1.495629e-01 1.585274e-01 1.900000e+00
-1.820903e-01 1.197627e-01 1.900000e+00
-2.048013e-01 7.454156e-02 1.900000e+00
-2.164713e-01 2.530186e-02 1.900000e+00
-2.164713e-01 -2.530186e-02 1.900000e+00
-2.048013e-01 -7.454156e-02 1.900000e+00
-1.820903e-01 -1.197627e-01 1.900000e+00
-1.495629e-01 -1.585274e-01 1.900000e+00
-1.089725e-01 -1.887459e-01 1.900000e+00
-6.250732e-02 -2.087890e-01 1.900000e+00
-1.267237e-02 -2.175762e-01 1.900000e+00
3.784574e-02 -2.146339e-01 1.900000e+00
8.632358e-02 -2.001206e-01 1.900000e+00
1.301477e-01 -1.748187e-01 1.900000e+00
1.669555e-01 -1.400923e-01 1.900000e+00
1.947627e-01 -9.781351e-02 1.900000e+00
2.120702e-01 -5.026156e-02 1.900000e+00
1.561249e-01 0.000000e+00 1.950000e+00
1.476657e-01 5.069369e-02 1.950000e+00
1.232045e-01 9.589393e-02 1.950000e+00
8.539225e-02 1.307026e-01 1.950000e+00
3.832641e-02 1.513476e-01 1.950000e+00
-1.289270e-02 1.555917e-01 1.950000e+00
-6.271468e-02 1.429751e-01 1.950000e+00
-1.057406e-01 1.148649e-01 1.950000e+00
-1.373078e-01 7.430726e-02 1.950000e+00
-1.539956e-01 2.569732e-02 1.950000e+00
-1.539956e-01 -2.569732e-02 1.950000e+00
-1.373078e-01 -7.430726e-02 1.950000e+00
-1.057406e-01 -1.148649e-01 1.950000e+00
-6.271468e-02 -1.429751e-01 1.950000e+00
-1.289270e-02 -1.555917e-01 1.950000e+00
3.832641e-02 -1.513476e-01 1.950000e+00
8.539225e-02 -1.307026e-01 1.950000e+00
1.232045e-01 -9.589393e-02 1.950000e+00
1.476657e-01 -5.069369e-02 1.950000e+00
