2.500000e-01 0.000000e+00 0.000000e+00
2.448825e-01 5.032463e-02 0.000000e+00
2.297395e-01 9.858896e-02 0.000000e+00
2.051909e-01 1.428171e-01 0.000000e+00
1.722417e-01 1.811982e-01 0.000000e+00
1.322410e-01 2.121611e-01 0.000000e+00
8.682631e-02 2.344380e-01 0.000000e+00
3.785694e-02 2.471171e-01 0.000000e+00
-1.266229e-02 2.496791e-01 0.000000e+00
-6.266313e-02 2.420193e-01 0.000000e+00
-1.100985e-01 2.244511e-01 0.000000e+00
-1.530265e-01 1.976939e-01 0.000000e+00
-1.896895e-01 1.628431e-01 0.000000e+00
-2.185867e-01 1.213255e-01 0.000000e+00
-2.385348e-01 7.484078e-02 0.000000e+00
-2.487173e-01 2.529208e-02 0.000000e+00
-2.487173e-01 -2.529208e-02 0.000000e+00
-2.385348e-01 -7.484078e-02 0.000000e+00
-2.185867e-01 -1.213255e-01 0.000000e+00
-1.896895e-01 -1.628431e-01 0.000000e+00
-1.530265e-01 -1.976939e-01 0.000000e+00
-1.100985e-01 -2.244511e-01 0.000000e+00
-6.266313e-02 -2.420193e-01 0.000000e+00
-1.266229e-02 -2.496791e-01 0.000000e+00
3.785694e-02 -2.471171e-01 0.000000e+00
8.682631e-02 -2.344380e-01 0.000000e+00
1.322410e-01 -2.121611e-01 0.000000e+00
1.722417e-01 -1.811982e-01 0.000000e+00
2.051909e-01 -1.428171e-01 0.000000e+00
2.297395e-01 -9.858896e-02 0.000000e+00
2.448825e-01 -5.032463e-02 0.000000e+00
2.625000e-01 0.000000e+00 5.000000e-02
2.574561e-01 5.121121e-02 5.000000e-02
2.425184e-01 1.004544e-01 5.000000e-02
2.182608e-01 1.458372e-01 5.000000e-02
1.856155e-01 1.856155e-01 5.000000e-02
1.458372e-01 2.182608e-01 5.000000e-02
1.004544e-01 2.425184e-01 5.000000e-02
5.121121e-02 2.574561e-01 5.000000e-02
1.607349e-17 2.625000e-01 5.000000e-02
-5.121121e-02 2.574561e-01 5.000000e-02
-1.004544e-01 2.425184e-01 5.000000e-02
-1.458372e-01 2.182608e-01 5.000000e-02
-1.856155e-01 1.856155e-01 5.000000e-02
-2.182608e-01 1.458372e-01 5.000000e-02
-2.425184e-01 1.004544e-01 5.000000e-02
-2.574561e-01 5.121121e-02 5.000000e-02
-2.625000e-01 3.214698e-17 5.000000e-02
-2.574561e-01 -5.121121e-02 5.000000e-02
-2.425184e-01 -1.004544e-01 5.000000e-02
-2.182608e-01 -1.458372e-01 5.000000e-02
-1.856155e-01 -1.856155e-01 5.000000e-02
-1.458372e-01 -2.182608e-01 5.000000e-02
-1.004544e-01 -2.425184e-01 5.000000e-02
-5.121121e-02 -2.574561e-01 5.000000e-02
-4.822047e-17 -2.625000e-01 5.000000e-02
5.121121e-02 -2.574561e-01 5.000000e-02
1.004544e-01 -2.425184e-01 5.000000e-02
1.458372e-01 -2.182608e-01 5.000000e-02
1.856155e-01 -1.856155e-01 5.000000e-02
2.182608e-01 -1.458372e-01 5.000000e-02
2.425184e-01 -1.004544e-01 5.000000e-02
2.574561e-01 -5.121121e-02 5.000000e-02
2.750000e-01 0.000000e+00 1.000000e-01
2.703176e-01 5.053112e-02 1.000000e-01
2.564299e-01 9.934146e-02 1.000000e-01
2.338097e-01 1.447688e-01 1.000000e-01
2.032275e-01 1.852663e-01 1.000000e-01
1.657245e-01 2.194547e-01 1.000000e-01
1.225780e-01 2.461699e-01 1.000000e-01
7.525732e-02 2.645021e-01 1.000000e-01
2.537380e-02 2.738269e-01 1.000000e-01
-2.537380e-02 2.738269e-01 1.000000e-01
-7.525732e-02 2.645021e-01 1.000000e-01
-1.225780e-01 2.461699e-01 1.000000e-01
-1.657245e-01 2.194547e-01 1.000000e-01
-2.032275e-01 1.852663e-01 1.000000e-01
-2.338097e-01 1.447688e-01 1.000000e-01
-2.564299e-01 9.934146e-02 1.000000e-01
-2.703176e-01 5.053112e-02 1.000000e-01
-2.750000e-01 3.367779e-17 1.000000e-01
-2.703176e-01 -5.053112e-02 1.000000e-01
-2.564299e-01 -9.934146e-02 1.000000e-01
-2.338097e-01 -1.447688e-01 1.000000e-01
-2.032275e-01 -1.852663e-01 1.000000e-01
-1.657245e-01 -2.194547e-01 1.000000e-01
-1.225780e-01 -2.461699e-01 1.000000e-01
-7.525732e-02 -2.645021e-01 1.000000e-01
-2.537380e-02 -2.738269e-01 1.000000e-01
2.537380e-02 -2.738269e-01 1.000000e-01
7.525732e-02 -2.645021e-01 1.000000e-01
1.225780e-01 -2.461699e-01 1.000000e-01
1.657245e-01 -2.194547e-01 1.000000e-01
2.032275e-01 -1.852663e-01 1.000000e-01
2.338097e-01 -1.447688e-01 1.000000e-01
2.564299e-01 -9.934146e-02 1.000000e-01
2.703176e-01 -5.053112e-02 1.000000e-01
2.875000e-01 0.000000e+00 1.500000e-01
2.828798e-01 5.133511e-02 1.500000e-01
2.691675e-01 1.010203e-01 1.500000e-01
2.468040e-01 1.474585e-01 1.500000e-01
2.165080e-01 1.891574e-01 1.500000e-01
1.792533e-01 2.247766e-01 1.500000e-01
1.362372e-01 2.531712e-01 1.500000e-01
8.884239e-02 2.734287e-01 1.500000e-01
3.859206e-02 2.848981e-01 1.500000e-01
-1.289864e-02 2.872105e-01 1.500000e-01
-6.397477e-02 2.802918e-01 1.500000e-01
-1.129947e-01 2.643642e-01 1.500000e-01
-1.583829e-01 2.399398e-01 1.500000e-01
-1.986805e-01 2.078035e-01 1.500000e-01
-2.325924e-01 1.689883e-01 1.500000e-01
-2.590285e-01 1.247416e-01 1.500000e-01
-2.771393e-01 7.648559e-02 1.500000e-01
-2.863426e-01 2.577130e-02 1.500000e-01
-2.863426e-01 -2.577130e-02 1.500000e-01
-2.771393e-01 -7.648559e-02 1.500000e-01
-2.590285e-01 -1.247416e-01 1.500000e-01
-2.325924e-01 -1.689883e-01 1.500000e-01
-1.986805e-01 -2.078035e-01 1.500000e-01
-1.583829e-01 -2.399398e-01 1.500000e-01
-1.129947e-01 -2.643642e-01 1.500000e-01
-6.397477e-02 -2.802918e-01 1.500000e-01
-1.289864e-02 -2.872105e-01 1.500000e-01
3.859206e-02 -2.848981e-01 1.500000e-01
8.884239e-02 -2.734287e-01 1.500000e-01
1.362372e-01 -2.531712e-01 1.500000e-01
1.792533e-01 -2.247766e-01 1.500000e-01
2.165080e-01 -1.891574e-01 1.500000e-01
2.468040e-01 -1.474585e-01 1.500000e-01
2.691675e-01 -1.010203e-01 1.500000e-01
2.828798e-01 -5.133511e-02 1.500000e-01
3.000000e-01 0.000000e+00 2.000000e-01
2.956848e-01 5.070025e-02 2.000000e-01
2.828632e-01 9.994194e-02 2.000000e-01
2.619042e-01 1.463085e-01 2.000000e-01
2.334107e-01 1.884660e-01 2.000000e-01
1.982024e-01 2.252017e-01 2.000000e-01
1.572922e-01 2.554587e-01 2.000000e-01
1.118569e-01 2.783667e-01 2.000000e-01
6.320378e-02 2.932666e-01 2.000000e-01
1.273236e-02 2.997297e-01 2.000000e-01
-3.810535e-02 2.975701e-01 2.000000e-01
-8.784683e-02 2.868500e-01 2.000000e-01
-1.350611e-01 2.678778e-01 2.000000e-01
-1.783900e-01 2.411991e-01 2.000000e-01
-2.165868e-01 2.075817e-01 2.000000e-01
-2.485529e-01 1.679924e-01 2.000000e-01
-2.733685e-01 1.235704e-01 2.000000e-01
-2.903199e-01 7.559342e-02 2.000000e-01
-2.989192e-01 2.544178e-02 2.000000e-01
-2.989192e-01 -2.544178e-02 2.000000e-01
-2.903199e-01 -7.559342e-02 2.000000e-01
-2.733685e-01 -1.235704e-01 2.000000e-01
-2.485529e-01 -1.679924e-01 2.000000e-01
-2.165868e-01 -2.075817e-01 2.000000e-01
-1.783900e-01 -2.411991e-01 2.000000e-01
-1.350611e-01 -2.678778e-01 2.000000e-01
-8.784683e-02 -2.868500e-01 2.000000e-01
-3.810535e-02 -2.975701e-01 2.000000e-01
1.273236e-02 -2.997297e-01 2.000000e-01
6.320378e-02 -2.932666e-01 2.000000e-01
1.118569e-01 -2.783667e-01 2.000000e-01
1.572922e-01 -2.554587e-01 2.000000e-01
1.982024e-01 -2.252017e-01 2.000000e-01
2.334107e-01 -1.884660e-01 2.000000e-01
2.619042e-01 -1.463085e-01 2.000000e-01
2.828632e-01 -9.994194e-02 2.000000e-01
2.956848e-01 -5.070025e-02 2.000000e-01
3.125000e-01 0.000000e+00 2.500000e-01
3.082379e-01 5.143581e-02 2.500000e-01
2.955679e-01 1.014686e-01 2.500000e-01
2.748355e-01 1.487336e-01 2.500000e-01
2.466064e-01 1.919415e-01 2.500000e-01
2.116505e-01 2.299137e-01 2.500000e-01
1.709213e-01 2.616145e-01 2.500000e-01
1.255298e-01 2.861792e-01 2.500000e-01
7.671421e-02 3.029376e-01 2.500000e-01
2.580605e-02 3.114327e-01 2.500000e-01
-2.580605e-02 3.114327e-01 2.500000e-01
-7.671421e-02 3.029376e-01 2.500000e-01
-1.255298e-01 2.861792e-01 2.500000e-01
-1.709213e-01 2.616145e-01 2.500000e-01
-2.116505e-01 2.299137e-01 2.500000e-01
-2.466064e-01 1.919415e-01 2.500000e-01
-2.748355e-01 1.487336e-01 2.500000e-01
-2.955679e-01 1.014686e-01 2.500000e-01
-3.082379e-01 5.143581e-02 2.500000e-01
-3.125000e-01 3.827021e-17 2.500000e-01
-3.082379e-01 -5.143581e-02 2.500000e-01
-2.955679e-01 -1.014686e-01 2.500000e-01
-2.748355e-01 -1.487336e-01 2.500000e-01
-2.466064e-01 -1.919415e-01 2.500000e-01
-2.116505e-01 -2.299137e-01 2.500000e-01
-1.709213e-01 -2.616145e-01 2.500000e-01
-1.255298e-01 -2.861792e-01 2.500000e-01
-7.671421e-02 -3.029376e-01 2.500000e-01
-2.580605e-02 -3.114327e-01 2.500000e-01
2.580605e-02 -3.114327e-01 2.500000e-01
7.671421e-02 -3.029376e-01 2.500000e-01
1.255298e-01 -2.861792e-01 2.500000e-01
1.709213e-01 -2.616145e-01 2.500000e-01
2.116505e-01 -2.299137e-01 2.500000e-01
2.466064e-01 -1.919415e-01 2.500000e-01
2.748355e-01 -1.487336e-01 2.500000e-01
2.955679e-01 -1.014686e-01 2.500000e-01
3.082379e-01 -5.143581e-02 2.500000e-01
3.250000e-01 0.000000e+00 3.000000e-01
3.209987e-01 5.084120e-02 3.000000e-01
3.090934e-01 1.004305e-01 3.000000e-01
2.895771e-01 1.475469e-01 3.000000e-01
2.629305e-01 1.910302e-01 3.000000e-01
2.298097e-01 2.298097e-01 3.000000e-01
1.910302e-01 2.629305e-01 3.000000e-01
1.475469e-01 2.895771e-01 3.000000e-01
1.004305e-01 3.090934e-01 3.000000e-01
5.084120e-02 3.209987e-01 3.000000e-01
1.990051e-17 3.250000e-01 3.000000e-01
-5.084120e-02 3.209987e-01 3.000000e-01
-1.004305e-01 3.090934e-01 3.000000e-01
-1.475469e-01 2.895771e-01 3.000000e-01
-1.910302e-01 2.629305e-01 3.000000e-01
-2.298097e-01 2.298097e-01 3.000000e-01
-2.629305e-01 1.910302e-01 3.000000e-01
-2.895771e-01 1.475469e-01 3.000000e-01
-3.090934e-01 1.004305e-01 3.000000e-01
-3.209987e-01 5.084120e-02 3.000000e-01
-3.250000e-01 3.980102e-17 3.000000e-01
-3.209987e-01 -5.084120e-02 3.000000e-01
-3.090934e-01 -1.004305e-01 3.000000e-01
-2.895771e-01 -1.475469e-01 3.000000e-01
-2.629305e-01 -1.910302e-01 3.000000e-01
-2.298097e-01 -2.298097e-01 3.000000e-01
-1.910302e-01 -2.629305e-01 3.000000e-01
-1.475469e-01 -2.895771e-01 3.000000e-01
-1.004305e-01 -3.090934e-01 3.000000e-01
-5.084120e-02 -3.209987e-01 3.000000e-01
-5.970153e-17 -3.250000e-01 3.000000e-01
5.084120e-02 -3.209987e-01 3.000000e-01
1.004305e-01 -3.090934e-01 3.000000e-01
1.475469e-01 -2.895771e-01 3.000000e-01
1.910302e-01 -2.629305e-01 3.000000e-01
2.298097e-01 -2.298097e-01 3.000000e-01
2.629305e-01 -1.910302e-01 3.000000e-01
2.895771e-01 -1.475469e-01 3.000000e-01
3.090934e-01 -1.004305e-01 3.000000e-01
3.209987e-01 -5.084120e-02 3.000000e-01
3.375000e-01 0.000000e+00 3.500000e-01
3.335446e-01 5.151913e-02 3.500000e-01
3.217713e-01 1.018307e-01 3.500000e-01
3.024559e-01 1.497554e-01 3.500000e-01
2.760512e-01 1.941700e-01 3.500000e-01
2.431760e-01 2.340335e-01 3.500000e-01
2.046011e-01 2.684113e-01 3.500000e-01
1.612304e-01 2.964979e-01 3.500000e-01
1.140807e-01 3.176348e-01 3.500000e-01
6.425700e-02 3.313266e-01 3.500000e-01
1.292717e-02 3.372523e-01 3.500000e-01
-3.870566e-02 3.352732e-01 3.500000e-01
-8.943126e-02 3.254356e-01 3.500000e-01
-1.380607e-01 3.079700e-01 3.500000e-01
-1.834540e-01 2.832858e-01 3.500000e-01
-2.245474e-01 2.519617e-01 3.500000e-01
-2.603776e-01 2.147318e-01 3.500000e-01
-2.901047e-01 1.724688e-01 3.500000e-01
-3.130321e-01 1.261633e-01 3.500000e-01
-3.286222e-01 7.690056e-02 3.500000e-01
-3.365097e-01 2.583537e-02 3.500000e-01
-3.365097e-01 -2.583537e-02 3.500000e-01
-3.286222e-01 -7.690056e-02 3.500000e-01
-3.130321e-01 -1.261633e-01 3.500000e-01
-2.901047e-01 -1.724688e-01 3.500000e-01
-2.603776e-01 -2.147318e-01 3.500000e-01
-2.245474e-01 -2.519617e-01 3.500000e-01
-1.834540e-01 -2.832858e-01 3.500000e-01
-1.380607e-01 -3.079700e-01 3.500000e-01
-8.943126e-02 -3.254356e-01 3.500000e-01
-3.870566e-02 -3.352732e-01 3.500000e-01
1.292717e-02 -3.372523e-01 3.500000e-01
6.425700e-02 -3.313266e-01 3.500000e-01
1.140807e-01 -3.176348e-01 3.500000e-01
1.612304e-01 -2.964979e-01 3.500000e-01
2.046011e-01 -2.684113e-01 3.500000e-01
2.431760e-01 -2.340335e-01 3.500000e-01
2.760512e-01 -1.941700e-01 3.500000e-01
3.024559e-01 -1.497554e-01 3.500000e-01
3.217713e-01 -1.018307e-01 3.500000e-01
3.335446e-01 -5.151913e-02 3.500000e-01
3.500000e-01 0.000000e+00 4.000000e-01
3.462702e-01 5.096041e-02 4.000000e-01
3.351602e-01 1.008347e-01 4.000000e-01
3.169069e-01 1.485598e-01 4.000000e-01
2.918992e-01 1.931187e-01 4.000000e-01
2.606703e-01 2.335616e-01 4.000000e-01
2.238856e-01 2.690265e-01 4.000000e-01
1.823291e-01 2.987576e-01 4.000000e-01
1.368867e-01 3.221212e-01 4.000000e-01
8.852668e-02 3.386193e-01 4.000000e-01
3.827992e-02 3.479003e-01 4.000000e-01
-1.278271e-02 3.497665e-01 4.000000e-01
-6.357290e-02 3.441780e-01 4.000000e-01
-1.130081e-01 3.312539e-01 4.000000e-01
-1.600348e-01 3.112698e-01 4.000000e-01
-2.036506e-01 2.846514e-01 4.000000e-01
-2.429260e-01 2.519662e-01 4.000000e-01
-2.770238e-01 2.139108e-01 4.000000e-01
-3.052173e-01 1.712962e-01 4.000000e-01
-3.269056e-01 1.250308e-01 4.000000e-01
-3.416266e-01 7.610056e-02 4.000000e-01
-3.490663e-01 2.554836e-02 4.000000e-01
-3.490663e-01 -2.554836e-02 4.000000e-01
-3.416266e-01 -7.610056e-02 4.000000e-01
-3.269056e-01 -1.250308e-01 4.000000e-01
-3.052173e-01 -1.712962e-01 4.000000e-01
-2.770238e-01 -2.139108e-01 4.000000e-01
-2.429260e-01 -2.519662e-01 4.000000e-01
-2.036506e-01 -2.846514e-01 4.000000e-01
-1.600348e-01 -3.112698e-01 4.000000e-01
-1.130081e-01 -3.312539e-01 4.000000e-01
-6.357290e-02 -3.441780e-01 4.000000e-01
-1.278271e-02 -3.497665e-01 4.000000e-01
3.827992e-02 -3.479003e-01 4.000000e-01
8.852668e-02 -3.386193e-01 4.000000e-01
1.368867e-01 -3.221212e-01 4.000000e-01
1.823291e-01 -2.987576e-01 4.000000e-01
2.238856e-01 -2.690265e-01 4.000000e-01
2.606703e-01 -2.335616e-01 4.000000e-01
2.918992e-01 -1.931187e-01 4.000000e-01
3.169069e-01 -1.485598e-01 4.000000e-01
3.351602e-01 -1.008347e-01 4.000000e-01
3.462702e-01 -5.096041e-02 4.000000e-01
3.625000e-01 0.000000e+00 4.500000e-01
3.588103e-01 5.158913e-02 4.500000e-01
3.478162e-01 1.021281e-01 4.500000e-01
3.297416e-01 1.505879e-01 4.500000e-01
3.049544e-01 1.959823e-01 4.500000e-01
2.739592e-01 2.373870e-01 4.500000e-01
2.373870e-01 2.739592e-01 4.500000e-01
1.959823e-01 3.049544e-01 4.500000e-01
1.505879e-01 3.297416e-01 4.500000e-01
1.021281e-01 3.478162e-01 4.500000e-01
5.158913e-02 3.588103e-01 4.500000e-01
2.219672e-17 3.625000e-01 4.500000e-01
-5.158913e-02 3.588103e-01 4.500000e-01
-1.021281e-01 3.478162e-01 4.500000e-01
-1.505879e-01 3.297416e-01 4.500000e-01
-1.959823e-01 3.049544e-01 4.500000e-01
-2.373870e-01 2.739592e-01 4.500000e-01
-2.739592e-01 2.373870e-01 4.500000e-01
-3.049544e-01 1.959823e-01 4.500000e-01
-3.297416e-01 1.505879e-01 4.500000e-01
-3.478162e-01 1.021281e-01 4.500000e-01
-3.588103e-01 5.158913e-02 4.500000e-01
-3.625000e-01 4.439345e-17 4.500000e-01
-3.588103e-01 -5.158913e-02 4.500000e-01
-3.478162e-01 -1.021281e-01 4.500000e-01
-3.297416e-01 -1.505879e-01 4.500000e-01
-3.049544e-01 -1.959823e-01 4.500000e-01
-2.739592e-01 -2.373870e-01 4.500000e-01
-2.373870e-01 -2.739592e-01 4.500000e-01
-1.959823e-01 -3.049544e-01 4.500000e-01
-1.505879e-01 -3.297416e-01 4.500000e-01
-1.021281e-01 -3.478162e-01 4.500000e-01
-5.158913e-02 -3.588103e-01 4.500000e-01
-6.659017e-17 -3.625000e-01 4.500000e-01
5.158913e-02 -3.588103e-01 4.500000e-01
1.021281e-01 -3.478162e-01 4.500000e-01
1.505879e-01 -3.297416e-01 4.500000e-01
1.959823e-01 -3.049544e-01 4.500000e-01
2.373870e-01 -2.739592e-01 4.500000e-01
2.739592e-01 -2.373870e-01 4.500000e-01
3.049544e-01 -1.959823e-01 4.500000e-01
3.297416e-01 -1.505879e-01 4.500000e-01
3.478162e-01 -1.021281e-01 4.500000e-01
3.588103e-01 -5.158913e-02 4.500000e-01
3.750000e-01 0.000000e+00 5.000000e-01
3.715072e-01 5.106249e-02 5.000000e-01
3.610940e-01 1.011738e-01 5.000000e-01
3.439542e-01 1.494004e-01 5.000000e-01
3.204073e-01 1.948440e-01 5.000000e-01
2.908917e-01 2.366580e-01 5.000000e-01
2.559574e-01 2.740635e-01 5.000000e-01
2.162551e-01 3.063637e-01 5.000000e-01
1.725244e-01 3.329570e-01 5.000000e-01
1.255799e-01 3.533478e-01 5.000000e-01
7.629600e-02 3.671565e-01 5.000000e-01
2.559091e-02 3.741258e-01 5.000000e-01
-2.559091e-02 3.741258e-01 5.000000e-01
-7.629600e-02 3.671565e-01 5.000000e-01
-1.255799e-01 3.533478e-01 5.000000e-01
-1.725244e-01 3.329570e-01 5.000000e-01
-2.162551e-01 3.063637e-01 5.000000e-01
-2.559574e-01 2.740635e-01 5.000000e-01
-2.908917e-01 2.366580e-01 5.000000e-01
-3.204073e-01 1.948440e-01 5.000000e-01
-3.439542e-01 1.494004e-01 5.000000e-01
-3.610940e-01 1.011738e-01 5.000000e-01
-3.715072e-01 5.106249e-02 5.000000e-01
-3.750000e-01 4.592425e-17 5.000000e-01
-3.715072e-01 -5.106249e-02 5.000000e-01
-3.610940e-01 -1.011738e-01 5.000000e-01
-3.439542e-01 -1.494004e-01 5.000000e-01
-3.204073e-01 -1.948440e-01 5.000000e-01
-2.908917e-01 -2.366580e-01 5.000000e-01
-2.559574e-01 -2.740635e-01 5.000000e-01
-2.162551e-01 -3.063637e-01 5.000000e-01
-1.725244e-01 -3.329570e-01 5.000000e-01
-1.255799e-01 -3.533478e-01 5.000000e-01
-7.629600e-02 -3.671565e-01 5.000000e-01
-2.559091e-02 -3.741258e-01 5.000000e-01
2.559091e-02 -3.741258e-01 5.000000e-01
7.629600e-02 -3.671565e-01 5.000000e-01
1.255799e-01 -3.533478e-01 5.000000e-01
1.725244e-01 -3.329570e-01 5.000000e-01
2.162551e-01 -3.063637e-01 5.000000e-01
2.559574e-01 -2.740635e-01 5.000000e-01
2.908917e-01 -2.366580e-01 5.000000e-01
3.204073e-01 -1.948440e-01 5.000000e-01
3.439542e-01 -1.494004e-01 5.000000e-01
3.610940e-01 -1.011738e-01 5.000000e-01
3.715072e-01 -5.106249e-02 5.000000e-01
3.875000e-01 0.000000e+00 5.500000e-01
3.841849e-01 5.057890e-02 5.500000e-01
3.742963e-01 1.002924e-01 5.500000e-01
3.580033e-01 1.482898e-01 5.500000e-01
3.355848e-01 1.937500e-01 5.500000e-01
3.074244e-01 2.358951e-01 5.500000e-01
2.740039e-01 2.740039e-01 5.500000e-01
2.358951e-01 3.074244e-01 5.500000e-01
1.937500e-01 3.355848e-01 5.500000e-01
1.482898e-01 3.580033e-01 5.500000e-01
1.002924e-01 3.742963e-01 5.500000e-01
5.057890e-02 3.841849e-01 5.500000e-01
2.372753e-17 3.875000e-01 5.500000e-01
-5.057890e-02 3.841849e-01 5.500000e-01
-1.002924e-01 3.742963e-01 5.500000e-01
-1.482898e-01 3.580033e-01 5.500000e-01
-1.937500e-01 3.355848e-01 5.500000e-01
-2.358951e-01 3.074244e-01 5.500000e-01
-2.740039e-01 2.740039e-01 5.500000e-01
-3.074244e-01 2.358951e-01 5.500000e-01
-3.355848e-01 1.937500e-01 5.500000e-01
-3.580033e-01 1.482898e-01 5.500000e-01
-3.742963e-01 1.002924e-01 5.500000e-01
-3.841849e-01 5.057890e-02 5.500000e-01
-3.875000e-01 4.745506e-17 5.500000e-01
-3.841849e-01 -5.057890e-02 5.500000e-01
-3.742963e-01 -1.002924e-01 5.500000e-01
-3.580033e-01 -1.482898e-01 5.500000e-01
-3.355848e-01 -1.937500e-01 5.500000e-01
-3.074244e-01 -2.358951e-01 5.500000e-01
-2.740039e-01 -2.740039e-01 5.500000e-01
-2.358951e-01 -3.074244e-01 5.500000e-01
-1.937500e-01 -3.355848e-01 5.500000e-01
-1.482898e-01 -3.580033e-01 5.500000e-01
-1.002924e-01 -3.742963e-01 5.500000e-01
-5.057890e-02 -3.841849e-01 5.500000e-01
-7.118260e-17 -3.875000e-01 5.500000e-01
5.057890e-02 -3.841849e-01 5.500000e-01
1.002924e-01 -3.742963e-01 5.500000e-01
1.482898e-01 -3.580033e-01 5.500000e-01
1.937500e-01 -3.355848e-01 5.500000e-01
2.358951e-01 -3.074244e-01 5.500000e-01
2.740039e-01 -2.740039e-01 5.500000e-01
3.074244e-01 -2.358951e-01 5.500000e-01
3.355848e-01 -1.937500e-01 5.500000e-01
3.580033e-01 -1.482898e-01 5.500000e-01
3.742963e-01 -1.002924e-01 5.500000e-01
3.841849e-01 -5.057890e-02 5.500000e-01
4.000000e-01 0.000000e+00 6.000000e-01
3.967160e-01 5.115086e-02 6.000000e-01
3.869179e-01 1.014618e-01 6.000000e-01
3.707667e-01 1.501068e-01 6.000000e-01
3.485275e-01 1.962870e-01 6.000000e-01
3.205654e-01 2.392442e-01 6.000000e-01
2.873397e-01 2.782730e-01 6.000000e-01
2.493959e-01 3.127326e-01 6.000000e-01
2.073570e-01 3.420571e-01 6.000000e-01
1.619133e-01 3.657650e-01 6.000000e-01
1.138110e-01 3.834671e-01 6.000000e-01
6.383996e-02 3.948727e-01 6.000000e-01
1.282063e-02 3.997945e-01 6.000000e-01
-3.840921e-02 3.981516e-01 6.000000e-01
-8.900837e-02 3.899712e-01 6.000000e-01
-1.381460e-01 3.753874e-01 6.000000e-01
-1.850153e-01 3.546397e-01 6.000000e-01
-2.288467e-01 3.280689e-01 6.000000e-01
-2.689204e-01 2.961112e-01 6.000000e-01
-3.045784e-01 2.592914e-01 6.000000e-01
-3.352352e-01 2.182140e-01 6.000000e-01
-3.603875e-01 1.735535e-01 6.000000e-01
-3.796223e-01 1.260433e-01 6.000000e-01
-3.926237e-01 7.646345e-02 6.000000e-01
-3.991782e-01 2.562809e-02 6.000000e-01
-3.991782e-01 -2.562809e-02 6.000000e-01
-3.926237e-01 -7.646345e-02 6.000000e-01
-3.796223e-01 -1.260433e-01 6.000000e-01
-3.603875e-01 -1.735535e-01 6.000000e-01
-3.352352e-01 -2.182140e-01 6.000000e-01
-3.045784e-01 -2.592914e-01 6.000000e-01
-2.689204e-01 -2.961112e-01 6.000000e-01
-2.288467e-01 -3.280689e-01 6.000000e-01
-1.850153e-01 -3.546397e-01 6.000000e-01
-1.381460e-01 -3.753874e-01 6.000000e-01
-8.900837e-02 -3.899712e-01 6.000000e-01
-3.840921e-02 -3.981516e-01 6.000000e-01
1.282063e-02 -3.997945e-01 6.000000e-01
6.383996e-02 -3.948727e-01 6.000000e-01
1.138110e-01 -3.834671e-01 6.000000e-01
1.619133e-01 -3.657650e-01 6.000000e-01
2.073570e-01 -3.420571e-01 6.000000e-01
2.493959e-01 -3.127326e-01 6.000000e-01
2.873397e-01 -2.782730e-01 6.000000e-01
3.205654e-01 -2.392442e-01 6.000000e-01
3.485275e-01 -1.962870e-01 6.000000e-01
3.707667e-01 -1.501068e-01 6.000000e-01
3.869179e-01 -1.014618e-01 6.000000e-01
3.967160e-01 -5.115086e-02 6.000000e-01
4.125000e-01 0.000000e+00 6.500000e-01
4.093735e-01 5.069142e-02 6.500000e-01
4.000412e-01 1.006144e-01 6.500000e-01
3.846448e-01 1.490122e-01 6.500000e-01
3.634175e-01 1.951511e-01 6.500000e-01
3.366812e-01 2.383317e-01 6.500000e-01
3.048412e-01 2.778995e-01 6.500000e-01
2.683800e-01 3.132545e-01 6.500000e-01
2.278506e-01 3.438610e-01 6.500000e-01
1.838671e-01 3.692549e-01 6.500000e-01
1.370964e-01 3.890512e-01 6.500000e-01
8.824740e-02 4.029499e-01 6.500000e-01
3.806070e-02 4.107403e-01 6.500000e-01
-1.270296e-02 4.123044e-01 6.500000e-01
-6.327406e-02 4.076183e-01 6.500000e-01
-1.128860e-01 3.967531e-01 6.500000e-01
-1.607867e-01 3.798735e-01 6.500000e-01
-2.062500e-01 3.572355e-01 6.500000e-01
-2.485868e-01 3.291821e-01 6.500000e-01
-2.871553e-01 2.961387e-01 6.500000e-01
-3.213707e-01 2.586061e-01 6.500000e-01
-3.507146e-01 2.171533e-01 6.500000e-01
-3.747419e-01 1.724086e-01 6.500000e-01
-3.930886e-01 1.250505e-01 6.500000e-01
-4.054764e-01 7.579668e-02 6.500000e-01
-4.117176e-01 2.539387e-02 6.500000e-01
-4.117176e-01 -2.539387e-02 6.500000e-01
-4.054764e-01 -7.579668e-02 6.500000e-01
-3.930886e-01 -1.250505e-01 6.500000e-01
-3.747419e-01 -1.724086e-01 6.500000e-01
-3.507146e-01 -2.171533e-01 6.500000e-01
-3.213707e-01 -2.586061e-01 6.500000e-01
-2.871553e-01 -2.961387e-01 6.500000e-01
-2.485868e-01 -3.291821e-01 6.500000e-01
-2.062500e-01 -3.572355e-01 6.500000e-01
-1.607867e-01 -3.798735e-01 6.500000e-01
-1.128860e-01 -3.967531e-01 6.500000e-01
-6.327406e-02 -4.076183e-01 6.500000e-01
-1.270296e-02 -4.123044e-01 6.500000e-01
3.806070e-02 -4.107403e-01 6.500000e-01
8.824740e-02 -4.029499e-01 6.500000e-01
1.370964e-01 -3.890512e-01 6.500000e-01
1.838671e-01 -3.692549e-01 6.500000e-01
2.278506e-01 -3.438610e-01 6.500000e-01
2.683800e-01 -3.132545e-01 6.500000e-01
3.048412e-01 -2.778995e-01 6.500000e-01
3.366812e-01 -2.383317e-01 6.500000e-01
3.634175e-01 -1.951511e-01 6.500000e-01
3.846448e-01 -1.490122e-01 6.500000e-01
4.000412e-01 -1.006144e-01 6.500000e-01
4.093735e-01 -5.069142e-02 6.500000e-01
4.250000e-01 0.000000e+00 7.000000e-01
4.219013e-01 5.122809e-02 7.000000e-01
4.126503e-01 1.017092e-01 7.000000e-01
3.973819e-01 1.507071e-01 7.000000e-01
3.763188e-01 1.975073e-01 7.000000e-01
3.497681e-01 2.414275e-01 7.000000e-01
3.181171e-01 2.818271e-01 7.000000e-01
2.818271e-01 3.181171e-01 7.000000e-01
2.414275e-01 3.497681e-01 7.000000e-01
1.975073e-01 3.763188e-01 7.000000e-01
1.507071e-01 3.973819e-01 7.000000e-01
1.017092e-01 4.126503e-01 7.000000e-01
5.122809e-02 4.219013e-01 7.000000e-01
2.602374e-17 4.250000e-01 7.000000e-01
-5.122809e-02 4.219013e-01 7.000000e-01
-1.017092e-01 4.126503e-01 7.000000e-01
-1.507071e-01 3.973819e-01 7.000000e-01
-1.975073e-01 3.763188e-01 7.000000e-01
-2.414275e-01 3.497681e-01 7.000000e-01
-2.818271e-01 3.181171e-01 7.000000e-01
-3.181171e-01 2.818271e-01 7.000000e-01
-3.497681e-01 2.414275e-01 7.000000e-01
-3.763188e-01 1.975073e-01 7.000000e-01
-3.973819e-01 1.507071e-01 7.000000e-01
-4.126503e-01 1.017092e-01 7.000000e-01
-4.219013e-01 5.122809e-02 7.000000e-01
-4.250000e-01 5.204749e-17 7.000000e-01
-4.219013e-01 -5.122809e-02 7.000000e-01
-4.126503e-01 -1.017092e-01 7.000000e-01
-3.973819e-01 -1.507071e-01 7.000000e-01
-3.763188e-01 -1.975073e-01 7.000000e-01
-3.497681e-01 -2.414275e-01 7.000000e-01
-3.181171e-01 -2.818271e-01 7.000000e-01
-2.818271e-01 -3.181171e-01 7.000000e-01
-2.414275e-01 -3.497681e-01 7.000000e-01
-1.975073e-01 -3.763188e-01 7.000000e-01
-1.507071e-01 -3.973819e-01 7.000000e-01
-1.017092e-01 -4.126503e-01 7.000000e-01
-5.122809e-02 -4.219013e-01 7.000000e-01
-7.807123e-17 -4.250000e-01 7.000000e-01
5.122809e-02 -4.219013e-01 7.000000e-01
1.017092e-01 -4.126503e-01 7.000000e-01
1.507071e-01 -3.973819e-01 7.000000e-01
1.975073e-01 -3.763188e-01 7.000000e-01
2.414275e-01 -3.497681e-01 7.000000e-01
2.818271e-01 -3.181171e-01 7.000000e-01
3.181171e-01 -2.818271e-01 7.000000e-01
3.497681e-01 -2.414275e-01 7.000000e-01
3.763188e-01 -1.975073e-01 7.000000e-01
3.973819e-01 -1.507071e-01 7.000000e-01
4.126503e-01 -1.017092e-01 7.000000e-01
4.219013e-01 -5.122809e-02 7.000000e-01
4.375000e-01 0.000000e+00 7.500000e-01
4.345418e-01 5.079065e-02 7.500000e-01
4.257071e-01 1.008944e-01 7.500000e-01
4.111155e-01 1.496338e-01 7.500000e-01
3.909643e-01 1.963496e-01 7.500000e-01
3.655259e-01 2.404102e-01 7.500000e-01
3.351444e-01 2.812196e-01 7.500000e-01
3.002307e-01 3.182260e-01 7.500000e-01
2.612569e-01 3.509289e-01 7.500000e-01
2.187500e-01 3.788861e-01 7.500000e-01
1.732849e-01 4.017195e-01 7.500000e-01
1.254764e-01 4.191204e-01 7.500000e-01
7.597108e-02 4.308534e-01 7.500000e-01
2.543836e-02 4.367598e-01 7.500000e-01
-2.543836e-02 4.367598e-01 7.500000e-01
-7.597108e-02 4.308534e-01 7.500000e-01
-1.254764e-01 4.191204e-01 7.500000e-01
-1.732849e-01 4.017195e-01 7.500000e-01
-2.187500e-01 3.788861e-01 7.500000e-01
-2.612569e-01 3.509289e-01 7.500000e-01
-3.002307e-01 3.182260e-01 7.500000e-01
-3.351444e-01 2.812196e-01 7.500000e-01
-3.655259e-01 2.404102e-01 7.500000e-01
-3.909643e-01 1.963496e-01 7.500000e-01
-4.111155e-01 1.496338e-01 7.500000e-01
-4.257071e-01 1.008944e-01 7.500000e-01
-4.345418e-01 5.079065e-02 7.500000e-01
-4.375000e-01 5.357830e-17 7.500000e-01
-4.345418e-01 -5.079065e-02 7.500000e-01
-4.257071e-01 -1.008944e-01 7.500000e-01
-4.111155e-01 -1.496338e-01 7.500000e-01
-3.909643e-01 -1.963496e-01 7.500000e-01
-3.655259e-01 -2.404102e-01 7.500000e-01
-3.351444e-01 -2.812196e-01 7.500000e-01
-3.002307e-01 -3.182260e-01 7.500000e-01
-2.612569e-01 -3.509289e-01 7.500000e-01
-2.187500e-01 -3.788861e-01 7.500000e-01
-1.732849e-01 -4.017195e-01 7.500000e-01
-1.254764e-01 -4.191204e-01 7.500000e-01
-7.597108e-02 -4.308534e-01 7.500000e-01
-2.543836e-02 -4.367598e-01 7.500000e-01
2.543836e-02 -4.367598e-01 7.500000e-01
7.597108e-02 -4.308534e-01 7.500000e-01
1.254764e-01 -4.191204e-01 7.500000e-01
1.732849e-01 -4.017195e-01 7.500000e-01
2.187500e-01 -3.788861e-01 7.500000e-01
2.612569e-01 -3.509289e-01 7.500000e-01
3.002307e-01 -3.182260e-01 7.500000e-01
3.351444e-01 -2.812196e-01 7.500000e-01
3.655259e-01 -2.404102e-01 7.500000e-01
3.909643e-01 -1.963496e-01 7.500000e-01
4.111155e-01 -1.496338e-01 7.500000e-01
4.257071e-01 -1.008944e-01 7.500000e-01
4.345418e-01 -5.079065e-02 7.500000e-01
4.500000e-01 0.000000e+00 8.000000e-01
4.470668e-01 5.129613e-02 8.000000e-01
4.383054e-01 1.019235e-01 8.000000e-01
4.238300e-01 1.512222e-01 8.000000e-01
4.038293e-01 1.985495e-01 8.000000e-01
3.785641e-01 2.432884e-01 8.000000e-01
3.483637e-01 2.848556e-01 8.000000e-01
3.136219e-01 3.227093e-01 8.000000e-01
2.747915e-01 3.563560e-01 8.000000e-01
2.323789e-01 3.853571e-01 8.000000e-01
1.869368e-01 4.093344e-01 8.000000e-01
1.390576e-01 4.279754e-01 8.000000e-01
8.936571e-02 4.410372e-01 8.000000e-01
3.850875e-02 4.483493e-01 8.000000e-01
-1.285022e-02 4.498165e-01 8.000000e-01
-6.404168e-02 4.454196e-01 8.000000e-01
-1.143983e-01 4.352161e-01 8.000000e-01
-1.632635e-01 4.193388e-01 8.000000e-01
-2.100003e-01 3.979948e-01 8.000000e-01
-2.539994e-01 3.714624e-01 8.000000e-01
-2.946873e-01 3.400873e-01 8.000000e-01
-3.315335e-01 3.042787e-01 8.000000e-01
-3.640576e-01 2.645034e-01 8.000000e-01
-3.918357e-01 2.212798e-01 8.000000e-01
-4.145056e-01 1.751715e-01 8.000000e-01
-4.317718e-01 1.267797e-01 8.000000e-01
-4.434092e-01 7.673499e-02 8.000000e-01
-4.492661e-01 2.568996e-02 8.000000e-01
-4.492661e-01 -2.568996e-02 8.000000e-01
-4.434092e-01 -7.673499e-02 8.000000e-01
-4.317718e-01 -1.267797e-01 8.000000e-01
-4.145056e-01 -1.751715e-01 8.000000e-01
-3.918357e-01 -2.212798e-01 8.000000e-01
-3.640576e-01 -2.645034e-01 8.000000e-01
-3.315335e-01 -3.042787e-01 8.000000e-01
-2.946873e-01 -3.400873e-01 8.000000e-01
-2.539994e-01 -3.714624e-01 8.000000e-01
-2.100003e-01 -3.979948e-01 8.000000e-01
-1.632635e-01 -4.193388e-01 8.000000e-01
-1.143983e-01 -4.352161e-01 8.000000e-01
-6.404168e-02 -4.454196e-01 8.000000e-01
-1.285022e-02 -4.498165e-01 8.000000e-01
3.850875e-02 -4.483493e-01 8.000000e-01
8.936571e-02 -4.410372e-01 8.000000e-01
1.390576e-01 -4.279754e-01 8.000000e-01
1.869368e-01 -4.093344e-01 8.000000e-01
2.323789e-01 -3.853571e-01 8.000000e-01
2.747915e-01 -3.563560e-01 8.000000e-01
3.136219e-01 -3.227093e-01 8.000000e-01
3.483637e-01 -2.848556e-01 8.000000e-01
3.785641e-01 -2.432884e-01 8.000000e-01
4.038293e-01 -1.985495e-01 8.000000e-01
4.238300e-01 -1.512222e-01 8.000000e-01
4.383054e-01 -1.019235e-01 8.000000e-01
4.470668e-01 -5.129613e-02 8.000000e-01
4.625000e-01 0.000000e+00 8.500000e-01
4.596929e-01 5.087880e-02 8.500000e-01
4.513058e-01 1.011400e-01 8.500000e-01
4.374405e-01 1.501735e-01 8.500000e-01
4.182652e-01 1.973841e-01 8.500000e-01
3.940127e-01 2.421987e-01 8.500000e-01
3.649775e-01 2.840734e-01 8.500000e-01
3.315119e-01 3.224998e-01 8.500000e-01
2.940222e-01 3.570115e-01 8.500000e-01
2.529635e-01 3.871895e-01 8.500000e-01
2.088342e-01 4.126676e-01 8.500000e-01
1.621699e-01 4.331364e-01 8.500000e-01
1.135370e-01 4.483476e-01 8.500000e-01
6.352602e-02 4.581165e-01 8.500000e-01
1.274388e-02 4.623244e-01 8.500000e-01
-3.819295e-02 4.609203e-01 8.500000e-01
-8.866617e-02 4.539213e-01 8.500000e-01
-1.380631e-01 4.414123e-01 8.500000e-01
-1.857841e-01 4.235452e-01 8.500000e-01
-2.312500e-01 4.005367e-01 8.500000e-01
-2.739088e-01 3.726664e-01 8.500000e-01
-3.132427e-01 3.402723e-01 8.500000e-01
-3.487743e-01 3.037478e-01 8.500000e-01
-3.800722e-01 2.635362e-01 8.500000e-01
-4.067566e-01 2.201257e-01 8.500000e-01
-4.285035e-01 1.740431e-01 8.500000e-01
-4.450490e-01 1.258479e-01 8.500000e-01
-4.561921e-01 7.612500e-02 8.500000e-01
-4.617977e-01 2.547809e-02 8.500000e-01
-4.617977e-01 -2.547809e-02 8.500000e-01
-4.561921e-01 -7.612500e-02 8.500000e-01
-4.450490e-01 -1.258479e-01 8.500000e-01
-4.285035e-01 -1.740431e-01 8.500000e-01
-4.067566e-01 -2.201257e-01 8.500000e-01
-3.800722e-01 -2.635362e-01 8.500000e-01
-3.487743e-01 -3.037478e-01 8.500000e-01
-3.132427e-01 -3.402723e-01 8.500000e-01
-2.739088e-01 -3.726664e-01 8.500000e-01
-2.312500e-01 -4.005367e-01 8.500000e-01
-1.857841e-01 -4.235452e-01 8.500000e-01
-1.380631e-01 -4.414123e-01 8.500000e-01
-8.866617e-02 -4.539213e-01 8.500000e-01
-3.819295e-02 -4.609203e-01 8.500000e-01
1.274388e-02 -4.623244e-01 8.500000e-01
6.352602e-02 -4.581165e-01 8.500000e-01
1.135370e-01 -4.483476e-01 8.500000e-01
1.621699e-01 -4.331364e-01 8.500000e-01
2.088342e-01 -4.126676e-01 8.500000e-01
2.529635e-01 -3.871895e-01 8.500000e-01
2.940222e-01 -3.570115e-01 8.500000e-01
3.315119e-01 -3.224998e-01 8.500000e-01
3.649775e-01 -2.840734e-01 8.500000e-01
3.940127e-01 -2.421987e-01 8.500000e-01
4.182652e-01 -1.973841e-01 8.500000e-01
4.374405e-01 -1.501735e-01 8.500000e-01
4.513058e-01 -1.011400e-01 8.500000e-01
4.596929e-01 -5.087880e-02 8.500000e-01
4.750000e-01 0.000000e+00 9.000000e-01
4.722155e-01 5.135653e-02 9.000000e-01
4.638948e-01 1.021110e-01 9.000000e-01
4.501353e-01 1.516682e-01 9.000000e-01
4.310983e-01 1.994473e-01 9.000000e-01
4.070072e-01 2.448881e-01 9.000000e-01
3.781442e-01 2.874578e-01 9.000000e-01
3.448479e-01 3.266572e-01 9.000000e-01
3.075085e-01 3.620270e-01 9.000000e-01
2.665639e-01 3.931523e-01 9.000000e-01
2.224940e-01 4.196682e-01 9.000000e-01
1.758156e-01 4.412639e-01 9.000000e-01
1.270760e-01 4.576862e-01 9.000000e-01
7.684645e-02 4.687426e-01 9.000000e-01
2.571598e-02 4.743034e-01 9.000000e-01
-2.571598e-02 4.743034e-01 9.000000e-01
-7.684645e-02 4.687426e-01 9.000000e-01
-1.270760e-01 4.576862e-01 9.000000e-01
-1.758156e-01 4.412639e-01 9.000000e-01
-2.224940e-01 4.196682e-01 9.000000e-01
-2.665639e-01 3.931523e-01 9.000000e-01
-3.075085e-01 3.620270e-01 9.000000e-01
-3.448479e-01 3.266572e-01 9.000000e-01
-3.781442e-01 2.874578e-01 9.000000e-01
-4.070072e-01 2.448881e-01 9.000000e-01
-4.310983e-01 1.994473e-01 9.000000e-01
-4.501353e-01 1.516682e-01 9.000000e-01
-4.638948e-01 1.021110e-01 9.000000e-01
-4.722155e-01 5.135653e-02 9.000000e-01
-4.750000e-01 5.817072e-17 9.000000e-01
-4.722155e-01 -5.135653e-02 9.000000e-01
-4.638948e-01 -1.021110e-01 9.000000e-01
-4.501353e-01 -1.516682e-01 9.000000e-01
-4.310983e-01 -1.994473e-01 9.000000e-01
-4.070072e-01 -2.448881e-01 9.000000e-01
-3.781442e-01 -2.874578e-01 9.000000e-01
-3.448479e-01 -3.266572e-01 9.000000e-01
-3.075085e-01 -3.620270e-01 9.000000e-01
-2.665639e-01 -3.931523e-01 9.000000e-01
-2.224940e-01 -4.196682e-01 9.000000e-01
-1.758156e-01 -4.412639e-01 9.000000e-01
-1.270760e-01 -4.576862e-01 9.000000e-01
-7.684645e-02 -4.687426e-01 9.000000e-01
-2.571598e-02 -4.743034e-01 9.000000e-01
2.571598e-02 -4.743034e-01 9.000000e-01
7.684645e-02 -4.687426e-01 9.000000e-01
1.270760e-01 -4.576862e-01 9.000000e-01
1.758156e-01 -4.412639e-01 9.000000e-01
2.224940e-01 -4.196682e-01 9.000000e-01
2.665639e-01 -3.931523e-01 9.000000e-01
3.075085e-01 -3.620270e-01 9.000000e-01
3.448479e-01 -3.266572e-01 9.000000e-01
3.781442e-01 -2.874578e-01 9.000000e-01
4.070072e-01 -2.448881e-01 9.000000e-01
4.310983e-01 -1.994473e-01 9.000000e-01
4.501353e-01 -1.516682e-01 9.000000e-01
4.638948e-01 -1.021110e-01 9.000000e-01
4.722155e-01 -5.135653e-02 9.000000e-01
4.875000e-01 0.000000e+00 9.500000e-01
4.848294e-01 5.095763e-02 9.500000e-01
4.768470e-01 1.013569e-01 9.500000e-01
4.636401e-01 1.506458e-01 9.500000e-01
4.453534e-01 1.982841e-01 9.500000e-01
4.221874e-01 2.437500e-01 9.500000e-01
3.943958e-01 2.865453e-01 9.500000e-01
3.622831e-01 3.262012e-01 9.500000e-01
3.262012e-01 3.622831e-01 9.500000e-01
2.865453e-01 3.943958e-01 9.500000e-01
2.437500e-01 4.221874e-01 9.500000e-01
1.982841e-01 4.453534e-01 9.500000e-01
1.506458e-01 4.636401e-01 9.500000e-01
1.013569e-01 4.768470e-01 9.500000e-01
5.095763e-02 4.848294e-01 9.500000e-01
2.985077e-17 4.875000e-01 9.500000e-01
-5.095763e-02 4.848294e-01 9.500000e-01
-1.013569e-01 4.768470e-01 9.500000e-01
-1.506458e-01 4.636401e-01 9.500000e-01
-1.982841e-01 4.453534e-01 9.500000e-01
-2.437500e-01 4.221874e-01 9.500000e-01
-2.865453e-01 3.943958e-01 9.500000e-01
-3.262012e-01 3.622831e-01 9.500000e-01
-3.622831e-01 3.262012e-01 9.500000e-01
-3.943958e-01 2.865453e-01 9.500000e-01
-4.221874e-01 2.437500e-01 9.500000e-01
-4.453534e-01 1.982841e-01 9.500000e-01
-4.636401e-01 1.506458e-01 9.500000e-01
-4.768470e-01 1.013569e-01 9.500000e-01
-4.848294e-01 5.095763e-02 9.500000e-01
-4.875000e-01 5.970153e-17 9.500000e-01
-4.848294e-01 -5.095763e-02 9.500000e-01
-4.768470e-01 -1.013569e-01 9.500000e-01
-4.636401e-01 -1.506458e-01 9.500000e-01
-4.453534e-01 -1.982841e-01 9.500000e-01
-4.221874e-01 -2.437500e-01 9.500000e-01
-3.943958e-01 -2.865453e-01 9.500000e-01
-3.622831e-01 -3.262012e-01 9.500000e-01
-3.262012e-01 -3.622831e-01 9.500000e-01
-2.865453e-01 -3.943958e-01 9.500000e-01
-2.437500e-01 -4.221874e-01 9.500000e-01
-1.982841e-01 -4.453534e-01 9.500000e-01
-1.506458e-01 -4.636401e-01 9.500000e-01
-1.013569e-01 -4.768470e-01 9.500000e-01
-5.095763e-02 -4.848294e-01 9.500000e-01
-8.955230e-17 -4.875000e-01 9.500000e-01
5.095763e-02 -4.848294e-01 9.500000e-01
1.013569e-01 -4.768470e-01 9.500000e-01
1.506458e-01 -4.636401e-01 9.500000e-01
1.982841e-01 -4.453534e-01 9.500000e-01
2.437500e-01 -4.221874e-01 9.500000e-01
2.865453e-01 -3.943958e-01 9.500000e-01
3.262012e-01 -3.622831e-01 9.500000e-01
3.622831e-01 -3.262012e-01 9.500000e-01
3.943958e-01 -2.865453e-01 9.500000e-01
4.221874e-01 -2.437500e-01 9.500000e-01
4.453534e-01 -1.982841e-01 9.500000e-01
4.636401e-01 -1.506458e-01 9.500000e-01
4.768470e-01 -1.013569e-01 9.500000e-01
4.848294e-01 -5.095763e-02 9.500000e-01
5.000000e-01 0.000000e+00 1.000000e+00
4.974347e-01 5.058416e-02 1.000000e+00
4.897650e-01 1.006493e-01 1.000000e+00
4.770696e-01 1.496816e-01 1.000000e+00
4.594789e-01 1.971779e-01 1.000000e+00
4.371733e-01 2.426510e-01 1.000000e+00
4.103817e-01 2.856341e-01 1.000000e+00
3.793791e-01 3.256862e-01 1.000000e+00
3.444835e-01 3.623964e-01 1.000000e+00
3.060530e-01 3.953879e-01 1.000000e+00
2.644820e-01 4.243221e-01 1.000000e+00
2.201971e-01 4.489023e-01 1.000000e+00
1.736526e-01 4.688761e-01 1.000000e+00
1.253263e-01 4.840386e-01 1.000000e+00
7.571389e-02 4.942342e-01 1.000000e+00
2.532458e-02 4.993583e-01 1.000000e+00
-2.532458e-02 4.993583e-01 1.000000e+00
-7.571389e-02 4.942342e-01 1.000000e+00
-1.253263e-01 4.840386e-01 1.000000e+00
-1.736526e-01 4.688761e-01 1.000000e+00
-2.201971e-01 4.489023e-01 1.000000e+00
-2.644820e-01 4.243221e-01 1.000000e+00
-3.060530e-01 3.953879e-01 1.000000e+00
-3.444835e-01 3.623964e-01 1.000000e+00
-3.793791e-01 3.256862e-01 1.000000e+00
-4.103817e-01 2.856341e-01 1.000000e+00
-4.371733e-01 2.426510e-01 1.000000e+00
-4.594789e-01 1.971779e-01 1.000000e+00
-4.770696e-01 1.496816e-01 1.000000e+00
-4.897650e-01 1.006493e-01 1.000000e+00
-4.974347e-01 5.058416e-02 1.000000e+00
-5.000000e-01 6.123234e-17 1.000000e+00
-4.974347e-01 -5.058416e-02 1.000000e+00
-4.897650e-01 -1.006493e-01 1.000000e+00
-4.770696e-01 -1.496816e-01 1.000000e+00
-4.594789e-01 -1.971779e-01 1.000000e+00
-4.371733e-01 -2.426510e-01 1.000000e+00
-4.103817e-01 -2.856341e-01 1.000000e+00
-3.793791e-01 -3.256862e-01 1.000000e+00
-3.444835e-01 -3.623964e-01 1.000000e+00
-3.060530e-01 -3.953879e-01 1.000000e+00
-2.644820e-01 -4.243221e-01 1.000000e+00
-2.201971e-01 -4.489023e-01 1.000000e+00
-1.736526e-01 -4.688761e-01 1.000000e+00
-1.253263e-01 -4.840386e-01 1.000000e+00
-7.571389e-02 -4.942342e-01 1.000000e+00
-2.532458e-02 -4.993583e-01 1.000000e+00
2.532458e-02 -4.993583e-01 1.000000e+00
7.571389e-02 -4.942342e-01 1.000000e+00
1.253263e-01 -4.840386e-01 1.000000e+00
1.736526e-01 -4.688761e-01 1.000000e+00
2.201971e-01 -4.489023e-01 1.000000e+00
2.644820e-01 -4.243221e-01 1.000000e+00
3.060530e-01 -3.953879e-01 1.000000e+00
3.444835e-01 -3.623964e-01 1.000000e+00
3.793791e-01 -3.256862e-01 1.000000e+00
4.103817e-01 -2.856341e-01 1.000000e+00
4.371733e-01 -2.426510e-01 1.000000e+00
4.594789e-01 -1.971779e-01 1.000000e+00
4.770696e-01 -1.496816e-01 1.000000e+00
4.897650e-01 -1.006493e-01 1.000000e+00
4.974347e-01 -5.058416e-02 1.000000e+00
5.000000e-01 0.000000e+00 1.050000e+00
4.974347e-01 5.058416e-02 1.050000e+00
4.897650e-01 1.006493e-01 1.050000e+00
4.770696e-01 1.496816e-01 1.050000e+00
4.594789e-01 1.971779e-01 1.050000e+00
4.371733e-01 2.426510e-01 1.050000e+00
4.103817e-01 2.856341e-01 1.050000e+00
3.793791e-01 3.256862e-01 1.050000e+00
3.444835e-01 3.623964e-01 1.050000e+00
3.060530e-01 3.953879e-01 1.050000e+00
2.644820e-01 4.243221e-01 1.050000e+00
2.201971e-01 4.489023e-01 1.050000e+00
1.736526e-01 4.688761e-01 1.050000e+00
1.253263e-01 4.840386e-01 1.050000e+00
7.571389e-02 4.942342e-01 1.050000e+00
2.532458e-02 4.993583e-01 1.050000e+00
-2.532458e-02 4.993583e-01 1.050000e+00
-7.571389e-02 4.942342e-01 1.050000e+00
-1.253263e-01 4.840386e-01 1.050000e+00
-1.736526e-01 4.688761e-01 1.050000e+00
-2.201971e-01 4.489023e-01 1.050000e+00
-2.644820e-01 4.243221e-01 1.050000e+00
-3.060530e-01 3.953879e-01 1.050000e+00
-3.444835e-01 3.623964e-01 1.050000e+00
-3.793791e-01 3.256862e-01 1.050000e+00
-4.103817e-01 2.856341e-01 1.050000e+00
-4.371733e-01 2.426510e-01 1.050000e+00
-4.594789e-01 1.971779e-01 1.050000e+00
-4.770696e-01 1.496816e-01 1.050000e+00
-4.897650e-01 1.006493e-01 1.050000e+00
-4.974347e-01 5.058416e-02 1.050000e+00
-5.000000e-01 6.123234e-17 1.050000e+00
-4.974347e-01 -5.058416e-02 1.050000e+00
-4.897650e-01 -1.006493e-01 1.050000e+00
-4.770696e-01 -1.496816e-01 1.050000e+00
-4.594789e-01 -1.971779e-01 1.050000e+00
-4.371733e-01 -2.426510e-01 1.050000e+00
-4.103817e-01 -2.856341e-01 1.050000e+00
-3.793791e-01 -3.256862e-01 1.050000e+00
-3.444835e-01 -3.623964e-01 1.050000e+00
-3.060530e-01 -3.953879e-01 1.050000e+00
-2.644820e-01 -4.243221e-01 1.050000e+00
-2.201971e-01 -4.489023e-01 1.050000e+00
-1.736526e-01 -4.688761e-01 1.050000e+00
-1.253263e-01 -4.840386e-01 1.050000e+00
-7.571389e-02 -4.942342e-01 1.050000e+00
-2.532458e-02 -4.993583e-01 1.050000e+00
2.532458e-02 -4.993583e-01 1.050000e+00
7.571389e-02 -4.942342e-01 1.050000e+00
1.253263e-01 -4.840386e-01 1.050000e+00
1.736526e-01 -4.688761e-01 1.050000e+00
2.201971e-01 -4.489023e-01 1.050000e+00
2.644820e-01 -4.243221e-01 1.050000e+00
3.060530e-01 -3.953879e-01 1.050000e+00
3.444835e-01 -3.623964e-01 1.050000e+00
3.793791e-01 -3.256862e-01 1.050000e+00
4.103817e-01 -2.856341e-01 1.050000e+00
4.371733e-01 -2.426510e-01 1.050000e+00
4.594789e-01 -1.971779e-01 1.050000e+00
4.770696e-01 -1.496816e-01 1.050000e+00
4.897650e-01 -1.006493e-01 1.050000e+00
4.974347e-01 -5.058416e-02 1.050000e+00
5.000000e-01 0.000000e+00 1.100000e+00
4.974347e-01 5.058416e-02 1.100000e+00
4.897650e-01 1.006493e-01 1.100000e+00
4.770696e-01 1.496816e-01 1.100000e+00
4.594789e-01 1.971779e-01 1.100000e+00
4.371733e-01 2.426510e-01 1.100000e+00
4.103817e-01 2.856341e-01 1.100000e+00
3.793791e-01 3.256862e-01 1.100000e+00
3.444835e-01 3.623964e-01 1.100000e+00
3.060530e-01 3.953879e-01 1.100000e+00
2.644820e-01 4.243221e-01 1.100000e+00
2.201971e-01 4.489023e-01 1.100000e+00
1.736526e-01 4.688761e-01 1.100000e+00
1.253263e-01 4.840386e-01 1.100000e+00
7.571389e-02 4.942342e-01 1.100000e+00
2.532458e-02 4.993583e-01 1.100000e+00
-2.532458e-02 4.993583e-01 1.100000e+00
-7.571389e-02 4.942342e-01 1.100000e+00
-1.253263e-01 4.840386e-01 1.100000e+00
-1.736526e-01 4.688761e-01 1.100000e+00
-2.201971e-01 4.489023e-01 1.100000e+00
-2.644820e-01 4.243221e-01 1.100000e+00
-3.060530e-01 3.953879e-01 1.100000e+00
-3.444835e-01 3.623964e-01 1.100000e+00
-3.793791e-01 3.256862e-01 1.100000e+00
-4.103817e-01 2.856341e-01 1.100000e+00
-4.371733e-01 2.426510e-01 1.100000e+00
-4.594789e-01 1.971779e-01 1.100000e+00
-4.770696e-01 1.496816e-01 1.100000e+00
-4.897650e-01 1.006493e-01 1.100000e+00
-4.974347e-01 5.058416e-02 1.100000e+00
-5.000000e-01 6.123234e-17 1.100000e+00
-4.974347e-01 -5.058416e-02 1.100000e+00
-4.897650e-01 -1.006493e-01 1.100000e+00
-4.770696e-01 -1.496816e-01 1.100000e+00
-4.594789e-01 -1.971779e-01 1.100000e+00
-4.371733e-01 -2.426510e-01 1.100000e+00
-4.103817e-01 -2.856341e-01 1.100000e+00
-3.793791e-01 -3.256862e-01 1.100000e+00
-3.444835e-01 -3.623964e-01 1.100000e+00
-3.060530e-01 -3.953879e-01 1.100000e+00
-2.644820e-01 -4.243221e-01 1.100000e+00
-2.201971e-01 -4.489023e-01 1.100000e+00
-1.736526e-01 -4.688761e-01 1.100000e+00
-1.253263e-01 -4.840386e-01 1.100000e+00
-7.571389e-02 -4.942342e-01 1.100000e+00
-2.532458e-02 -4.993583e-01 1.100000e+00
2.532458e-02 -4.993583e-01 1.100000e+00
7.571389e-02 -4.942342e-01 1.100000e+00
1.253263e-01 -4.840386e-01 1.100000e+00
1.736526e-01 -4.688761e-01 1.100000e+00
2.201971e-01 -4.489023e-01 1.100000e+00
2.644820e-01 -4.243221e-01 1.100000e+00
3.060530e-01 -3.953879e-01 1.100000e+00
3.444835e-01 -3.623964e-01 1.100000e+00
3.793791e-01 -3.256862e-01 1.100000e+00
4.103817e-01 -2.856341e-01 1.100000e+00
4.371733e-01 -2.426510e-01 1.100000e+00
4.594789e-01 -1.971779e-01 1.100000e+00
4.770696e-01 -1.496816e-01 1.100000e+00
4.897650e-01 -1.006493e-01 1.100000e+00
4.974347e-01 -5.058416e-02 1.100000e+00
5.000000e-01 0.000000e+00 1.150000e+00
4.974347e-01 5.058416e-02 1.150000e+00
4.897650e-01 1.006493e-01 1.150000e+00
4.770696e-01 1.496816e-01 1.150000e+00
4.594789e-01 1.971779e-01 1.150000e+00
4.371733e-01 2.426510e-01 1.150000e+00
4.103817e-01 2.856341e-01 1.150000e+00
3.793791e-01 3.256862e-01 1.150000e+00
3.444835e-01 3.623964e-01 1.150000e+00
3.060530e-01 3.953879e-01 1.150000e+00
2.644820e-01 4.243221e-01 1.150000e+00
2.201971e-01 4.489023e-01 1.150000e+00
1.736526e-01 4.688761e-01 1.150000e+00
1.253263e-01 4.840386e-01 1.150000e+00
7.571389e-02 4.942342e-01 1.150000e+00
2.532458e-02 4.993583e-01 1.150000e+00
-2.532458e-02 4.993583e-01 1.150000e+00
-7.571389e-02 4.942342e-01 1.150000e+00
-1.253263e-01 4.840386e-01 1.150000e+00
-1.736526e-01 4.688761e-01 1.150000e+00
-2.201971e-01 4.489023e-01 1.150000e+00
-2.644820e-01 4.243221e-01 1.150000e+00
-3.060530e-01 3.953879e-01 1.150000e+00
-3.444835e-01 3.623964e-01 1.150000e+00
-3.793791e-01 3.256862e-01 1.150000e+00
-4.103817e-01 2.856341e-01 1.150000e+00
-4.371733e-01 2.426510e-01 1.150000e+00
-4.594789e-01 1.971779e-01 1.150000e+00
-4.770696e-01 1.496816e-01 1.150000e+00
-4.897650e-01 1.006493e-01 1.150000e+00
-4.974347e-01 5.058416e-02 1.150000e+00
-5.000000e-01 6.123234e-17 1.150000e+00
-4.974347e-01 -5.058416e-02 1.150000e+00
-4.897650e-01 -1.006493e-01 1.150000e+00
-4.770696e-01 -1.496816e-01 1.150000e+00
-4.594789e-01 -1.971779e-01 1.150000e+00
-4.371733e-01 -2.426510e-01 1.150000e+00
-4.103817e-01 -2.856341e-01 1.150000e+00
-3.793791e-01 -3.256862e-01 1.150000e+00
-3.444835e-01 -3.623964e-01 1.150000e+00
-3.060530e-01 -3.953879e-01 1.150000e+00
-2.644820e-01 -4.243221e-01 1.150000e+00
-2.201971e-01 -4.489023e-01 1.150000e+00
-1.736526e-01 -4.688761e-01 1.150000e+00
-1.253263e-01 -4.840386e-01 1.150000e+00
-7.571389e-02 -4.942342e-01 1.150000e+00
-2.532458e-02 -4.993583e-01 1.150000e+00
2.532458e-02 -4.993583e-01 1.150000e+00
7.571389e-02 -4.942342e-01 1.150000e+00
1.253263e-01 -4.840386e-01 1.150000e+00
1.736526e-01 -4.688761e-01 1.150000e+00
2.201971e-01 -4.489023e-01 1.150000e+00
2.644820e-01 -4.243221e-01 1.150000e+00
3.060530e-01 -3.953879e-01 1.150000e+00
3.444835e-01 -3.623964e-01 1.150000e+00
3.793791e-01 -3.256862e-01 1.150000e+00
4.103817e-01 -2.856341e-01 1.150000e+00
4.371733e-01 -2.426510e-01 1.150000e+00
4.594789e-01 -1.971779e-01 1.150000e+00
4.770696e-01 -1.496816e-01 1.150000e+00
4.897650e-01 -1.006493e-01 1.150000e+00
4.974347e-01 -5.058416e-02 1.150000e+00
5.000000e-01 0.000000e+00 1.200000e+00
4.974347e-01 5.058416e-02 1.200000e+00
4.897650e-01 1.006493e-01 1.200000e+00
4.770696e-01 1.496816e-01 1.200000e+00
4.594789e-01 1.971779e-01 1.200000e+00
4.371733e-01 2.426510e-01 1.200000e+00
4.103817e-01 2.856341e-01 1.200000e+00
3.793791e-01 3.256862e-01 1.200000e+00
3.444835e-01 3.623964e-01 1.200000e+00
3.060530e-01 3.953879e-01 1.200000e+00
2.644820e-01 4.243221e-01 1.200000e+00
2.201971e-01 4.489023e-01 1.200000e+00
1.736526e-01 4.688761e-01 1.200000e+00
1.253263e-01 4.840386e-01 1.200000e+00
7.571389e-02 4.942342e-01 1.200000e+00
2.532458e-02 4.993583e-01 1.200000e+00
-2.532458e-02 4.993583e-01 1.200000e+00
-7.571389e-02 4.942342e-01 1.200000e+00
-1.253263e-01 4.840386e-01 1.200000e+00
-1.736526e-01 4.688761e-01 1.200000e+00
-2.201971e-01 4.489023e-01 1.200000e+00
-2.644820e-01 4.243221e-01 1.200000e+00
-3.060530e-01 3.953879e-01 1.200000e+00
-3.444835e-01 3.623964e-01 1.200000e+00
-3.793791e-01 3.256862e-01 1.200000e+00
-4.103817e-01 2.856341e-01 1.200000e+00
-4.371733e-01 2.426510e-01 1.200000e+00
-4.594789e-01 1.971779e-01 1.200000e+00
-4.770696e-01 1.496816e-01 1.200000e+00
-4.897650e-01 1.006493e-01 1.200000e+00
-4.974347e-01 5.058416e-02 1.200000e+00
-5.000000e-01 6.123234e-17 1.200000e+00
-4.974347e-01 -5.058416e-02 1.200000e+00
-4.897650e-01 -1.006493e-01 1.200000e+00
-4.770696e-01 -1.496816e-01 1.200000e+00
-4.594789e-01 -1.971779e-01 1.200000e+00
-4.371733e-01 -2.426510e-01 1.200000e+00
-4.103817e-01 -2.856341e-01 1.200000e+00
-3.793791e-01 -3.256862e-01 1.200000e+00
-3.444835e-01 -3.623964e-01 1.200000e+00
-3.060530e-01 -3.953879e-01 1.200000e+00
-2.644820e-01 -4.243221e-01 1.200000e+00
-2.201971e-01 -4.489023e-01 1.200000e+00
-1.736526e-01 -4.688761e-01 1.200000e+00
-1.253263e-01 -4.840386e-01 1.200000e+00
-7.571389e-02 -4.942342e-01 1.200000e+00
-2.532458e-02 -4.993583e-01 1.200000e+00
2.532458e-02 -4.993583e-01 1.200000e+00
7.571389e-02 -4.942342e-01 1.200000e+00
1.253263e-01 -4.840386e-01 1.200000e+00
1.736526e-01 -4.688761e-01 1.200000e+00
2.201971e-01 -4.489023e-01 1.200000e+00
2.644820e-01 -4.243221e-01 1.200000e+00
3.060530e-01 -3.953879e-01 1.200000e+00
3.444835e-01 -3.623964e-01 1.200000e+00
3.793791e-01 -3.256862e-01 1.200000e+00
4.103817e-01 -2.856341e-01 1.200000e+00
4.371733e-01 -2.426510e-01 1.200000e+00
4.594789e-01 -1.971779e-01 1.200000e+00
4.770696e-01 -1.496816e-01 1.200000e+00
4.897650e-01 -1.006493e-01 1.200000e+00
4.974347e-01 -5.058416e-02 1.200000e+00
5.000000e-01 0.000000e+00 1.250000e+00
4.974347e-01 5.058416e-02 1.250000e+00
4.897650e-01 1.006493e-01 1.250000e+00
4.770696e-01 1.496816e-01 1.250000e+00
4.594789e-01 1.971779e-01 1.250000e+00
4.371733e-01 2.426510e-01 1.250000e+00
4.103817e-01 2.856341e-01 1.250000e+00
3.793791e-01 3.256862e-01 1.250000e+00
3.444835e-01 3.623964e-01 1.250000e+00
3.060530e-01 3.953879e-01 1.250000e+00
2.644820e-01 4.243221e-01 1.250000e+00
2.201971e-01 4.489023e-01 1.250000e+00
1.736526e-01 4.688761e-01 1.250000e+00
1.253263e-01 4.840386e-01 1.250000e+00
7.571389e-02 4.942342e-01 1.250000e+00
2.532458e-02 4.993583e-01 1.250000e+00
-2.532458e-02 4.993583e-01 1.250000e+00
-7.571389e-02 4.942342e-01 1.250000e+00
-1.253263e-01 4.840386e-01 1.250000e+00
-1.736526e-01 4.688761e-01 1.250000e+00
-2.201971e-01 4.489023e-01 1.250000e+00
-2.644820e-01 4.243221e-01 1.250000e+00
-3.060530e-01 3.953879e-01 1.250000e+00
-3.444835e-01 3.623964e-01 1.250000e+00
-3.793791e-01 3.256862e-01 1.250000e+00
-4.103817e-01 2.856341e-01 1.250000e+00
-4.371733e-01 2.426510e-01 1.250000e+00
-4.594789e-01 1.971779e-01 1.250000e+00
-4.770696e-01 1.496816e-01 1.250000e+00
-4.897650e-01 1.006493e-01 1.250000e+00
-4.974347e-01 5.058416e-02 1.250000e+00
-5.000000e-01 6.123234e-17 1.250000e+00
-4.974347e-01 -5.058416e-02 1.250000e+00
-4.897650e-01 -1.006493e-01 1.250000e+00
-4.770696e-01 -1.496816e-01 1.250000e+00
-4.594789e-01 -1.971779e-01 1.250000e+00
-4.371733e-01 -2.426510e-01 1.250000e+00
-4.103817e-01 -2.856341e-01 1.250000e+00
-3.793791e-01 -3.256862e-01 1.250000e+00
-3.444835e-01 -3.623964e-01 1.250000e+00
-3.060530e-01 -3.953879e-01 1.250000e+00
-2.644820e-01 -4.243221e-01 1.250000e+00
-2.201971e-01 -4.489023e-01 1.250000e+00
-1.736526e-01 -4.688761e-01 1.250000e+00
-1.253263e-01 -4.840386e-01 1.250000e+00
-7.571389e-02 -4.942342e-01 1.250000e+00
-2.532458e-02 -4.993583e-01 1.250000e+00
2.532458e-02 -4.993583e-01 1.250000e+00
7.571389e-02 -4.942342e-01 1.250000e+00
1.253263e-01 -4.840386e-01 1.250000e+00
1.736526e-01 -4.688761e-01 1.250000e+00
2.201971e-01 -4.489023e-01 1.250000e+00
2.644820e-01 -4.243221e-01 1.250000e+00
3.060530e-01 -3.953879e-01 1.250000e+00
3.444835e-01 -3.623964e-01 1.250000e+00
3.793791e-01 -3.256862e-01 1.250000e+00
4.103817e-01 -2.856341e-01 1.250000e+00
4.371733e-01 -2.426510e-01 1.250000e+00
4.594789e-01 -1.971779e-01 1.250000e+00
4.770696e-01 -1.496816e-01 1.250000e+00
4.897650e-01 -1.006493e-01 1.250000e+00
4.974347e-01 -5.058416e-02 1.250000e+00
5.000000e-01 0.000000e+00 1.300000e+00
4.974347e-01 5.058416e-02 1.300000e+00
4.897650e-01 1.006493e-01 1.300000e+00
4.770696e-01 1.496816e-01 1.300000e+00
4.594789e-01 1.971779e-01 1.300000e+00
4.371733e-01 2.426510e-01 1.300000e+00
4.103817e-01 2.856341e-01 1.300000e+00
3.793791e-01 3.256862e-01 1.300000e+00
3.444835e-01 3.623964e-01 1.300000e+00
3.060530e-01 3.953879e-01 1.300000e+00
2.644820e-01 4.243221e-01 1.300000e+00
2.201971e-01 4.489023e-01 1.300000e+00
1.736526e-01 4.688761e-01 1.300000e+00
1.253263e-01 4.840386e-01 1.300000e+00
7.571389e-02 4.942342e-01 1.300000e+00
2.532458e-02 4.993583e-01 1.300000e+00
-2.532458e-02 4.993583e-01 1.300000e+00
-7.571389e-02 4.942342e-01 1.300000e+00
-1.253263e-01 4.840386e-01 1.300000e+00
-1.736526e-01 4.688761e-01 1.300000e+00
-2.201971e-01 4.489023e-01 1.300000e+00
-2.644820e-01 4.243221e-01 1.300000e+00
-3.060530e-01 3.953879e-01 1.300000e+00
-3.444835e-01 3.623964e-01 1.300000e+00
-3.793791e-01 3.256862e-01 1.300000e+00
-4.103817e-01 2.856341e-01 1.300000e+00
-4.371733e-01 2.426510e-01 1.300000e+00
-4.594789e-01 1.971779e-01 1.300000e+00
-4.770696e-01 1.496816e-01 1.300000e+00
-4.897650e-01 1.006493e-01 1.300000e+00
-4.974347e-01 5.058416e-02 1.300000e+00
-5.000000e-01 6.123234e-17 1.300000e+00
-4.974347e-01 -5.058416e-02 1.300000e+00
-4.897650e-01 -1.006493e-01 1.300000e+00
-4.770696e-01 -1.496816e-01 1.300000e+00
-4.594789e-01 -1.971779e-01 1.300000e+00
-4.371733e-01 -2.426510e-01 1.300000e+00
-4.103817e-01 -2.856341e-01 1.300000e+00
-3.793791e-01 -3.256862e-01 1.300000e+00
-3.444835e-01 -3.623964e-01 1.300000e+00
-3.060530e-01 -3.953879e-01 1.300000e+00
-2.644820e-01 -4.243221e-01 1.300000e+00
-2.201971e-01 -4.489023e-01 1.300000e+00
-1.736526e-01 -4.688761e-01 1.300000e+00
-1.253263e-01 -4.840386e-01 1.300000e+00
-7.571389e-02 -4.942342e-01 1.300000e+00
-2.532458e-02 -4.993583e-01 1.300000e+00
2.532458e-02 -4.993583e-01 1.300000e+00
7.571389e-02 -4.942342e-01 1.300000e+00
1.253263e-01 -4.840386e-01 1.300000e+00
1.736526e-01 -4.688761e-01 1.300000e+00
2.201971e-01 -4.489023e-01 1.300000e+00
2.644820e-01 -4.243221e-01 1.300000e+00
3.060530e-01 -3.953879e-01 1.300000e+00
3.444835e-01 -3.623964e-01 1.300000e+00
3.793791e-01 -3.256862e-01 1.300000e+00
4.103817e-01 -2.856341e-01 1.300000e+00
4.371733e-01 -2.426510e-01 1.300000e+00
4.594789e-01 -1.971779e-01 1.300000e+00
4.770696e-01 -1.496816e-01 1.300000e+00
4.897650e-01 -1.006493e-01 1.300000e+00
4.974347e-01 -5.058416e-02 1.300000e+00
5.000000e-01 0.000000e+00 1.350000e+00
4.974347e-01 5.058416e-02 1.350000e+00
4.897650e-01 1.006493e-01 1.350000e+00
4.770696e-01 1.496816e-01 1.350000e+00
4.594789e-01 1.971779e-01 1.350000e+00
4.371733e-01 2.426510e-01 1.350000e+00
4.103817e-01 2.856341e-01 1.350000e+00
3.793791e-01 3.256862e-01 1.350000e+00
3.444835e-01 3.623964e-01 1.350000e+00
3.060530e-01 3.953879e-01 1.350000e+00
2.644820e-01 4.243221e-01 1.350000e+00
2.201971e-01 4.489023e-01 1.350000e+00
1.736526e-01 4.688761e-01 1.350000e+00
1.253263e-01 4.840386e-01 1.350000e+00
7.571389e-02 4.942342e-01 1.350000e+00
2.532458e-02 4.993583e-01 1.350000e+00
-2.532458e-02 4.993583e-01 1.350000e+00
-7.571389e-02 4.942342e-01 1.350000e+00
-1.253263e-01 4.840386e-01 1.350000e+00
-1.736526e-01 4.688761e-01 1.350000e+00
-2.201971e-01 4.489023e-01 1.350000e+00
-2.644820e-01 4.243221e-01 1.350000e+00
-3.060530e-01 3.953879e-01 1.350000e+00
-3.444835e-01 3.623964e-01 1.350000e+00
-3.793791e-01 3.256862e-01 1.350000e+00
-4.103817e-01 2.856341e-01 1.350000e+00
-4.371733e-01 2.426510e-01 1.350000e+00
-4.594789e-01 1.971779e-01 1.350000e+00
-4.770696e-01 1.496816e-01 1.350000e+00
-4.897650e-01 1.006493e-01 1.350000e+00
-4.974347e-01 5.058416e-02 1.350000e+00
-5.000000e-01 6.123234e-17 1.350000e+00
-4.974347e-01 -5.058416e-02 1.350000e+00
-4.897650e-01 -1.006493e-01 1.350000e+00
-4.770696e-01 -1.496816e-01 1.350000e+00
-4.594789e-01 -1.971779e-01 1.350000e+00
-4.371733e-01 -2.426510e-01 1.350000e+00
-4.103817e-01 -2.856341e-01 1.350000e+00
-3.793791e-01 -3.256862e-01 1.350000e+00
-3.444835e-01 -3.623964e-01 1.350000e+00
-3.060530e-01 -3.953879e-01 1.350000e+00
-2.644820e-01 -4.243221e-01 1.350000e+00
-2.201971e-01 -4.489023e-01 1.350000e+00
-1.736526e-01 -4.688761e-01 1.350000e+00
-1.253263e-01 -4.840386e-01 1.350000e+00
-7.571389e-02 -4.942342e-01 1.350000e+00
-2.532458e-02 -4.993583e-01 1.350000e+00
2.532458e-02 -4.993583e-01 1.350000e+00
7.571389e-02 -4.942342e-01 1.350000e+00
1.253263e-01 -4.840386e-01 1.350000e+00
1.736526e-01 -4.688761e-01 1.350000e+00
2.201971e-01 -4.489023e-01 1.350000e+00
2.644820e-01 -4.243221e-01 1.350000e+00
3.060530e-01 -3.953879e-01 1.350000e+00
3.444835e-01 -3.623964e-01 1.350000e+00
3.793791e-01 -3.256862e-01 1.350000e+00
4.103817e-01 -2.856341e-01 1.350000e+00
4.371733e-01 -2.426510e-01 1.350000e+00
4.594789e-01 -1.971779e-01 1.350000e+00
4.770696e-01 -1.496816e-01 1.350000e+00
4.897650e-01 -1.006493e-01 1.350000e+00
4.974347e-01 -5.058416e-02 1.350000e+00
5.000000e-01 0.000000e+00 1.400000e+00
4.974347e-01 5.058416e-02 1.400000e+00
4.897650e-01 1.006493e-01 1.400000e+00
4.770696e-01 1.496816e-01 1.400000e+00
4.594789e-01 1.971779e-01 1.400000e+00
4.371733e-01 2.426510e-01 1.400000e+00
4.103817e-01 2.856341e-01 1.400000e+00
3.793791e-01 3.256862e-01 1.400000e+00
3.444835e-01 3.623964e-01 1.400000e+00
3.060530e-01 3.953879e-01 1.400000e+00
2.644820e-01 4.243221e-01 1.400000e+00
2.201971e-01 4.489023e-01 1.400000e+00
1.736526e-01 4.688761e-01 1.400000e+00
1.253263e-01 4.840386e-01 1.400000e+00
7.571389e-02 4.942342e-01 1.400000e+00
2.532458e-02 4.993583e-01 1.400000e+00
-2.532458e-02 4.993583e-01 1.400000e+00
-7.571389e-02 4.942342e-01 1.400000e+00
-1.253263e-01 4.840386e-01 1.400000e+00
-1.736526e-01 4.688761e-01 1.400000e+00
-2.201971e-01 4.489023e-01 1.400000e+00
-2.644820e-01 4.243221e-01 1.400000e+00
-3.060530e-01 3.953879e-01 1.400000e+00
-3.444835e-01 3.623964e-01 1.400000e+00
-3.793791e-01 3.256862e-01 1.400000e+00
-4.103817e-01 2.856341e-01 1.400000e+00
-4.371733e-01 2.426510e-01 1.400000e+00
-4.594789e-01 1.971779e-01 1.400000e+00
-4.770696e-01 1.496816e-01 1.400000e+00
-4.897650e-01 1.006493e-01 1.400000e+00
-4.974347e-01 5.058416e-02 1.400000e+00
-5.000000e-01 6.123234e-17 1.400000e+00
-4.974347e-01 -5.058416e-02 1.400000e+00
-4.897650e-01 -1.006493e-01 1.400000e+00
-4.770696e-01 -1.496816e-01 1.400000e+00
-4.594789e-01 -1.971779e-01 1.400000e+00
-4.371733e-01 -2.426510e-01 1.400000e+00
-4.103817e-01 -2.856341e-01 1.400000e+00
-3.793791e-01 -3.256862e-01 1.400000e+00
-3.444835e-01 -3.623964e-01 1.400000e+00
-3.060530e-01 -3.953879e-01 1.400000e+00
-2.644820e-01 -4.243221e-01 1.400000e+00
-2.201971e-01 -4.489023e-01 1.400000e+00
-1.736526e-01 -4.688761e-01 1.400000e+00
-1.253263e-01 -4.840386e-01 1.400000e+00
-7.571389e-02 -4.942342e-01 1.400000e+00
-2.532458e-02 -4.993583e-01 1.400000e+00
2.532458e-02 -4.993583e-01 1.400000e+00
7.571389e-02 -4.942342e-01 1.400000e+00
1.253263e-01 -4.840386e-01 1.400000e+00
1.736526e-01 -4.688761e-01 1.400000e+00
2.201971e-01 -4.489023e-01 1.400000e+00
2.644820e-01 -4.243221e-01 1.400000e+00
3.060530e-01 -3.953879e-01 1.400000e+00
3.444835e-01 -3.623964e-01 1.400000e+00
3.793791e-01 -3.256862e-01 1.400000e+00
4.103817e-01 -2.856341e-01 1.400000e+00
4.371733e-01 -2.426510e-01 1.400000e+00
4.594789e-01 -1.971779e-01 1.400000e+00
4.770696e-01 -1.496816e-01 1.400000e+00
4.897650e-01 -1.006493e-01 1.400000e+00
4.974347e-01 -5.058416e-02 1.400000e+00
5.000000e-01 0.000000e+00 1.450000e+00
4.974347e-01 5.058416e-02 1.450000e+00
4.897650e-01 1.006493e-01 1.450000e+00
4.770696e-01 1.496816e-01 1.450000e+00
4.594789e-01 1.971779e-01 1.450000e+00
4.371733e-01 2.426510e-01 1.450000e+00
4.103817e-01 2.856341e-01 1.450000e+00
3.793791e-01 3.256862e-01 1.450000e+00
3.444835e-01 3.623964e-01 1.450000e+00
3.060530e-01 3.953879e-01 1.450000e+00
2.644820e-01 4.243221e-01 1.450000e+00
2.201971e-01 4.489023e-01 1.450000e+00
1.736526e-01 4.688761e-01 1.450000e+00
1.253263e-01 4.840386e-01 1.450000e+00
7.571389e-02 4.942342e-01 1.450000e+00
2.532458e-02 4.993583e-01 1.450000e+00
-2.532458e-02 4.993583e-01 1.450000e+00
-7.571389e-02 4.942342e-01 1.450000e+00
-1.253263e-01 4.840386e-01 1.450000e+00
-1.736526e-01 4.688761e-01 1.450000e+00
-2.201971e-01 4.489023e-01 1.450000e+00
-2.644820e-01 4.243221e-01 1.450000e+00
-3.060530e-01 3.953879e-01 1.450000e+00
-3.444835e-01 3.623964e-01 1.450000e+00
-3.793791e-01 3.256862e-01 1.450000e+00
-4.103817e-01 2.856341e-01 1.450000e+00
-4.371733e-01 2.426510e-01 1.450000e+00
-4.594789e-01 1.971779e-01 1.450000e+00
-4.770696e-01 1.496816e-01 1.450000e+00
-4.897650e-01 1.006493e-01 1.450000e+00
-4.974347e-01 5.058416e-02 1.450000e+00
-5.000000e-01 6.123234e-17 1.450000e+00
-4.974347e-01 -5.058416e-02 1.450000e+00
-4.897650e-01 -1.006493e-01 1.450000e+00
-4.770696e-01 -1.496816e-01 1.450000e+00
-4.594789e-01 -1.971779e-01 1.450000e+00
-4.371733e-01 -2.426510e-01 1.450000e+00
-4.103817e-01 -2.856341e-01 1.450000e+00
-3.793791e-01 -3.256862e-01 1.450000e+00
-3.444835e-01 -3.623964e-01 1.450000e+00
-3.060530e-01 -3.953879e-01 1.450000e+00
-2.644820e-01 -4.243221e-01 1.450000e+00
-2.201971e-01 -4.489023e-01 1.450000e+00
-1.736526e-01 -4.688761e-01 1.450000e+00
-1.253263e-01 -4.840386e-01 1.450000e+00
-7.571389e-02 -4.942342e-01 1.450000e+00
-2.532458e-02 -4.993583e-01 1.450000e+00
2.532458e-02 -4.993583e-01 1.450000e+00
7.571389e-02 -4.942342e-01 1.450000e+00
1.253263e-01 -4.840386e-01 1.450000e+00
1.736526e-01 -4.688761e-01 1.450000e+00
2.201971e-01 -4.489023e-01 1.450000e+00
2.644820e-01 -4.243221e-01 1.450000e+00
3.060530e-01 -3.953879e-01 1.450000e+00
3.444835e-01 -3.623964e-01 1.450000e+00
3.793791e-01 -3.256862e-01 1.450000e+00
4.103817e-01 -2.856341e-01 1.450000e+00
4.371733e-01 -2.426510e-01 1.450000e+00
4.594789e-01 -1.971779e-01 1.450000e+00
4.770696e-01 -1.496816e-01 1.450000e+00
4.897650e-01 -1.006493e-01 1.450000e+00
4.974347e-01 -5.058416e-02 1.450000e+00
5.000000e-01 0.000000e+00 1.500000e+00
4.974347e-01 5.058416e-02 1.500000e+00
4.897650e-01 1.006493e-01 1.500000e+00
4.770696e-01 1.496816e-01 1.500000e+00
4.594789e-01 1.971779e-01 1.500000e+00
4.371733e-01 2.426510e-01 1.500000e+00
4.103817e-01 2.856341e-01 1.500000e+00
3.793791e-01 3.256862e-01 1.500000e+00
3.444835e-01 3.623964e-01 1.500000e+00
3.060530e-01 3.953879e-01 1.500000e+00
2.644820e-01 4.243221e-01 1.500000e+00
2.201971e-01 4.489023e-01 1.500000e+00
1.736526e-01 4.688761e-01 1.500000e+00
1.253263e-01 4.840386e-01 1.500000e+00
7.571389e-02 4.942342e-01 1.500000e+00
2.532458e-02 4.993583e-01 1.500000e+00
-2.532458e-02 4.993583e-01 1.500000e+00
-7.571389e-02 4.942342e-01 1.500000e+00
-1.253263e-01 4.840386e-01 1.500000e+00
-1.736526e-01 4.688761e-01 1.500000e+00
-2.201971e-01 4.489023e-01 1.500000e+00
-2.644820e-01 4.243221e-01 1.500000e+00
-3.060530e-01 3.953879e-01 1.500000e+00
-3.444835e-01 3.623964e-01 1.500000e+00
-3.793791e-01 3.256862e-01 1.500000e+00
-4.103817e-01 2.856341e-01 1.500000e+00
-4.371733e-01 2.426510e-01 1.500000e+00
-4.594789e-01 1.971779e-01 1.500000e+00
-4.770696e-01 1.496816e-01 1.500000e+00
-4.897650e-01 1.006493e-01 1.500000e+00
-4.974347e-01 5.058416e-02 1.500000e+00
-5.000000e-01 6.123234e-17 1.500000e+00
-4.974347e-01 -5.058416e-02 1.500000e+00
-4.897650e-01 -1.006493e-01 1.500000e+00
-4.770696e-01 -1.496816e-01 1.500000e+00
-4.594789e-01 -1.971779e-01 1.500000e+00
-4.371733e-01 -2.426510e-01 1.500000e+00
-4.103817e-01 -2.856341e-01 1.500000e+00
-3.793791e-01 -3.256862e-01 1.500000e+00
-3.444835e-01 -3.623964e-01 1.500000e+00
-3.060530e-01 -3.953879e-01 1.500000e+00
-2.644820e-01 -4.243221e-01 1.500000e+00
-2.201971e-01 -4.489023e-01 1.500000e+00
-1.736526e-01 -4.688761e-01 1.500000e+00
-1.253263e-01 -4.840386e-01 1.500000e+00
-7.571389e-02 -4.942342e-01 1.500000e+00
-2.532458e-02 -4.993583e-01 1.500000e+00
2.532458e-02 -4.993583e-01 1.500000e+00
7.571389e-02 -4.942342e-01 1.500000e+00
1.253263e-01 -4.840386e-01 1.500000e+00
1.736526e-01 -4.688761e-01 1.500000e+00
2.201971e-01 -4.489023e-01 1.500000e+00
2.644820e-01 -4.243221e-01 1.500000e+00
3.060530e-01 -3.953879e-01 1.500000e+00
3.444835e-01 -3.623964e-01 1.500000e+00
3.793791e-01 -3.256862e-01 1.500000e+00
4.103817e-01 -2.856341e-01 1.500000e+00
4.371733e-01 -2.426510e-01 1.500000e+00
4.594789e-01 -1.971779e-01 1.500000e+00
4.770696e-01 -1.496816e-01 1.500000e+00
4.897650e-01 -1.006493e-01 1.500000e+00
4.974347e-01 -5.058416e-02 1.500000e+00
5.000000e-01 0.000000e+00 1.550000e+00
4.974347e-01 5.058416e-02 1.550000e+00
4.897650e-01 1.006493e-01 1.550000e+00
4.770696e-01 1.496816e-01 1.550000e+00
4.594789e-01 1.971779e-01 1.550000e+00
4.371733e-01 2.426510e-01 1.550000e+00
4.103817e-01 2.856341e-01 1.550000e+00
3.793791e-01 3.256862e-01 1.550000e+00
3.444835e-01 3.623964e-01 1.550000e+00
3.060530e-01 3.953879e-01 1.550000e+00
2.644820e-01 4.243221e-01 1.550000e+00
2.201971e-01 4.489023e-01 1.550000e+00
1.736526e-01 4.688761e-01 1.550000e+00
1.253263e-01 4.840386e-01 1.550000e+00
7.571389e-02 4.942342e-01 1.550000e+00
2.532458e-02 4.993583e-01 1.550000e+00
-2.532458e-02 4.993583e-01 1.550000e+00
-7.571389e-02 4.942342e-01 1.550000e+00
-1.253263e-01 4.840386e-01 1.550000e+00
-1.736526e-01 4.688761e-01 1.550000e+00
-2.201971e-01 4.489023e-01 1.550000e+00
-2.644820e-01 4.243221e-01 1.550000e+00
-3.060530e-01 3.953879e-01 1.550000e+00
-3.444835e-01 3.623964e-01 1.550000e+00
-3.793791e-01 3.256862e-01 1.550000e+00
-4.103817e-01 2.856341e-01 1.550000e+00
-4.371733e-01 2.426510e-01 1.550000e+00
-4.594789e-01 1.971779e-01 1.550000e+00
-4.770696e-01 1.496816e-01 1.550000e+00
-4.897650e-01 1.006493e-01 1.550000e+00
-4.974347e-01 5.058416e-02 1.550000e+00
-5.000000e-01 6.123234e-17 1.550000e+00
-4.974347e-01 -5.058416e-02 1.550000e+00
-4.897650e-01 -1.006493e-01 1.550000e+00
-4.770696e-01 -1.496816e-01 1.550000e+00
-4.594789e-01 -1.971779e-01 1.550000e+00
-4.371733e-01 -2.426510e-01 1.550000e+00
-4.103817e-01 -2.856341e-01 1.550000e+00
-3.793791e-01 -3.256862e-01 1.550000e+00
-3.444835e-01 -3.623964e-01 1.550000e+00
-3.060530e-01 -3.953879e-01 1.550000e+00
-2.644820e-01 -4.243221e-01 1.550000e+00
-2.201971e-01 -4.489023e-01 1.550000e+00
-1.736526e-01 -4.688761e-01 1.550000e+00
-1.253263e-01 -4.840386e-01 1.550000e+00
-7.571389e-02 -4.942342e-01 1.550000e+00
-2.532458e-02 -4.993583e-01 1.550000e+00
2.532458e-02 -4.993583e-01 1.550000e+00
7.571389e-02 -4.942342e-01 1.550000e+00
1.253263e-01 -4.840386e-01 1.550000e+00
1.736526e-01 -4.688761e-01 1.550000e+00
2.201971e-01 -4.489023e-01 1.550000e+00
2.644820e-01 -4.243221e-01 1.550000e+00
3.060530e-01 -3.953879e-01 1.550000e+00
3.444835e-01 -3.623964e-01 1.550000e+00
3.793791e-01 -3.256862e-01 1.550000e+00
4.103817e-01 -2.856341e-01 1.550000e+00
4.371733e-01 -2.426510e-01 1.550000e+00
4.594789e-01 -1.971779e-01 1.550000e+00
4.770696e-01 -1.496816e-01 1.550000e+00
4.897650e-01 -1.006493e-01 1.550000e+00
4.974347e-01 -5.058416e-02 1.550000e+00
5.000000e-01 0.000000e+00 1.600000e+00
4.974347e-01 5.058416e-02 1.600000e+00
4.897650e-01 1.006493e-01 1.600000e+00
4.770696e-01 1.496816e-01 1.600000e+00
4.594789e-01 1.971779e-01 1.600000e+00
4.371733e-01 2.426510e-01 1.600000e+00
4.103817e-01 2.856341e-01 1.600000e+00
3.793791e-01 3.256862e-01 1.600000e+00
3.444835e-01 3.623964e-01 1.600000e+00
3.060530e-01 3.953879e-01 1.600000e+00
2.644820e-01 4.243221e-01 1.600000e+00
2.201971e-01 4.489023e-01 1.600000e+00
1.736526e-01 4.688761e-01 1.600000e+00
1.253263e-01 4.840386e-01 1.600000e+00
7.571389e-02 4.942342e-01 1.600000e+00
2.532458e-02 4.993583e-01 1.600000e+00
-2.532458e-02 4.993583e-01 1.600000e+00
-7.571389e-02 4.942342e-01 1.600000e+00
-1.253263e-01 4.840386e-01 1.600000e+00
-1.736526e-01 4.688761e-01 1.600000e+00
-2.201971e-01 4.489023e-01 1.600000e+00
-2.644820e-01 4.243221e-01 1.600000e+00
-3.060530e-01 3.953879e-01 1.600000e+00
-3.444835e-01 3.623964e-01 1.600000e+00
-3.793791e-01 3.256862e-01 1.600000e+00
-4.103817e-01 2.856341e-01 1.600000e+00
-4.371733e-01 2.426510e-01 1.600000e+00
-4.594789e-01 1.971779e-01 1.600000e+00
-4.770696e-01 1.496816e-01 1.600000e+00
-4.897650e-01 1.006493e-01 1.600000e+00
-4.974347e-01 5.058416e-02 1.600000e+00
-5.000000e-01 6.123234e-17 1.600000e+00
-4.974347e-01 -5.058416e-02 1.600000e+00
-4.897650e-01 -1.006493e-01 1.600000e+00
-4.770696e-01 -1.496816e-01 1.600000e+00
-4.594789e-01 -1.971779e-01 1.600000e+00
-4.371733e-01 -2.426510e-01 1.600000e+00
-4.103817e-01 -2.856341e-01 1.600000e+00
-3.793791e-01 -3.256862e-01 1.600000e+00
-3.444835e-01 -3.623964e-01 1.600000e+00
-3.060530e-01 -3.953879e-01 1.600000e+00
-2.644820e-01 -4.243221e-01 1.600000e+00
-2.201971e-01 -4.489023e-01 1.600000e+00
-1.736526e-01 -4.688761e-01 1.600000e+00
-1.253263e-01 -4.840386e-01 1.600000e+00
-7.571389e-02 -4.942342e-01 1.600000e+00
-2.532458e-02 -4.993583e-01 1.600000e+00
2.532458e-02 -4.993583e-01 1.600000e+00
7.571389e-02 -4.942342e-01 1.600000e+00
1.253263e-01 -4.840386e-01 1.600000e+00
1.736526e-01 -4.688761e-01 1.600000e+00
2.201971e-01 -4.489023e-01 1.600000e+00
2.644820e-01 -4.243221e-01 1.600000e+00
3.060530e-01 -3.953879e-01 1.600000e+00
3.444835e-01 -3.623964e-01 1.600000e+00
3.793791e-01 -3.256862e-01 1.600000e+00
4.103817e-01 -2.856341e-01 1.600000e+00
4.371733e-01 -2.426510e-01 1.600000e+00
4.594789e-01 -1.971779e-01 1.600000e+00
4.770696e-01 -1.496816e-01 1.600000e+00
4.897650e-01 -1.006493e-01 1.600000e+00
4.974347e-01 -5.058416e-02 1.600000e+00
5.000000e-01 0.000000e+00 1.650000e+00
4.974347e-01 5.058416e-02 1.650000e+00
4.897650e-01 1.006493e-01 1.650000e+00
4.770696e-01 1.496816e-01 1.650000e+00
4.594789e-01 1.971779e-01 1.650000e+00
4.371733e-01 2.426510e-01 1.650000e+00
4.103817e-01 2.856341e-01 1.650000e+00
3.793791e-01 3.256862e-01 1.650000e+00
3.444835e-01 3.623964e-01 1.650000e+00
3.060530e-01 3.953879e-01 1.650000e+00
2.644820e-01 4.243221e-01 1.650000e+00
2.201971e-01 4.489023e-01 1.650000e+00
1.736526e-01 4.688761e-01 1.650000e+00
1.253263e-01 4.840386e-01 1.650000e+00
7.571389e-02 4.942342e-01 1.650000e+00
2.532458e-02 4.993583e-01 1.650000e+00
-2.532458e-02 4.993583e-01 1.650000e+00
-7.571389e-02 4.942342e-01 1.650000e+00
-1.253263e-01 4.840386e-01 1.650000e+00
-1.736526e-01 4.688761e-01 1.650000e+00
-2.201971e-01 4.489023e-01 1.650000e+00
-2.644820e-01 4.243221e-01 1.650000e+00
-3.060530e-01 3.953879e-01 1.650000e+00
-3.444835e-01 3.623964e-01 1.650000e+00
-3.793791e-01 3.256862e-01 1.650000e+00
-4.103817e-01 2.856341e-01 1.650000e+00
-4.371733e-01 2.426510e-01 1.650000e+00
-4.594789e-01 1.971779e-01 1.650000e+00
-4.770696e-01 1.496816e-01 1.650000e+00
-4.897650e-01 1.006493e-01 1.650000e+00
-4.974347e-01 5.058416e-02 1.650000e+00
-5.000000e-01 6.123234e-17 1.650000e+00
-4.974347e-01 -5.058416e-02 1.650000e+00
-4.897650e-01 -1.006493e-01 1.650000e+00
-4.770696e-01 -1.496816e-01 1.650000e+00
-4.594789e-01 -1.971779e-01 1.650000e+00
-4.371733e-01 -2.426510e-01 1.650000e+00
-4.103817e-01 -2.856341e-01 1.650000e+00
-3.793791e-01 -3.256862e-01 1.650000e+00
-3.444835e-01 -3.623964e-01 1.650000e+00
-3.060530e-01 -3.953879e-01 1.650000e+00
-2.644820e-01 -4.243221e-01 1.650000e+00
-2.201971e-01 -4.489023e-01 1.650000e+00
-1.736526e-01 -4.688761e-01 1.650000e+00
-1.253263e-01 -4.840386e-01 1.650000e+00
-7.571389e-02 -4.942342e-01 1.650000e+00
-2.532458e-02 -4.993583e-01 1.650000e+00
2.532458e-02 -4.993583e-01 1.650000e+00
7.571389e-02 -4.942342e-01 1.650000e+00
1.253263e-01 -4.840386e-01 1.650000e+00
1.736526e-01 -4.688761e-01 1.650000e+00
2.201971e-01 -4.489023e-01 1.650000e+00
2.644820e-01 -4.243221e-01 1.650000e+00
3.060530e-01 -3.953879e-01 1.650000e+00
3.444835e-01 -3.623964e-01 1.650000e+00
3.793791e-01 -3.256862e-01 1.650000e+00
4.103817e-01 -2.856341e-01 1.650000e+00
4.371733e-01 -2.426510e-01 1.650000e+00
4.594789e-01 -1.971779e-01 1.650000e+00
4.770696e-01 -1.496816e-01 1.650000e+00
4.897650e-01 -1.006493e-01 1.650000e+00
4.974347e-01 -5.058416e-02 1.650000e+00
5.000000e-01 0.000000e+00 1.700000e+00
4.974347e-01 5.058416e-02 1.700000e+00
4.897650e-01 1.006493e-01 1.700000e+00
4.770696e-01 1.496816e-01 1.700000e+00
4.594789e-01 1.971779e-01 1.700000e+00
4.371733e-01 2.426510e-01 1.700000e+00
4.103817e-01 2.856341e-01 1.700000e+00
3.793791e-01 3.256862e-01 1.700000e+00
3.444835e-01 3.623964e-01 1.700000e+00
3.060530e-01 3.953879e-01 1.700000e+00
2.644820e-01 4.243221e-01 1.700000e+00
2.201971e-01 4.489023e-01 1.700000e+00
1.736526e-01 4.688761e-01 1.700000e+00
1.253263e-01 4.840386e-01 1.700000e+00
7.571389e-02 4.942342e-01 1.700000e+00
2.532458e-02 4.993583e-01 1.700000e+00
-2.532458e-02 4.993583e-01 1.700000e+00
-7.571389e-02 4.942342e-01 1.700000e+00
-1.253263e-01 4.840386e-01 1.700000e+00
-1.736526e-01 4.688761e-01 1.700000e+00
-2.201971e-01 4.489023e-01 1.700000e+00
-2.644820e-01 4.243221e-01 1.700000e+00
-3.060530e-01 3.953879e-01 1.700000e+00
-3.444835e-01 3.623964e-01 1.700000e+00
-3.793791e-01 3.256862e-01 1.700000e+00
-4.103817e-01 2.856341e-01 1.700000e+00
-4.371733e-01 2.426510e-01 1.700000e+00
-4.594789e-01 1.971779e-01 1.700000e+00
-4.770696e-01 1.496816e-01 1.700000e+00
-4.897650e-01 1.006493e-01 1.700000e+00
-4.974347e-01 5.058416e-02 1.700000e+00
-5.000000e-01 6.123234e-17 1.700000e+00
-4.974347e-01 -5.058416e-02 1.700000e+00
-4.897650e-01 -1.006493e-01 1.700000e+00
-4.770696e-01 -1.496816e-01 1.700000e+00
-4.594789e-01 -1.971779e-01 1.700000e+00
-4.371733e-01 -2.426510e-01 1.700000e+00
-4.103817e-01 -2.856341e-01 1.700000e+00
-3.793791e-01 -3.256862e-01 1.700000e+00
-3.444835e-01 -3.623964e-01 1.700000e+00
-3.060530e-01 -3.953879e-01 1.700000e+00
-2.644820e-01 -4.243221e-01 1.700000e+00
-2.201971e-01 -4.489023e-01 1.700000e+00
-1.736526e-01 -4.688761e-01 1.700000e+00
-1.253263e-01 -4.840386e-01 1.700000e+00
-7.571389e-02 -4.942342e-01 1.700000e+00
-2.532458e-02 -4.993583e-01 1.700000e+00
2.532458e-02 -4.993583e-01 1.700000e+00
7.571389e-02 -4.942342e-01 1.700000e+00
1.253263e-01 -4.840386e-01 1.700000e+00
1.736526e-01 -4.688761e-01 1.700000e+00
2.201971e-01 -4.489023e-01 1.700000e+00
2.644820e-01 -4.243221e-01 1.700000e+00
3.060530e-01 -3.953879e-01 1.700000e+00
3.444835e-01 -3.623964e-01 1.700000e+00
3.793791e-01 -3.256862e-01 1.700000e+00
4.103817e-01 -2.856341e-01 1.700000e+00
4.371733e-01 -2.426510e-01 1.700000e+00
4.594789e-01 -1.971779e-01 1.700000e+00
4.770696e-01 -1.496816e-01 1.700000e+00
4.897650e-01 -1.006493e-01 1.700000e+00
4.974347e-01 -5.058416e-02 1.700000e+00
5.000000e-01 0.000000e+00 1.750000e+00
4.974347e-01 5.058416e-02 1.750000e+00
4.897650e-01 1.006493e-01 1.750000e+00
4.770696e-01 1.496816e-01 1.750000e+00
4.594789e-01 1.971779e-01 1.750000e+00
4.371733e-01 2.426510e-01 1.750000e+00
4.103817e-01 2.856341e-01 1.750000e+00
3.793791e-01 3.256862e-01 1.750000e+00
3.444835e-01 3.623964e-01 1.750000e+00
3.060530e-01 3.953879e-01 1.750000e+00
2.644820e-01 4.243221e-01 1.750000e+00
2.201971e-01 4.489023e-01 1.750000e+00
1.736526e-01 4.688761e-01 1.750000e+00
1.253263e-01 4.840386e-01 1.750000e+00
7.571389e-02 4.942342e-01 1.750000e+00
2.532458e-02 4.993583e-01 1.750000e+00
-2.532458e-02 4.993583e-01 1.750000e+00
-7.571389e-02 4.942342e-01 1.750000e+00
-1.253263e-01 4.840386e-01 1.750000e+00
-1.736526e-01 4.688761e-01 1.750000e+00
-2.201971e-01 4.489023e-01 1.750000e+00
-2.644820e-01 4.243221e-01 1.750000e+00
-3.060530e-01 3.953879e-01 1.750000e+00
-3.444835e-01 3.623964e-01 1.750000e+00
-3.793791e-01 3.256862e-01 1.750000e+00
-4.103817e-01 2.856341e-01 1.750000e+00
-4.371733e-01 2.426510e-01 1.750000e+00
-4.594789e-01 1.971779e-01 1.750000e+00
-4.770696e-01 1.496816e-01 1.750000e+00
-4.897650e-01 1.006493e-01 1.750000e+00
-4.974347e-01 5.058416e-02 1.750000e+00
-5.000000e-01 6.123234e-17 1.750000e+00
-4.974347e-01 -5.058416e-02 1.750000e+00
-4.897650e-01 -1.006493e-01 1.750000e+00
-4.770696e-01 -1.496816e-01 1.750000e+00
-4.594789e-01 -1.971779e-01 1.750000e+00
-4.371733e-01 -2.426510e-01 1.750000e+00
-4.103817e-01 -2.856341e-01 1.750000e+00
-3.793791e-01 -3.256862e-01 1.750000e+00
-3.444835e-01 -3.623964e-01 1.750000e+00
-3.060530e-01 -3.953879e-01 1.750000e+00
-2.644820e-01 -4.243221e-01 1.750000e+00
-2.201971e-01 -4.489023e-01 1.750000e+00
-1.736526e-01 -4.688761e-01 1.750000e+00
-1.253263e-01 -4.840386e-01 1.750000e+00
-7.571389e-02 -4.942342e-01 1.750000e+00
-2.532458e-02 -4.993583e-01 1.750000e+00
2.532458e-02 -4.993583e-01 1.750000e+00
7.571389e-02 -4.942342e-01 1.750000e+00
1.253263e-01 -4.840386e-01 1.750000e+00
1.736526e-01 -4.688761e-01 1.750000e+00
2.201971e-01 -4.489023e-01 1.750000e+00
2.644820e-01 -4.243221e-01 1.750000e+00
3.060530e-01 -3.953879e-01 1.750000e+00
3.444835e-01 -3.623964e-01 1.750000e+00
3.793791e-01 -3.256862e-01 1.750000e+00
4.103817e-01 -2.856341e-01 1.750000e+00
4.371733e-01 -2.426510e-01 1.750000e+00
4.594789e-01 -1.971779e-01 1.750000e+00
4.770696e-01 -1.496816e-01 1.750000e+00
4.897650e-01 -1.006493e-01 1.750000e+00
4.974347e-01 -5.058416e-02 1.750000e+00
5.000000e-01 0.000000e+00 1.800000e+00
4.974347e-01 5.058416e-02 1.800000e+00
4.897650e-01 1.006493e-01 1.800000e+00
4.770696e-01 1.496816e-01 1.800000e+00
4.594789e-01 1.971779e-01 1.800000e+00
4.371733e-01 2.426510e-01 1.800000e+00
4.103817e-01 2.856341e-01 1.800000e+00
3.793791e-01 3.256862e-01 1.800000e+00
3.444835e-01 3.623964e-01 1.800000e+00
3.060530e-01 3.953879e-01 1.800000e+00
2.644820e-01 4.243221e-01 1.800000e+00
2.201971e-01 4.489023e-01 1.800000e+00
1.736526e-01 4.688761e-01 1.800000e+00
1.253263e-01 4.840386e-01 1.800000e+00
7.571389e-02 4.942342e-01 1.800000e+00
2.532458e-02 4.993583e-01 1.800000e+00
-2.532458e-02 4.993583e-01 1.800000e+00
-7.571389e-02 4.942342e-01 1.800000e+00
-1.253263e-01 4.840386e-01 1.800000e+00
-1.736526e-01 4.688761e-01 1.800000e+00
-2.201971e-01 4.489023e-01 1.800000e+00
-2.644820e-01 4.243221e-01 1.800000e+00
-3.060530e-01 3.953879e-01 1.800000e+00
-3.444835e-01 3.623964e-01 1.800000e+00
-3.793791e-01 3.256862e-01 1.800000e+00
-4.103817e-01 2.856341e-01 1.800000e+00
-4.371733e-01 2.426510e-01 1.800000e+00
-4.594789e-01 1.971779e-01 1.800000e+00
-4.770696e-01 1.496816e-01 1.800000e+00
-4.897650e-01 1.006493e-01 1.800000e+00
-4.974347e-01 5.058416e-02 1.800000e+00
-5.000000e-01 6.123234e-17 1.800000e+00
-4.974347e-01 -5.058416e-02 1.800000e+00
-4.897650e-01 -1.006493e-01 1.800000e+00
-4.770696e-01 -1.496816e-01 1.800000e+00
-4.594789e-01 -1.971779e-01 1.800000e+00
-4.371733e-01 -2.426510e-01 1.800000e+00
-4.103817e-01 -2.856341e-01 1.800000e+00
-3.793791e-01 -3.256862e-01 1.800000e+00
-3.444835e-01 -3.623964e-01 1.800000e+00
-3.060530e-01 -3.953879e-01 1.800000e+00
-2.644820e-01 -4.243221e-01 1.800000e+00
-2.201971e-01 -4.489023e-01 1.800000e+00
-1.736526e-01 -4.688761e-01 1.800000e+00
-1.253263e-01 -4.840386e-01 1.800000e+00
-7.571389e-02 -4.942342e-01 1.800000e+00
-2.532458e-02 -4.993583e-01 1.800000e+00
2.532458e-02 -4.993583e-01 1.800000e+00
7.571389e-02 -4.942342e-01 1.800000e+00
1.253263e-01 -4.840386e-01 1.800000e+00
1.736526e-01 -4.688761e-01 1.800000e+00
2.201971e-01 -4.489023e-01 1.800000e+00
2.644820e-01 -4.243221e-01 1.800000e+00
3.060530e-01 -3.953879e-01 1.800000e+00
3.444835e-01 -3.623964e-01 1.800000e+00
3.793791e-01 -3.256862e-01 1.800000e+00
4.103817e-01 -2.856341e-01 1.800000e+00
4.371733e-01 -2.426510e-01 1.800000e+00
4.594789e-01 -1.971779e-01 1.800000e+00
4.770696e-01 -1.496816e-01 1.800000e+00
4.897650e-01 -1.006493e-01 1.800000e+00
4.974347e-01 -5.058416e-02 1.800000e+00
5.000000e-01 0.000000e+00 1.850000e+00
4.974347e-01 5.058416e-02 1.850000e+00
4.897650e-01 1.006493e-01 1.850000e+00
4.770696e-01 1.496816e-01 1.850000e+00
4.594789e-01 1.971779e-01 1.850000e+00
4.371733e-01 2.426510e-01 1.850000e+00
4.103817e-01 2.856341e-01 1.850000e+00
3.793791e-01 3.256862e-01 1.850000e+00
3.444835e-01 3.623964e-01 1.850000e+00
3.060530e-01 3.953879e-01 1.850000e+00
2.644820e-01 4.243221e-01 1.850000e+00
2.201971e-01 4.489023e-01 1.850000e+00
1.736526e-01 4.688761e-01 1.850000e+00
1.253263e-01 4.840386e-01 1.850000e+00
7.571389e-02 4.942342e-01 1.850000e+00
2.532458e-02 4.993583e-01 1.850000e+00
-2.532458e-02 4.993583e-01 1.850000e+00
-7.571389e-02 4.942342e-01 1.850000e+00
-1.253263e-01 4.840386e-01 1.850000e+00
-1.736526e-01 4.688761e-01 1.850000e+00
-2.201971e-01 4.489023e-01 1.850000e+00
-2.644820e-01 4.243221e-01 1.850000e+00
-3.060530e-01 3.953879e-01 1.850000e+00
-3.444835e-01 3.623964e-01 1.850000e+00
-3.793791e-01 3.256862e-01 1.850000e+00
-4.103817e-01 2.856341e-01 1.850000e+00
-4.371733e-01 2.426510e-01 1.850000e+00
-4.594789e-01 1.971779e-01 1.850000e+00
-4.770696e-01 1.496816e-01 1.850000e+00
-4.897650e-01 1.006493e-01 1.850000e+00
-4.974347e-01 5.058416e-02 1.850000e+00
-5.000000e-01 6.123234e-17 1.850000e+00
-4.974347e-01 -5.058416e-02 1.850000e+00
-4.897650e-01 -1.006493e-01 1.850000e+00
-4.770696e-01 -1.496816e-01 1.850000e+00
-4.594789e-01 -1.971779e-01 1.850000e+00
-4.371733e-01 -2.426510e-01 1.850000e+00
-4.103817e-01 -2.856341e-01 1.850000e+00
-3.793791e-01 -3.256862e-01 1.850000e+00
-3.444835e-01 -3.623964e-01 1.850000e+00
-3.060530e-01 -3.953879e-01 1.850000e+00
-2.644820e-01 -4.243221e-01 1.850000e+00
-2.201971e-01 -4.489023e-01 1.850000e+00
-1.736526e-01 -4.688761e-01 1.850000e+00
-1.253263e-01 -4.840386e-01 1.850000e+00
-7.571389e-02 -4.942342e-01 1.850000e+00
-2.532458e-02 -4.993583e-01 1.850000e+00
2.532458e-02 -4.993583e-01 1.850000e+00
7.571389e-02 -4.942342e-01 1.850000e+00
1.253263e-01 -4.840386e-01 1.850000e+00
1.736526e-01 -4.688761e-01 1.850000e+00
2.201971e-01 -4.489023e-01 1.850000e+00
2.644820e-01 -4.243221e-01 1.850000e+00
3.060530e-01 -3.953879e-01 1.850000e+00
3.444835e-01 -3.623964e-01 1.850000e+00
3.793791e-01 -3.256862e-01 1.850000e+00
4.103817e-01 -2.856341e-01 1.850000e+00
4.371733e-01 -2.426510e-01 1.850000e+00
4.594789e-01 -1.971779e-01 1.850000e+00
4.770696e-01 -1.496816e-01 1.850000e+00
4.897650e-01 -1.006493e-01 1.850000e+00
4.974347e-01 -5.058416e-02 1.850000e+00
5.000000e-01 0.000000e+00 1.900000e+00
4.974347e-01 5.058416e-02 1.900000e+00
4.897650e-01 1.006493e-01 1.900000e+00
4.770696e-01 1.496816e-01 1.900000e+00
4.594789e-01 1.971779e-01 1.900000e+00
4.371733e-01 2.426510e-01 1.900000e+00
4.103817e-01 2.856341e-01 1.900000e+00
3.793791e-01 3.256862e-01 1.900000e+00
3.444835e-01 3.623964e-01 1.900000e+00
3.060530e-01 3.953879e-01 1.900000e+00
2.644820e-01 4.243221e-01 1.900000e+00
2.201971e-01 4.489023e-01 1.900000e+00
1.736526e-01 4.688761e-01 1.900000e+00
1.253263e-01 4.840386e-01 1.900000e+00
7.571389e-02 4.942342e-01 1.900000e+00
2.532458e-02 4.993583e-01 1.900000e+00
-2.532458e-02 4.993583e-01 1.900000e+00
-7.571389e-02 4.942342e-01 1.900000e+00
-1.253263e-01 4.840386e-01 1.900000e+00
-1.736526e-01 4.688761e-01 1.900000e+00
-2.201971e-01 4.489023e-01 1.900000e+00
-2.644820e-01 4.243221e-01 1.900000e+00
-3.060530e-01 3.953879e-01 1.900000e+00
-3.444835e-01 3.623964e-01 1.900000e+00
-3.793791e-01 3.256862e-01 1.900000e+00
-4.103817e-01 2.856341e-01 1.900000e+00
-4.371733e-01 2.426510e-01 1.900000e+00
-4.594789e-01 1.971779e-01 1.900000e+00
-4.770696e-01 1.496816e-01 1.900000e+00
-4.897650e-01 1.006493e-01 1.900000e+00
-4.974347e-01 5.058416e-02 1.900000e+00
-5.000000e-01 6.123234e-17 1.900000e+00
-4.974347e-01 -5.058416e-02 1.900000e+00
-4.897650e-01 -1.006493e-01 1.900000e+00
-4.770696e-01 -1.496816e-01 1.900000e+00
-4.594789e-01 -1.971779e-01 1.900000e+00
-4.371733e-01 -2.426510e-01 1.900000e+00
-4.103817e-01 -2.856341e-01 1.900000e+00
-3.793791e-01 -3.256862e-01 1.900000e+00
-3.444835e-01 -3.623964e-01 1.900000e+00
-3.060530e-01 -3.953879e-01 1.900000e+00
-2.644820e-01 -4.243221e-01 1.900000e+00
-2.201971e-01 -4.489023e-01 1.900000e+00
-1.736526e-01 -4.688761e-01 1.900000e+00
-1.253263e-01 -4.840386e-01 1.900000e+00
-7.571389e-02 -4.942342e-01 1.900000e+00
-2.532458e-02 -4.993583e-01 1.900000e+00
2.532458e-02 -4.993583e-01 1.900000e+00
7.571389e-02 -4.942342e-01 1.900000e+00
1.253263e-01 -4.840386e-01 1.900000e+00
1.736526e-01 -4.688761e-01 1.900000e+00
2.201971e-01 -4.489023e-01 1.900000e+00
2.644820e-01 -4.243221e-01 1.900000e+00
3.060530e-01 -3.953879e-01 1.900000e+00
3.444835e-01 -3.623964e-01 1.900000e+00
3.793791e-01 -3.256862e-01 1.900000e+00
4.103817e-01 -2.856341e-01 1.900000e+00
4.371733e-01 -2.426510e-01 1.900000e+00
4.594789e-01 -1.971779e-01 1.900000e+00
4.770696e-01 -1.496816e-01 1.900000e+00
4.897650e-01 -1.006493e-01 1.900000e+00
4.974347e-01 -5.058416e-02 1.900000e+00
5.000000e-01 0.000000e+00 1.950000e+00
4.974347e-01 5.058416e-02 1.950000e+00
4.897650e-01 1.006493e-01 1.950000e+00
4.770696e-01 1.496816e-01 1.950000e+00
4.594789e-01 1.971779e-01 1.950000e+00
4.371733e-01 2.426510e-01 1.950000e+00
4.103817e-01 2.856341e-01 1.950000e+00
3.793791e-01 3.256862e-01 1.950000e+00
3.444835e-01 3.623964e-01 1.950000e+00
3.060530e-01 3.953879e-01 1.950000e+00
2.644820e-01 4.243221e-01 1.950000e+00
2.201971e-01 4.489023e-01 1.950000e+00
1.736526e-01 4.688761e-01 1.950000e+00
1.253263e-01 4.840386e-01 1.950000e+00
7.571389e-02 4.942342e-01 1.950000e+00
2.532458e-02 4.993583e-01 1.950000e+00
-2.532458e-02 4.993583e-01 1.950000e+00
-7.571389e-02 4.942342e-01 1.950000e+00
-1.253263e-01 4.840386e-01 1.950000e+00
-1.736526e-01 4.688761e-01 1.950000e+00
-2.201971e-01 4.489023e-01 1.950000e+00
-2.644820e-01 4.243221e-01 1.950000e+00
-3.060530e-01 3.953879e-01 1.950000e+00
-3.444835e-01 3.623964e-01 1.950000e+00
-3.793791e-01 3.256862e-01 1.950000e+00
-4.103817e-01 2.856341e-01 1.950000e+00
-4.371733e-01 2.426510e-01 1.950000e+00
-4.594789e-01 1.971779e-01 1.950000e+00
-4.770696e-01 1.496816e-01 1.950000e+00
-4.897650e-01 1.006493e-01 1.950000e+00
-4.974347e-01 5.058416e-02 1.950000e+00
-5.000000e-01 6.123234e-17 1.950000e+00
-4.974347e-01 -5.058416e-02 1.950000e+00
-4.897650e-01 -1.006493e-01 1.950000e+00
-4.770696e-01 -1.496816e-01 1.950000e+00
-4.594789e-01 -1.971779e-01 1.950000e+00
-4.371733e-01 -2.426510e-01 1.950000e+00
-4.103817e-01 -2.856341e-01 1.950000e+00
-3.793791e-01 -3.256862e-01 1.950000e+00
-3.444835e-01 -3.623964e-01 1.950000e+00
-3.060530e-01 -3.953879e-01 1.950000e+00
-2.644820e-01 -4.243221e-01 1.950000e+00
-2.201971e-01 -4.489023e-01 1.950000e+00
-1.736526e-01 -4.688761e-01 1.950000e+00
-1.253263e-01 -4.840386e-01 1.950000e+00
-7.571389e-02 -4.942342e-01 1.950000e+00
-2.532458e-02 -4.993583e-01 1.950000e+00
2.532458e-02 -4.993583e-01 1.950000e+00
7.571389e-02 -4.942342e-01 1.950000e+00
1.253263e-01 -4.840386e-01 1.950000e+00
1.736526e-01 -4.688761e-01 1.950000e+00
2.201971e-01 -4.489023e-01 1.950000e+00
2.644820e-01 -4.243221e-01 1.950000e+00
3.060530e-01 -3.953879e-01 1.950000e+00
3.444835e-01 -3.623964e-01 1.950000e+00
3.793791e-01 -3.256862e-01 1.950000e+00
4.103817e-01 -2.856341e-01 1.950000e+00
4.371733e-01 -2.426510e-01 1.950000e+00
4.594789e-01 -1.971779e-01 1.950000e+00
4.770696e-01 -1.496816e-01 1.950000e+00
4.897650e-01 -1.006493e-01 1.950000e+00
4.974347e-01 -5.058416e-02 1.950000e+00
