1.250000e-02 0.000000e+00 5.000000e-02
2.500000e-02 0.000000e+00 1.000000e-01
-1.250000e-02 2.165064e-02 1.000000e-01
-1.250000e-02 -2.165064e-02 1.000000e-01
3.750000e-02 0.000000e+00 1.500000e-01
2.296213e-18 3.750000e-02 1.500000e-01
-3.750000e-02 4.592425e-18 1.500000e-01
-6.888638e-18 -3.750000e-02 1.500000e-01
5.000000e-02 0.000000e+00 2.000000e-01
2.500000e-02 4.330127e-02 2.000000e-01
-2.500000e-02 4.330127e-02 2.000000e-01
-5.000000e-02 6.123234e-18 2.000000e-01
-2.500000e-02 -4.330127e-02 2.000000e-01
2.500000e-02 -4.330127e-02 2.000000e-01
6.250000e-02 0.000000e+00 2.500000e-01
3.896811e-02 4.886447e-02 2.500000e-01
-1.390756e-02 6.093299e-02 2.500000e-01
-5.631055e-02 2.711773e-02 2.500000e-01
-5.631055e-02 -2.711773e-02 2.500000e-01
-1.390756e-02 -6.093299e-02 2.500000e-01
3.896811e-02 -4.886447e-02 2.500000e-01
7.500000e-02 0.000000e+00 3.000000e-01
5.745333e-02 4.820907e-02 3.000000e-01
1.302361e-02 7.386058e-02 3.000000e-01
-3.750000e-02 6.495191e-02 3.000000e-01
-7.047695e-02 2.565151e-02 3.000000e-01
-7.047695e-02 -2.565151e-02 3.000000e-01
-3.750000e-02 -6.495191e-02 3.000000e-01
1.302361e-02 -7.386058e-02 3.000000e-01
5.745333e-02 -4.820907e-02 3.000000e-01
8.750000e-02 0.000000e+00 3.500000e-01
7.078899e-02 5.143121e-02 3.500000e-01
2.703899e-02 8.321745e-02 3.500000e-01
-2.703899e-02 8.321745e-02 3.500000e-01
-7.078899e-02 5.143121e-02 3.500000e-01
-8.750000e-02 1.071566e-17 3.500000e-01
-7.078899e-02 -5.143121e-02 3.500000e-01
-2.703899e-02 -8.321745e-02 3.500000e-01
2.703899e-02 -8.321745e-02 3.500000e-01
7.078899e-02 -5.143121e-02 3.500000e-01
1.000000e-01 0.000000e+00 4.000000e-01
8.660254e-02 5.000000e-02 4.000000e-01
5.000000e-02 8.660254e-02 4.000000e-01
6.123234e-18 1.000000e-01 4.000000e-01
-5.000000e-02 8.660254e-02 4.000000e-01
-8.660254e-02 5.000000e-02 4.000000e-01
-1.000000e-01 1.224647e-17 4.000000e-01
-8.660254e-02 -5.000000e-02 4.000000e-01
-5.000000e-02 -8.660254e-02 4.000000e-01
-1.836970e-17 -1.000000e-01 4.000000e-01
5.000000e-02 -8.660254e-02 4.000000e-01
8.660254e-02 -5.000000e-02 4.000000e-01
1.125000e-01 0.000000e+00 4.500000e-01
1.013590e-01 4.881192e-02 4.500000e-01
7.014260e-02 8.795604e-02 4.500000e-01
2.503361e-02 1.096794e-01 4.500000e-01
-2.503361e-02 1.096794e-01 4.500000e-01
-7.014260e-02 8.795604e-02 4.500000e-01
-1.013590e-01 4.881192e-02 4.500000e-01
-1.125000e-01 1.377728e-17 4.500000e-01
-1.013590e-01 -4.881192e-02 4.500000e-01
-7.014260e-02 -8.795604e-02 4.500000e-01
-2.503361e-02 -1.096794e-01 4.500000e-01
2.503361e-02 -1.096794e-01 4.500000e-01
7.014260e-02 -8.795604e-02 4.500000e-01
1.013590e-01 -4.881192e-02 4.500000e-01
1.250000e-01 0.000000e+00 5.000000e-01
1.141932e-01 5.084208e-02 5.000000e-01
8.364133e-02 9.289310e-02 5.000000e-01
3.862712e-02 1.188821e-01 5.000000e-01
-1.306606e-02 1.243152e-01 5.000000e-01
-6.250000e-02 1.082532e-01 5.000000e-01
-1.011271e-01 7.347316e-02 5.000000e-01
-1.222685e-01 2.598896e-02 5.000000e-01
-1.222685e-01 -2.598896e-02 5.000000e-01
-1.011271e-01 -7.347316e-02 5.000000e-01
-6.250000e-02 -1.082532e-01 5.000000e-01
-1.306606e-02 -1.243152e-01 5.000000e-01
3.862712e-02 -1.188821e-01 5.000000e-01
8.364133e-02 -9.289310e-02 5.000000e-01
1.141932e-01 -5.084208e-02 5.000000e-01
1.375000e-01 0.000000e+00 5.500000e-01
1.282149e-01 4.967073e-02 5.500000e-01
1.016137e-01 9.263315e-02 5.500000e-01
6.128902e-02 1.230850e-01 5.500000e-01
1.268690e-02 1.369134e-01 5.500000e-01
-3.762866e-02 1.322510e-01 5.500000e-01
-8.286226e-02 1.097274e-01 5.500000e-01
-1.169049e-01 7.238442e-02 5.500000e-01
-1.351588e-01 2.526556e-02 5.500000e-01
-1.351588e-01 -2.526556e-02 5.500000e-01
-1.169049e-01 -7.238442e-02 5.500000e-01
-8.286226e-02 -1.097274e-01 5.500000e-01
-3.762866e-02 -1.322510e-01 5.500000e-01
1.268690e-02 -1.369134e-01 5.500000e-01
6.128902e-02 -1.230850e-01 5.500000e-01
1.016137e-01 -9.263315e-02 5.500000e-01
1.282149e-01 -4.967073e-02 5.500000e-01
1.500000e-01 0.000000e+00 6.000000e-01
1.409539e-01 5.130302e-02 6.000000e-01
1.149067e-01 9.641814e-02 6.000000e-01
7.500000e-02 1.299038e-01 6.000000e-01
2.604723e-02 1.477212e-01 6.000000e-01
-2.604723e-02 1.477212e-01 6.000000e-01
-7.500000e-02 1.299038e-01 6.000000e-01
-1.149067e-01 9.641814e-02 6.000000e-01
-1.409539e-01 5.130302e-02 6.000000e-01
-1.500000e-01 1.836970e-17 6.000000e-01
-1.409539e-01 -5.130302e-02 6.000000e-01
-1.149067e-01 -9.641814e-02 6.000000e-01
-7.500000e-02 -1.299038e-01 6.000000e-01
-2.604723e-02 -1.477212e-01 6.000000e-01
2.604723e-02 -1.477212e-01 6.000000e-01
7.500000e-02 -1.299038e-01 6.000000e-01
1.149067e-01 -9.641814e-02 6.000000e-01
1.409539e-01 -5.130302e-02 6.000000e-01
1.625000e-01 0.000000e+00 6.500000e-01
1.545467e-01 5.021526e-02 6.500000e-01
1.314653e-01 9.551510e-02 6.500000e-01
9.551510e-02 1.314653e-01 6.500000e-01
5.021526e-02 1.545467e-01 6.500000e-01
9.950255e-18 1.625000e-01 6.500000e-01
-5.021526e-02 1.545467e-01 6.500000e-01
-9.551510e-02 1.314653e-01 6.500000e-01
-1.314653e-01 9.551510e-02 6.500000e-01
-1.545467e-01 5.021526e-02 6.500000e-01
-1.625000e-01 1.990051e-17 6.500000e-01
-1.545467e-01 -5.021526e-02 6.500000e-01
-1.314653e-01 -9.551510e-02 6.500000e-01
-9.551510e-02 -1.314653e-01 6.500000e-01
-5.021526e-02 -1.545467e-01 6.500000e-01
-2.985077e-17 -1.625000e-01 6.500000e-01
5.021526e-02 -1.545467e-01 6.500000e-01
9.551510e-02 -1.314653e-01 6.500000e-01
1.314653e-01 -9.551510e-02 6.500000e-01
1.545467e-01 -5.021526e-02 6.500000e-01
1.750000e-01 0.000000e+00 7.000000e-01
1.672252e-01 5.158216e-02 7.000000e-01
1.445918e-01 9.858101e-02 7.000000e-01
1.091107e-01 1.368205e-01 7.000000e-01
6.393468e-02 1.629029e-01 7.000000e-01
1.307777e-02 1.745107e-01 7.000000e-01
-3.894116e-02 1.706124e-01 7.000000e-01
-8.750000e-02 1.515544e-01 7.000000e-01
-1.282841e-01 1.190302e-01 7.000000e-01
-1.576696e-01 7.592965e-02 7.000000e-01
-1.730454e-01 2.608240e-02 7.000000e-01
-1.730454e-01 -2.608240e-02 7.000000e-01
-1.576696e-01 -7.592965e-02 7.000000e-01
-1.282841e-01 -1.190302e-01 7.000000e-01
-8.750000e-02 -1.515544e-01 7.000000e-01
-3.894116e-02 -1.706124e-01 7.000000e-01
1.307777e-02 -1.745107e-01 7.000000e-01
6.393468e-02 -1.629029e-01 7.000000e-01
1.091107e-01 -1.368205e-01 7.000000e-01
1.445918e-01 -9.858101e-02 7.000000e-01
1.672252e-01 -5.158216e-02 7.000000e-01
1.875000e-01 0.000000e+00 7.500000e-01
1.805470e-01 5.058689e-02 7.500000e-01
1.602036e-01 9.742199e-02 7.500000e-01
1.279787e-01 1.370317e-01 7.500000e-01
8.626219e-02 1.664785e-01 7.500000e-01
3.814800e-02 1.835783e-01 7.500000e-01
-1.279545e-02 1.870629e-01 7.500000e-01
-6.278993e-02 1.766739e-01 7.500000e-01
-1.081276e-01 1.531819e-01 7.500000e-01
-1.454459e-01 1.183290e-01 7.500000e-01
-1.719771e-01 7.470020e-02 7.500000e-01
-1.857536e-01 2.553125e-02 7.500000e-01
-1.857536e-01 -2.553125e-02 7.500000e-01
-1.719771e-01 -7.470020e-02 7.500000e-01
-1.454459e-01 -1.183290e-01 7.500000e-01
-1.081276e-01 -1.531819e-01 7.500000e-01
-6.278993e-02 -1.766739e-01 7.500000e-01
-1.279545e-02 -1.870629e-01 7.500000e-01
3.814800e-02 -1.835783e-01 7.500000e-01
8.626219e-02 -1.664785e-01 7.500000e-01
1.279787e-01 -1.370317e-01 7.500000e-01
1.602036e-01 -9.742199e-02 7.500000e-01
1.805470e-01 -5.058689e-02 7.500000e-01
2.000000e-01 0.000000e+00 8.000000e-01
1.937166e-01 4.973798e-02 8.000000e-01
1.752613e-01 9.635073e-02 8.000000e-01
1.457937e-01 1.369094e-01 8.000000e-01
1.071654e-01 1.688656e-01 8.000000e-01
6.180340e-02 1.902113e-01 8.000000e-01
1.255810e-02 1.996053e-01 8.000000e-01
-3.747626e-02 1.964575e-01 8.000000e-01
-8.515586e-02 1.809654e-01 8.000000e-01
-1.274848e-01 1.541026e-01 8.000000e-01
-1.618034e-01 1.175571e-01 8.000000e-01
-1.859553e-01 7.362491e-02 8.000000e-01
-1.984229e-01 2.506665e-02 8.000000e-01
-1.984229e-01 -2.506665e-02 8.000000e-01
-1.859553e-01 -7.362491e-02 8.000000e-01
-1.618034e-01 -1.175571e-01 8.000000e-01
-1.274848e-01 -1.541026e-01 8.000000e-01
-8.515586e-02 -1.809654e-01 8.000000e-01
-3.747626e-02 -1.964575e-01 8.000000e-01
1.255810e-02 -1.996053e-01 8.000000e-01
6.180340e-02 -1.902113e-01 8.000000e-01
1.071654e-01 -1.688656e-01 8.000000e-01
1.457937e-01 -1.369094e-01 8.000000e-01
1.752613e-01 -9.635073e-02 8.000000e-01
1.937166e-01 -4.973798e-02 8.000000e-01
2.125000e-01 0.000000e+00 8.500000e-01
2.063251e-01 5.085458e-02 8.500000e-01
1.881594e-01 9.875367e-02 8.500000e-01
1.590585e-01 1.409136e-01 8.500000e-01
1.207138e-01 1.748841e-01 8.500000e-01
7.535354e-02 1.986910e-01 8.500000e-01
2.561404e-02 2.109506e-01 8.500000e-01
-2.561404e-02 2.109506e-01 8.500000e-01
-7.535354e-02 1.986910e-01 8.500000e-01
-1.207138e-01 1.748841e-01 8.500000e-01
-1.590585e-01 1.409136e-01 8.500000e-01
-1.881594e-01 9.875367e-02 8.500000e-01
-2.063251e-01 5.085458e-02 8.500000e-01
-2.125000e-01 2.602374e-17 8.500000e-01
-2.063251e-01 -5.085458e-02 8.500000e-01
-1.881594e-01 -9.875367e-02 8.500000e-01
-1.590585e-01 -1.409136e-01 8.500000e-01
-1.207138e-01 -1.748841e-01 8.500000e-01
-7.535354e-02 -1.986910e-01 8.500000e-01
-2.561404e-02 -2.109506e-01 8.500000e-01
2.561404e-02 -2.109506e-01 8.500000e-01
7.535354e-02 -1.986910e-01 8.500000e-01
1.207138e-01 -1.748841e-01 8.500000e-01
1.590585e-01 -1.409136e-01 8.500000e-01
1.881594e-01 -9.875367e-02 8.500000e-01
2.063251e-01 -5.085458e-02 8.500000e-01
2.250000e-01 0.000000e+00 9.000000e-01
2.193588e-01 5.006721e-02 9.000000e-01
2.027180e-01 9.762384e-02 9.000000e-01
1.759121e-01 1.402852e-01 9.000000e-01
1.402852e-01 1.759121e-01 9.000000e-01
9.762384e-02 2.027180e-01 9.000000e-01
5.006721e-02 2.193588e-01 9.000000e-01
1.377728e-17 2.250000e-01 9.000000e-01
-5.006721e-02 2.193588e-01 9.000000e-01
-9.762384e-02 2.027180e-01 9.000000e-01
-1.402852e-01 1.759121e-01 9.000000e-01
-1.759121e-01 1.402852e-01 9.000000e-01
-2.027180e-01 9.762384e-02 9.000000e-01
-2.193588e-01 5.006721e-02 9.000000e-01
-2.250000e-01 2.755455e-17 9.000000e-01
-2.193588e-01 -5.006721e-02 9.000000e-01
-2.027180e-01 -9.762384e-02 9.000000e-01
-1.759121e-01 -1.402852e-01 9.000000e-01
-1.402852e-01 -1.759121e-01 9.000000e-01
-9.762384e-02 -2.027180e-01 9.000000e-01
-5.006721e-02 -2.193588e-01 9.000000e-01
-4.133183e-17 -2.250000e-01 9.000000e-01
5.006721e-02 -2.193588e-01 9.000000e-01
9.762384e-02 -2.027180e-01 9.000000e-01
1.402852e-01 -1.759121e-01 9.000000e-01
1.759121e-01 -1.402852e-01 9.000000e-01
2.027180e-01 -9.762384e-02 9.000000e-01
2.193588e-01 -5.006721e-02 9.000000e-01
2.375000e-01 0.000000e+00 9.500000e-01
2.319474e-01 5.105548e-02 9.500000e-01
2.155492e-01 9.972366e-02 9.500000e-01
1.890721e-01 1.437289e-01 9.500000e-01
1.537542e-01 1.810135e-01 9.500000e-01
1.112470e-01 2.098341e-01 9.500000e-01
6.353798e-02 2.288431e-01 9.500000e-01
1.285799e-02 2.371517e-01 9.500000e-01
-3.842322e-02 2.343713e-01 9.500000e-01
-8.790781e-02 2.206320e-01 9.500000e-01
-1.332819e-01 1.965761e-01 9.500000e-01
-1.724239e-01 1.633286e-01 9.500000e-01
-2.035036e-01 1.224440e-01 9.500000e-01
-2.250676e-01 7.583411e-02 9.500000e-01
-2.361078e-01 2.567827e-02 9.500000e-01
-2.361078e-01 -2.567827e-02 9.500000e-01
-2.250676e-01 -7.583411e-02 9.500000e-01
-2.035036e-01 -1.224440e-01 9.500000e-01
-1.724239e-01 -1.633286e-01 9.500000e-01
-1.332819e-01 -1.965761e-01 9.500000e-01
-8.790781e-02 -2.206320e-01 9.500000e-01
-3.842322e-02 -2.343713e-01 9.500000e-01
1.285799e-02 -2.371517e-01 9.500000e-01
6.353798e-02 -2.288431e-01 9.500000e-01
1.112470e-01 -2.098341e-01 9.500000e-01
1.537542e-01 -1.810135e-01 9.500000e-01
1.890721e-01 -1.437289e-01 9.500000e-01
2.155492e-01 -9.972366e-02 9.500000e-01
2.319474e-01 -5.105548e-02 9.500000e-01
2.500000e-01 0.000000e+00 1.000000e+00
2.448825e-01 5.032463e-02 1.000000e+00
2.297395e-01 9.858896e-02 1.000000e+00
2.051909e-01 1.428171e-01 1.000000e+00
1.722417e-01 1.811982e-01 1.000000e+00
1.322410e-01 2.121611e-01 1.000000e+00
8.682631e-02 2.344380e-01 1.000000e+00
3.785694e-02 2.471171e-01 1.000000e+00
-1.266229e-02 2.496791e-01 1.000000e+00
-6.266313e-02 2.420193e-01 1.000000e+00
-1.100985e-01 2.244511e-01 1.000000e+00
-1.530265e-01 1.976939e-01 1.000000e+00
-1.896895e-01 1.628431e-01 1.000000e+00
-2.185867e-01 1.213255e-01 1.000000e+00
-2.385348e-01 7.484078e-02 1.000000e+00
-2.487173e-01 2.529208e-02 1.000000e+00
-2.487173e-01 -2.529208e-02 1.000000e+00
-2.385348e-01 -7.484078e-02 1.000000e+00
-2.185867e-01 -1.213255e-01 1.000000e+00
-1.896895e-01 -1.628431e-01 1.000000e+00
-1.530265e-01 -1.976939e-01 1.000000e+00
-1.100985e-01 -2.244511e-01 1.000000e+00
-6.266313e-02 -2.420193e-01 1.000000e+00
-1.266229e-02 -2.496791e-01 1.000000e+00
3.785694e-02 -2.471171e-01 1.000000e+00
8.682631e-02 -2.344380e-01 1.000000e+00
1.322410e-01 -2.121611e-01 1.000000e+00
1.722417e-01 -1.811982e-01 1.000000e+00
2.051909e-01 -1.428171e-01 1.000000e+00
2.297395e-01 -9.858896e-02 1.000000e+00
2.448825e-01 -5.032463e-02 1.000000e+00
2.625000e-01 0.000000e+00 1.050000e+00
2.574561e-01 5.121121e-02 1.050000e+00
2.425184e-01 1.004544e-01 1.050000e+00
2.182608e-01 1.458372e-01 1.050000e+00
1.856155e-01 1.856155e-01 1.050000e+00
1.458372e-01 2.182608e-01 1.050000e+00
1.004544e-01 2.425184e-01 1.050000e+00
5.121121e-02 2.574561e-01 1.050000e+00
1.607349e-17 2.625000e-01 1.050000e+00
-5.121121e-02 2.574561e-01 1.050000e+00
-1.004544e-01 2.425184e-01 1.050000e+00
-1.458372e-01 2.182608e-01 1.050000e+00
-1.856155e-01 1.856155e-01 1.050000e+00
-2.182608e-01 1.458372e-01 1.050000e+00
-2.425184e-01 1.004544e-01 1.050000e+00
-2.574561e-01 5.121121e-02 1.050000e+00
-2.625000e-01 3.214698e-17 1.050000e+00
-2.574561e-01 -5.121121e-02 1.050000e+00
-2.425184e-01 -1.004544e-01 1.050000e+00
-2.182608e-01 -1.458372e-01 1.050000e+00
-1.856155e-01 -1.856155e-01 1.050000e+00
-1.458372e-01 -2.182608e-01 1.050000e+00
-1.004544e-01 -2.425184e-01 1.050000e+00
-5.121121e-02 -2.574561e-01 1.050000e+00
-4.822047e-17 -2.625000e-01 1.050000e+00
5.121121e-02 -2.574561e-01 1.050000e+00
1.004544e-01 -2.425184e-01 1.050000e+00
1.458372e-01 -2.182608e-01 1.050000e+00
1.856155e-01 -1.856155e-01 1.050000e+00
2.182608e-01 -1.458372e-01 1.050000e+00
2.425184e-01 -1.004544e-01 1.050000e+00
2.574561e-01 -5.121121e-02 1.050000e+00
2.750000e-01 0.000000e+00 1.100000e+00
2.703176e-01 5.053112e-02 1.100000e+00
2.564299e-01 9.934146e-02 1.100000e+00
2.338097e-01 1.447688e-01 1.100000e+00
2.032275e-01 1.852663e-01 1.100000e+00
1.657245e-01 2.194547e-01 1.100000e+00
1.225780e-01 2.461699e-01 1.100000e+00
7.525732e-02 2.645021e-01 1.100000e+00
2.537380e-02 2.738269e-01 1.100000e+00
-2.537380e-02 2.738269e-01 1.100000e+00
-7.525732e-02 2.645021e-01 1.100000e+00
-1.225780e-01 2.461699e-01 1.100000e+00
-1.657245e-01 2.194547e-01 1.100000e+00
-2.032275e-01 1.852663e-01 1.100000e+00
-2.338097e-01 1.447688e-01 1.100000e+00
-2.564299e-01 9.934146e-02 1.100000e+00
-2.703176e-01 5.053112e-02 1.100000e+00
-2.750000e-01 3.367779e-17 1.100000e+00
-2.703176e-01 -5.053112e-02 1.100000e+00
-2.564299e-01 -9.934146e-02 1.100000e+00
-2.338097e-01 -1.447688e-01 1.100000e+00
-2.032275e-01 -1.852663e-01 1.100000e+00
-1.657245e-01 -2.194547e-01 1.100000e+00
-1.225780e-01 -2.461699e-01 1.100000e+00
-7.525732e-02 -2.645021e-01 1.100000e+00
-2.537380e-02 -2.738269e-01 1.100000e+00
2.537380e-02 -2.738269e-01 1.100000e+00
7.525732e-02 -2.645021e-01 1.100000e+00
1.225780e-01 -2.461699e-01 1.100000e+00
1.657245e-01 -2.194547e-01 1.100000e+00
2.032275e-01 -1.852663e-01 1.100000e+00
2.338097e-01 -1.447688e-01 1.100000e+00
2.564299e-01 -9.934146e-02 1.100000e+00
2.703176e-01 -5.053112e-02 1.100000e+00
2.875000e-01 0.000000e+00 1.150000e+00
2.828798e-01 5.133511e-02 1.150000e+00
2.691675e-01 1.010203e-01 1.150000e+00
2.468040e-01 1.474585e-01 1.150000e+00
2.165080e-01 1.891574e-01 1.150000e+00
1.792533e-01 2.247766e-01 1.150000e+00
1.362372e-01 2.531712e-01 1.150000e+00
8.884239e-02 2.734287e-01 1.150000e+00
3.859206e-02 2.848981e-01 1.150000e+00
-1.289864e-02 2.872105e-01 1.150000e+00
-6.397477e-02 2.802918e-01 1.150000e+00
-1.129947e-01 2.643642e-01 1.150000e+00
-1.583829e-01 2.399398e-01 1.150000e+00
-1.986805e-01 2.078035e-01 1.150000e+00
-2.325924e-01 1.689883e-01 1.150000e+00
-2.590285e-01 1.247416e-01 1.150000e+00
-2.771393e-01 7.648559e-02 1.150000e+00
-2.863426e-01 2.577130e-02 1.150000e+00
-2.863426e-01 -2.577130e-02 1.150000e+00
-2.771393e-01 -7.648559e-02 1.150000e+00
-2.590285e-01 -1.247416e-01 1.150000e+00
-2.325924e-01 -1.689883e-01 1.150000e+00
-1.986805e-01 -2.078035e-01 1.150000e+00
-1.583829e-01 -2.399398e-01 1.150000e+00
-1.129947e-01 -2.643642e-01 1.150000e+00
-6.397477e-02 -2.802918e-01 1.150000e+00
-1.289864e-02 -2.872105e-01 1.150000e+00
3.859206e-02 -2.848981e-01 1.150000e+00
8.884239e-02 -2.734287e-01 1.150000e+00
1.362372e-01 -2.531712e-01 1.150000e+00
1.792533e-01 -2.247766e-01 1.150000e+00
2.165080e-01 -1.891574e-01 1.150000e+00
2.468040e-01 -1.474585e-01 1.150000e+00
2.691675e-01 -1.010203e-01 1.150000e+00
2.828798e-01 -5.133511e-02 1.150000e+00
3.000000e-01 0.000000e+00 1.200000e+00
2.956848e-01 5.070025e-02 1.200000e+00
2.828632e-01 9.994194e-02 1.200000e+00
2.619042e-01 1.463085e-01 1.200000e+00
2.334107e-01 1.884660e-01 1.200000e+00
1.982024e-01 2.252017e-01 1.200000e+00
1.572922e-01 2.554587e-01 1.200000e+00
1.118569e-01 2.783667e-01 1.200000e+00
6.320378e-02 2.932666e-01 1.200000e+00
1.273236e-02 2.997297e-01 1.200000e+00
-3.810535e-02 2.975701e-01 1.200000e+00
-8.784683e-02 2.868500e-01 1.200000e+00
-1.350611e-01 2.678778e-01 1.200000e+00
-1.783900e-01 2.411991e-01 1.200000e+00
-2.165868e-01 2.075817e-01 1.200000e+00
-2.485529e-01 1.679924e-01 1.200000e+00
-2.733685e-01 1.235704e-01 1.200000e+00
-2.903199e-01 7.559342e-02 1.200000e+00
-2.989192e-01 2.544178e-02 1.200000e+00
-2.989192e-01 -2.544178e-02 1.200000e+00
-2.903199e-01 -7.559342e-02 1.200000e+00
-2.733685e-01 -1.235704e-01 1.200000e+00
-2.485529e-01 -1.679924e-01 1.200000e+00
-2.165868e-01 -2.075817e-01 1.200000e+00
-1.783900e-01 -2.411991e-01 1.200000e+00
-1.350611e-01 -2.678778e-01 1.200000e+00
-8.784683e-02 -2.868500e-01 1.200000e+00
-3.810535e-02 -2.975701e-01 1.200000e+00
1.273236e-02 -2.997297e-01 1.200000e+00
6.320378e-02 -2.932666e-01 1.200000e+00
1.118569e-01 -2.783667e-01 1.200000e+00
1.572922e-01 -2.554587e-01 1.200000e+00
1.982024e-01 -2.252017e-01 1.200000e+00
2.334107e-01 -1.884660e-01 1.200000e+00
2.619042e-01 -1.463085e-01 1.200000e+00
2.828632e-01 -9.994194e-02 1.200000e+00
2.956848e-01 -5.070025e-02 1.200000e+00
3.125000e-01 0.000000e+00 1.250000e+00
3.084532e-01 5.012853e-02 1.250000e+00
2.964176e-01 9.895875e-02 1.250000e+00
2.767050e-01 1.452260e-01 1.250000e+00
2.498259e-01 1.877320e-01 1.250000e+00
2.164764e-01 2.253758e-01 1.250000e+00
1.775202e-01 2.571825e-01 1.250000e+00
1.339664e-01 2.823283e-01 1.250000e+00
8.694296e-02 3.001619e-01 1.250000e+00
3.766771e-02 3.102215e-01 1.250000e+00
-1.258311e-02 3.122466e-01 1.250000e+00
-6.250803e-02 3.061846e-01 1.250000e+00
-1.108140e-01 2.921926e-01 1.250000e+00
-1.562500e-01 2.706329e-01 1.250000e+00
-1.976392e-01 2.420641e-01 1.250000e+00
-2.339096e-01 2.072258e-01 1.250000e+00
-2.641219e-01 1.670206e-01 1.250000e+00
-2.874936e-01 1.224896e-01 1.250000e+00
-3.034193e-01 7.478615e-02 1.250000e+00
-3.114867e-01 2.514580e-02 1.250000e+00
-3.114867e-01 -2.514580e-02 1.250000e+00
-3.034193e-01 -7.478615e-02 1.250000e+00
-2.874936e-01 -1.224896e-01 1.250000e+00
-2.641219e-01 -1.670206e-01 1.250000e+00
-2.339096e-01 -2.072258e-01 1.250000e+00
-1.976392e-01 -2.420641e-01 1.250000e+00
-1.562500e-01 -2.706329e-01 1.250000e+00
-1.108140e-01 -2.921926e-01 1.250000e+00
-6.250803e-02 -3.061846e-01 1.250000e+00
-1.258311e-02 -3.122466e-01 1.250000e+00
3.766771e-02 -3.102215e-01 1.250000e+00
8.694296e-02 -3.001619e-01 1.250000e+00
1.339664e-01 -2.823283e-01 1.250000e+00
1.775202e-01 -2.571825e-01 1.250000e+00
2.164764e-01 -2.253758e-01 1.250000e+00
2.498259e-01 -1.877320e-01 1.250000e+00
2.767050e-01 -1.452260e-01 1.250000e+00
2.964176e-01 -9.895875e-02 1.250000e+00
3.084532e-01 -5.012853e-02 1.250000e+00
3.250000e-01 0.000000e+00 1.300000e+00
3.209987e-01 5.084120e-02 1.300000e+00
3.090934e-01 1.004305e-01 1.300000e+00
2.895771e-01 1.475469e-01 1.300000e+00
2.629305e-01 1.910302e-01 1.300000e+00
2.298097e-01 2.298097e-01 1.300000e+00
1.910302e-01 2.629305e-01 1.300000e+00
1.475469e-01 2.895771e-01 1.300000e+00
1.004305e-01 3.090934e-01 1.300000e+00
5.084120e-02 3.209987e-01 1.300000e+00
1.990051e-17 3.250000e-01 1.300000e+00
-5.084120e-02 3.209987e-01 1.300000e+00
-1.004305e-01 3.090934e-01 1.300000e+00
-1.475469e-01 2.895771e-01 1.300000e+00
-1.910302e-01 2.629305e-01 1.300000e+00
-2.298097e-01 2.298097e-01 1.300000e+00
-2.629305e-01 1.910302e-01 1.300000e+00
-2.895771e-01 1.475469e-01 1.300000e+00
-3.090934e-01 1.004305e-01 1.300000e+00
-3.209987e-01 5.084120e-02 1.300000e+00
-3.250000e-01 3.980102e-17 1.300000e+00
-3.209987e-01 -5.084120e-02 1.300000e+00
-3.090934e-01 -1.004305e-01 1.300000e+00
-2.895771e-01 -1.475469e-01 1.300000e+00
-2.629305e-01 -1.910302e-01 1.300000e+00
-2.298097e-01 -2.298097e-01 1.300000e+00
-1.910302e-01 -2.629305e-01 1.300000e+00
-1.475469e-01 -2.895771e-01 1.300000e+00
-1.004305e-01 -3.090934e-01 1.300000e+00
-5.084120e-02 -3.209987e-01 1.300000e+00
-5.970153e-17 -3.250000e-01 1.300000e+00
5.084120e-02 -3.209987e-01 1.300000e+00
1.004305e-01 -3.090934e-01 1.300000e+00
1.475469e-01 -2.895771e-01 1.300000e+00
1.910302e-01 -2.629305e-01 1.300000e+00
2.298097e-01 -2.298097e-01 1.300000e+00
2.629305e-01 -1.910302e-01 1.300000e+00
2.895771e-01 -1.475469e-01 1.300000e+00
3.090934e-01 -1.004305e-01 1.300000e+00
3.209987e-01 -5.084120e-02 1.300000e+00
3.375000e-01 0.000000e+00 1.350000e+00
3.337304e-01 5.030176e-02 1.350000e+00
3.225058e-01 9.947987e-02 1.350000e+00
3.040770e-01 1.464358e-01 1.350000e+00
2.788556e-01 1.901205e-01 1.350000e+00
2.474050e-01 2.295583e-01 1.350000e+00
2.104278e-01 2.638681e-01 1.350000e+00
1.687500e-01 2.922836e-01 1.350000e+00
1.233026e-01 3.141699e-01 1.350000e+00
7.510082e-02 3.290382e-01 1.350000e+00
2.522141e-02 3.365563e-01 1.350000e+00
-2.522141e-02 3.365563e-01 1.350000e+00
-7.510082e-02 3.290382e-01 1.350000e+00
-1.233026e-01 3.141699e-01 1.350000e+00
-1.687500e-01 2.922836e-01 1.350000e+00
-2.104278e-01 2.638681e-01 1.350000e+00
-2.474050e-01 2.295583e-01 1.350000e+00
-2.788556e-01 1.901205e-01 1.350000e+00
-3.040770e-01 1.464358e-01 1.350000e+00
-3.225058e-01 9.947987e-02 1.350000e+00
-3.337304e-01 5.030176e-02 1.350000e+00
-3.375000e-01 4.133183e-17 1.350000e+00
-3.337304e-01 -5.030176e-02 1.350000e+00
-3.225058e-01 -9.947987e-02 1.350000e+00
-3.040770e-01 -1.464358e-01 1.350000e+00
-2.788556e-01 -1.901205e-01 1.350000e+00
-2.474050e-01 -2.295583e-01 1.350000e+00
-2.104278e-01 -2.638681e-01 1.350000e+00
-1.687500e-01 -2.922836e-01 1.350000e+00
-1.233026e-01 -3.141699e-01 1.350000e+00
-7.510082e-02 -3.290382e-01 1.350000e+00
-2.522141e-02 -3.365563e-01 1.350000e+00
2.522141e-02 -3.365563e-01 1.350000e+00
7.510082e-02 -3.290382e-01 1.350000e+00
1.233026e-01 -3.141699e-01 1.350000e+00
1.687500e-01 -2.922836e-01 1.350000e+00
2.104278e-01 -2.638681e-01 1.350000e+00
2.474050e-01 -2.295583e-01 1.350000e+00
2.788556e-01 -1.901205e-01 1.350000e+00
3.040770e-01 -1.464358e-01 1.350000e+00
3.225058e-01 -9.947987e-02 1.350000e+00
3.337304e-01 -5.030176e-02 1.350000e+00
3.500000e-01 0.000000e+00 1.400000e+00
3.462702e-01 5.096041e-02 1.400000e+00
3.351602e-01 1.008347e-01 1.400000e+00
3.169069e-01 1.485598e-01 1.400000e+00
2.918992e-01 1.931187e-01 1.400000e+00
2.606703e-01 2.335616e-01 1.400000e+00
2.238856e-01 2.690265e-01 1.400000e+00
1.823291e-01 2.987576e-01 1.400000e+00
1.368867e-01 3.221212e-01 1.400000e+00
8.852668e-02 3.386193e-01 1.400000e+00
3.827992e-02 3.479003e-01 1.400000e+00
-1.278271e-02 3.497665e-01 1.400000e+00
-6.357290e-02 3.441780e-01 1.400000e+00
-1.130081e-01 3.312539e-01 1.400000e+00
-1.600348e-01 3.112698e-01 1.400000e+00
-2.036506e-01 2.846514e-01 1.400000e+00
-2.429260e-01 2.519662e-01 1.400000e+00
-2.770238e-01 2.139108e-01 1.400000e+00
-3.052173e-01 1.712962e-01 1.400000e+00
-3.269056e-01 1.250308e-01 1.400000e+00
-3.416266e-01 7.610056e-02 1.400000e+00
-3.490663e-01 2.554836e-02 1.400000e+00
-3.490663e-01 -2.554836e-02 1.400000e+00
-3.416266e-01 -7.610056e-02 1.400000e+00
-3.269056e-01 -1.250308e-01 1.400000e+00
-3.052173e-01 -1.712962e-01 1.400000e+00
-2.770238e-01 -2.139108e-01 1.400000e+00
-2.429260e-01 -2.519662e-01 1.400000e+00
-2.036506e-01 -2.846514e-01 1.400000e+00
-1.600348e-01 -3.112698e-01 1.400000e+00
-1.130081e-01 -3.312539e-01 1.400000e+00
-6.357290e-02 -3.441780e-01 1.400000e+00
-1.278271e-02 -3.497665e-01 1.400000e+00
3.827992e-02 -3.479003e-01 1.400000e+00
8.852668e-02 -3.386193e-01 1.400000e+00
1.368867e-01 -3.221212e-01 1.400000e+00
1.823291e-01 -2.987576e-01 1.400000e+00
2.238856e-01 -2.690265e-01 1.400000e+00
2.606703e-01 -2.335616e-01 1.400000e+00
2.918992e-01 -1.931187e-01 1.400000e+00
3.169069e-01 -1.485598e-01 1.400000e+00
3.351602e-01 -1.008347e-01 1.400000e+00
3.462702e-01 -5.096041e-02 1.400000e+00
3.625000e-01 0.000000e+00 1.450000e+00
3.589722e-01 5.045025e-02 1.450000e+00
3.484574e-01 9.991854e-02 1.450000e+00
3.311602e-01 1.474420e-01 1.450000e+00
3.074174e-01 1.920957e-01 1.450000e+00
2.776911e-01 2.330105e-01 1.450000e+00
2.425598e-01 2.693900e-01 1.450000e+00
2.027074e-01 3.005261e-01 1.450000e+00
1.589095e-01 3.258128e-01 1.450000e+00
1.120187e-01 3.447580e-01 1.450000e+00
6.294746e-02 3.569928e-01 1.450000e+00
1.265107e-02 3.622792e-01 1.450000e+00
-3.789157e-02 3.605142e-01 1.450000e+00
-8.769669e-02 3.517322e-01 1.450000e+00
-1.357949e-01 3.361041e-01 1.450000e+00
-1.812500e-01 3.139342e-01 1.450000e+00
-2.231773e-01 2.856539e-01 1.450000e+00
-2.607607e-01 2.518137e-01 1.450000e+00
-2.932687e-01 2.130722e-01 1.450000e+00
-3.200685e-01 1.701834e-01 1.450000e+00
-3.406386e-01 1.239823e-01 1.450000e+00
-3.545785e-01 7.536799e-02 1.450000e+00
-3.616170e-01 2.528672e-02 1.450000e+00
-3.616170e-01 -2.528672e-02 1.450000e+00
-3.545785e-01 -7.536799e-02 1.450000e+00
-3.406386e-01 -1.239823e-01 1.450000e+00
-3.200685e-01 -1.701834e-01 1.450000e+00
-2.932687e-01 -2.130722e-01 1.450000e+00
-2.607607e-01 -2.518137e-01 1.450000e+00
-2.231773e-01 -2.856539e-01 1.450000e+00
-1.812500e-01 -3.139342e-01 1.450000e+00
-1.357949e-01 -3.361041e-01 1.450000e+00
-8.769669e-02 -3.517322e-01 1.450000e+00
-3.789157e-02 -3.605142e-01 1.450000e+00
1.265107e-02 -3.622792e-01 1.450000e+00
6.294746e-02 -3.569928e-01 1.450000e+00
1.120187e-01 -3.447580e-01 1.450000e+00
1.589095e-01 -3.258128e-01 1.450000e+00
2.027074e-01 -3.005261e-01 1.450000e+00
2.425598e-01 -2.693900e-01 1.450000e+00
2.776911e-01 -2.330105e-01 1.450000e+00
3.074174e-01 -1.920957e-01 1.450000e+00
3.311602e-01 -1.474420e-01 1.450000e+00
3.484574e-01 -9.991854e-02 1.450000e+00
3.589722e-01 -5.045025e-02 1.450000e+00
3.750000e-01 0.000000e+00 1.500000e+00
3.715072e-01 5.106249e-02 1.500000e+00
3.610940e-01 1.011738e-01 1.500000e+00
3.439542e-01 1.494004e-01 1.500000e+00
3.204073e-01 1.948440e-01 1.500000e+00
2.908917e-01 2.366580e-01 1.500000e+00
2.559574e-01 2.740635e-01 1.500000e+00
2.162551e-01 3.063637e-01 1.500000e+00
1.725244e-01 3.329570e-01 1.500000e+00
1.255799e-01 3.533478e-01 1.500000e+00
7.629600e-02 3.671565e-01 1.500000e+00
2.559091e-02 3.741258e-01 1.500000e+00
-2.559091e-02 3.741258e-01 1.500000e+00
-7.629600e-02 3.671565e-01 1.500000e+00
-1.255799e-01 3.533478e-01 1.500000e+00
-1.725244e-01 3.329570e-01 1.500000e+00
-2.162551e-01 3.063637e-01 1.500000e+00
-2.559574e-01 2.740635e-01 1.500000e+00
-2.908917e-01 2.366580e-01 1.500000e+00
-3.204073e-01 1.948440e-01 1.500000e+00
-3.439542e-01 1.494004e-01 1.500000e+00
-3.610940e-01 1.011738e-01 1.500000e+00
-3.715072e-01 5.106249e-02 1.500000e+00
-3.750000e-01 4.592425e-17 1.500000e+00
-3.715072e-01 -5.106249e-02 1.500000e+00
-3.610940e-01 -1.011738e-01 1.500000e+00
-3.439542e-01 -1.494004e-01 1.500000e+00
-3.204073e-01 -1.948440e-01 1.500000e+00
-2.908917e-01 -2.366580e-01 1.500000e+00
-2.559574e-01 -2.740635e-01 1.500000e+00
-2.162551e-01 -3.063637e-01 1.500000e+00
-1.725244e-01 -3.329570e-01 1.500000e+00
-1.255799e-01 -3.533478e-01 1.500000e+00
-7.629600e-02 -3.671565e-01 1.500000e+00
-2.559091e-02 -3.741258e-01 1.500000e+00
2.559091e-02 -3.741258e-01 1.500000e+00
7.629600e-02 -3.671565e-01 1.500000e+00
1.255799e-01 -3.533478e-01 1.500000e+00
1.725244e-01 -3.329570e-01 1.500000e+00
2.162551e-01 -3.063637e-01 1.500000e+00
2.559574e-01 -2.740635e-01 1.500000e+00
2.908917e-01 -2.366580e-01 1.500000e+00
3.204073e-01 -1.948440e-01 1.500000e+00
3.439542e-01 -1.494004e-01 1.500000e+00
3.610940e-01 -1.011738e-01 1.500000e+00
3.715072e-01 -5.106249e-02 1.500000e+00
3.875000e-01 0.000000e+00 1.550000e+00
3.841849e-01 5.057890e-02 1.550000e+00
3.742963e-01 1.002924e-01 1.550000e+00
3.580033e-01 1.482898e-01 1.550000e+00
3.355848e-01 1.937500e-01 1.550000e+00
3.074244e-01 2.358951e-01 1.550000e+00
2.740039e-01 2.740039e-01 1.550000e+00
2.358951e-01 3.074244e-01 1.550000e+00
1.937500e-01 3.355848e-01 1.550000e+00
1.482898e-01 3.580033e-01 1.550000e+00
1.002924e-01 3.742963e-01 1.550000e+00
5.057890e-02 3.841849e-01 1.550000e+00
2.372753e-17 3.875000e-01 1.550000e+00
-5.057890e-02 3.841849e-01 1.550000e+00
-1.002924e-01 3.742963e-01 1.550000e+00
-1.482898e-01 3.580033e-01 1.550000e+00
-1.937500e-01 3.355848e-01 1.550000e+00
-2.358951e-01 3.074244e-01 1.550000e+00
-2.740039e-01 2.740039e-01 1.550000e+00
-3.074244e-01 2.358951e-01 1.550000e+00
-3.355848e-01 1.937500e-01 1.550000e+00
-3.580033e-01 1.482898e-01 1.550000e+00
-3.742963e-01 1.002924e-01 1.550000e+00
-3.841849e-01 5.057890e-02 1.550000e+00
-3.875000e-01 4.745506e-17 1.550000e+00
-3.841849e-01 -5.057890e-02 1.550000e+00
-3.742963e-01 -1.002924e-01 1.550000e+00
-3.580033e-01 -1.482898e-01 1.550000e+00
-3.355848e-01 -1.937500e-01 1.550000e+00
-3.074244e-01 -2.358951e-01 1.550000e+00
-2.740039e-01 -2.740039e-01 1.550000e+00
-2.358951e-01 -3.074244e-01 1.550000e+00
-1.937500e-01 -3.355848e-01 1.550000e+00
-1.482898e-01 -3.580033e-01 1.550000e+00
-1.002924e-01 -3.742963e-01 1.550000e+00
-5.057890e-02 -3.841849e-01 1.550000e+00
-7.118260e-17 -3.875000e-01 1.550000e+00
5.057890e-02 -3.841849e-01 1.550000e+00
1.002924e-01 -3.742963e-01 1.550000e+00
1.482898e-01 -3.580033e-01 1.550000e+00
1.937500e-01 -3.355848e-01 1.550000e+00
2.358951e-01 -3.074244e-01 1.550000e+00
2.740039e-01 -2.740039e-01 1.550000e+00
3.074244e-01 -2.358951e-01 1.550000e+00
3.355848e-01 -1.937500e-01 1.550000e+00
3.580033e-01 -1.482898e-01 1.550000e+00
3.742963e-01 -1.002924e-01 1.550000e+00
3.841849e-01 -5.057890e-02 1.550000e+00
4.000000e-01 0.000000e+00 1.600000e+00
3.968459e-01 5.013329e-02 1.600000e+00
3.874333e-01 9.947595e-02 1.600000e+00
3.719106e-01 1.472498e-01 1.600000e+00
3.505227e-01 1.927015e-01 1.600000e+00
3.236068e-01 2.351141e-01 1.600000e+00
2.915875e-01 2.738188e-01 1.600000e+00
2.549696e-01 3.082053e-01 1.600000e+00
2.143307e-01 3.377312e-01 1.600000e+00
1.703117e-01 3.619308e-01 1.600000e+00
1.236068e-01 3.804226e-01 1.600000e+00
7.495253e-02 3.929149e-01 1.600000e+00
2.511621e-02 3.992107e-01 1.600000e+00
-2.511621e-02 3.992107e-01 1.600000e+00
-7.495253e-02 3.929149e-01 1.600000e+00
-1.236068e-01 3.804226e-01 1.600000e+00
-1.703117e-01 3.619308e-01 1.600000e+00
-2.143307e-01 3.377312e-01 1.600000e+00
-2.549696e-01 3.082053e-01 1.600000e+00
-2.915875e-01 2.738188e-01 1.600000e+00
-3.236068e-01 2.351141e-01 1.600000e+00
-3.505227e-01 1.927015e-01 1.600000e+00
-3.719106e-01 1.472498e-01 1.600000e+00
-3.874333e-01 9.947595e-02 1.600000e+00
-3.968459e-01 5.013329e-02 1.600000e+00
-4.000000e-01 -1.286498e-16 1.600000e+00
-3.968459e-01 -5.013329e-02 1.600000e+00
-3.874333e-01 -9.947595e-02 1.600000e+00
-3.719106e-01 -1.472498e-01 1.600000e+00
-3.505227e-01 -1.927015e-01 1.600000e+00
-3.236068e-01 -2.351141e-01 1.600000e+00
-2.915875e-01 -2.738188e-01 1.600000e+00
-2.549696e-01 -3.082053e-01 1.600000e+00
-2.143307e-01 -3.377312e-01 1.600000e+00
-1.703117e-01 -3.619308e-01 1.600000e+00
-1.236068e-01 -3.804226e-01 1.600000e+00
-7.495253e-02 -3.929149e-01 1.600000e+00
-2.511621e-02 -3.992107e-01 1.600000e+00
2.511621e-02 -3.992107e-01 1.600000e+00
7.495253e-02 -3.929149e-01 1.600000e+00
1.236068e-01 -3.804226e-01 1.600000e+00
1.703117e-01 -3.619308e-01 1.600000e+00
2.143307e-01 -3.377312e-01 1.600000e+00
2.549696e-01 -3.082053e-01 1.600000e+00
2.915875e-01 -2.738188e-01 1.600000e+00
3.236068e-01 -2.351141e-01 1.600000e+00
3.505227e-01 -1.927015e-01 1.600000e+00
3.719106e-01 -1.472498e-01 1.600000e+00
3.874333e-01 -9.947595e-02 1.600000e+00
3.968459e-01 -5.013329e-02 1.600000e+00
4.125000e-01 0.000000e+00 1.650000e+00
4.093735e-01 5.069142e-02 1.650000e+00
4.000412e-01 1.006144e-01 1.650000e+00
3.846448e-01 1.490122e-01 1.650000e+00
3.634175e-01 1.951511e-01 1.650000e+00
3.366812e-01 2.383317e-01 1.650000e+00
3.048412e-01 2.778995e-01 1.650000e+00
2.683800e-01 3.132545e-01 1.650000e+00
2.278506e-01 3.438610e-01 1.650000e+00
1.838671e-01 3.692549e-01 1.650000e+00
1.370964e-01 3.890512e-01 1.650000e+00
8.824740e-02 4.029499e-01 1.650000e+00
3.806070e-02 4.107403e-01 1.650000e+00
-1.270296e-02 4.123044e-01 1.650000e+00
-6.327406e-02 4.076183e-01 1.650000e+00
-1.128860e-01 3.967531e-01 1.650000e+00
-1.607867e-01 3.798735e-01 1.650000e+00
-2.062500e-01 3.572355e-01 1.650000e+00
-2.485868e-01 3.291821e-01 1.650000e+00
-2.871553e-01 2.961387e-01 1.650000e+00
-3.213707e-01 2.586061e-01 1.650000e+00
-3.507146e-01 2.171533e-01 1.650000e+00
-3.747419e-01 1.724086e-01 1.650000e+00
-3.930886e-01 1.250505e-01 1.650000e+00
-4.054764e-01 7.579668e-02 1.650000e+00
-4.117176e-01 2.539387e-02 1.650000e+00
-4.117176e-01 -2.539387e-02 1.650000e+00
-4.054764e-01 -7.579668e-02 1.650000e+00
-3.930886e-01 -1.250505e-01 1.650000e+00
-3.747419e-01 -1.724086e-01 1.650000e+00
-3.507146e-01 -2.171533e-01 1.650000e+00
-3.213707e-01 -2.586061e-01 1.650000e+00
-2.871553e-01 -2.961387e-01 1.650000e+00
-2.485868e-01 -3.291821e-01 1.650000e+00
-2.062500e-01 -3.572355e-01 1.650000e+00
-1.607867e-01 -3.798735e-01 1.650000e+00
-1.128860e-01 -3.967531e-01 1.650000e+00
-6.327406e-02 -4.076183e-01 1.650000e+00
-1.270296e-02 -4.123044e-01 1.650000e+00
3.806070e-02 -4.107403e-01 1.650000e+00
8.824740e-02 -4.029499e-01 1.650000e+00
1.370964e-01 -3.890512e-01 1.650000e+00
1.838671e-01 -3.692549e-01 1.650000e+00
2.278506e-01 -3.438610e-01 1.650000e+00
2.683800e-01 -3.132545e-01 1.650000e+00
3.048412e-01 -2.778995e-01 1.650000e+00
3.366812e-01 -2.383317e-01 1.650000e+00
3.634175e-01 -1.951511e-01 1.650000e+00
3.846448e-01 -1.490122e-01 1.650000e+00
4.000412e-01 -1.006144e-01 1.650000e+00
4.093735e-01 -5.069142e-02 1.650000e+00
4.250000e-01 0.000000e+00 1.700000e+00
4.220170e-01 5.026610e-02 1.700000e+00
4.131097e-01 9.982657e-02 1.700000e+00
3.984034e-01 1.479857e-01 1.700000e+00
3.781043e-01 1.940674e-01 1.700000e+00
3.524974e-01 2.374249e-01 1.700000e+00
3.219423e-01 2.774494e-01 1.700000e+00
2.868678e-01 3.135791e-01 1.700000e+00
2.477663e-01 3.453069e-01 1.700000e+00
2.051867e-01 3.721874e-01 1.700000e+00
1.597267e-01 3.938431e-01 1.700000e+00
1.120245e-01 4.099701e-01 1.700000e+00
6.274979e-02 4.203421e-01 1.700000e+00
1.259416e-02 4.248134e-01 1.700000e+00
-3.773826e-02 4.233212e-01 1.700000e+00
-8.754091e-02 4.158865e-01 1.700000e+00
-1.361147e-01 4.026137e-01 1.700000e+00
-1.827777e-01 3.836891e-01 1.700000e+00
-2.268749e-01 3.593783e-01 1.700000e+00
-2.677873e-01 3.300226e-01 1.700000e+00
-3.049406e-01 2.960342e-01 1.700000e+00
-3.378131e-01 2.578901e-01 1.700000e+00
-3.659435e-01 2.161257e-01 1.700000e+00
-3.889369e-01 1.713275e-01 1.700000e+00
-4.064704e-01 1.241241e-01 1.700000e+00
-4.182980e-01 7.517837e-02 1.700000e+00
-4.242536e-01 2.517727e-02 1.700000e+00
-4.242536e-01 -2.517727e-02 1.700000e+00
-4.182980e-01 -7.517837e-02 1.700000e+00
-4.064704e-01 -1.241241e-01 1.700000e+00
-3.889369e-01 -1.713275e-01 1.700000e+00
-3.659435e-01 -2.161257e-01 1.700000e+00
-3.378131e-01 -2.578901e-01 1.700000e+00
-3.049406e-01 -2.960342e-01 1.700000e+00
-2.677873e-01 -3.300226e-01 1.700000e+00
-2.268749e-01 -3.593783e-01 1.700000e+00
-1.827777e-01 -3.836891e-01 1.700000e+00
-1.361147e-01 -4.026137e-01 1.700000e+00
-8.754091e-02 -4.158865e-01 1.700000e+00
-3.773826e-02 -4.233212e-01 1.700000e+00
1.259416e-02 -4.248134e-01 1.700000e+00
6.274979e-02 -4.203421e-01 1.700000e+00
1.120245e-01 -4.099701e-01 1.700000e+00
1.597267e-01 -3.938431e-01 1.700000e+00
2.051867e-01 -3.721874e-01 1.700000e+00
2.477663e-01 -3.453069e-01 1.700000e+00
2.868678e-01 -3.135791e-01 1.700000e+00
3.219423e-01 -2.774494e-01 1.700000e+00
3.524974e-01 -2.374249e-01 1.700000e+00
3.781043e-01 -1.940674e-01 1.700000e+00
3.984034e-01 -1.479857e-01 1.700000e+00
4.131097e-01 -9.982657e-02 1.700000e+00
4.220170e-01 -5.026610e-02 1.700000e+00
4.375000e-01 0.000000e+00 1.750000e+00
4.345418e-01 5.079065e-02 1.750000e+00
4.257071e-01 1.008944e-01 1.750000e+00
4.111155e-01 1.496338e-01 1.750000e+00
3.909643e-01 1.963496e-01 1.750000e+00
3.655259e-01 2.404102e-01 1.750000e+00
3.351444e-01 2.812196e-01 1.750000e+00
3.002307e-01 3.182260e-01 1.750000e+00
2.612569e-01 3.509289e-01 1.750000e+00
2.187500e-01 3.788861e-01 1.750000e+00
1.732849e-01 4.017195e-01 1.750000e+00
1.254764e-01 4.191204e-01 1.750000e+00
7.597108e-02 4.308534e-01 1.750000e+00
2.543836e-02 4.367598e-01 1.750000e+00
-2.543836e-02 4.367598e-01 1.750000e+00
-7.597108e-02 4.308534e-01 1.750000e+00
-1.254764e-01 4.191204e-01 1.750000e+00
-1.732849e-01 4.017195e-01 1.750000e+00
-2.187500e-01 3.788861e-01 1.750000e+00
-2.612569e-01 3.509289e-01 1.750000e+00
-3.002307e-01 3.182260e-01 1.750000e+00
-3.351444e-01 2.812196e-01 1.750000e+00
-3.655259e-01 2.404102e-01 1.750000e+00
-3.909643e-01 1.963496e-01 1.750000e+00
-4.111155e-01 1.496338e-01 1.750000e+00
-4.257071e-01 1.008944e-01 1.750000e+00
-4.345418e-01 5.079065e-02 1.750000e+00
-4.375000e-01 5.357830e-17 1.750000e+00
-4.345418e-01 -5.079065e-02 1.750000e+00
-4.257071e-01 -1.008944e-01 1.750000e+00
-4.111155e-01 -1.496338e-01 1.750000e+00
-3.909643e-01 -1.963496e-01 1.750000e+00
-3.655259e-01 -2.404102e-01 1.750000e+00
-3.351444e-01 -2.812196e-01 1.750000e+00
-3.002307e-01 -3.182260e-01 1.750000e+00
-2.612569e-01 -3.509289e-01 1.750000e+00
-2.187500e-01 -3.788861e-01 1.750000e+00
-1.732849e-01 -4.017195e-01 1.750000e+00
-1.254764e-01 -4.191204e-01 1.750000e+00
-7.597108e-02 -4.308534e-01 1.750000e+00
-2.543836e-02 -4.367598e-01 1.750000e+00
2.543836e-02 -4.367598e-01 1.750000e+00
7.597108e-02 -4.308534e-01 1.750000e+00
1.254764e-01 -4.191204e-01 1.750000e+00
1.732849e-01 -4.017195e-01 1.750000e+00
2.187500e-01 -3.788861e-01 1.750000e+00
2.612569e-01 -3.509289e-01 1.750000e+00
3.002307e-01 -3.182260e-01 1.750000e+00
3.351444e-01 -2.812196e-01 1.750000e+00
3.655259e-01 -2.404102e-01 1.750000e+00
3.909643e-01 -1.963496e-01 1.750000e+00
4.111155e-01 -1.496338e-01 1.750000e+00
4.257071e-01 -1.008944e-01 1.750000e+00
4.345418e-01 -5.079065e-02 1.750000e+00
4.500000e-01 0.000000e+00 1.800000e+00
4.471705e-01 5.038401e-02 1.800000e+00
4.387176e-01 1.001344e-01 1.800000e+00
4.247475e-01 1.486256e-01 1.800000e+00
4.054360e-01 1.952477e-01 1.800000e+00
3.810259e-01 2.394144e-01 1.800000e+00
3.518242e-01 2.805704e-01 1.800000e+00
3.181981e-01 3.181981e-01 1.800000e+00
2.805704e-01 3.518242e-01 1.800000e+00
2.394144e-01 3.810259e-01 1.800000e+00
1.952477e-01 4.054360e-01 1.800000e+00
1.486256e-01 4.247475e-01 1.800000e+00
1.001344e-01 4.387176e-01 1.800000e+00
5.038401e-02 4.471705e-01 1.800000e+00
2.755455e-17 4.500000e-01 1.800000e+00
-5.038401e-02 4.471705e-01 1.800000e+00
-1.001344e-01 4.387176e-01 1.800000e+00
-1.486256e-01 4.247475e-01 1.800000e+00
-1.952477e-01 4.054360e-01 1.800000e+00
-2.394144e-01 3.810259e-01 1.800000e+00
-2.805704e-01 3.518242e-01 1.800000e+00
-3.181981e-01 3.181981e-01 1.800000e+00
-3.518242e-01 2.805704e-01 1.800000e+00
-3.810259e-01 2.394144e-01 1.800000e+00
-4.054360e-01 1.952477e-01 1.800000e+00
-4.247475e-01 1.486256e-01 1.800000e+00
-4.387176e-01 1.001344e-01 1.800000e+00
-4.471705e-01 5.038401e-02 1.800000e+00
-4.500000e-01 5.510911e-17 1.800000e+00
-4.471705e-01 -5.038401e-02 1.800000e+00
-4.387176e-01 -1.001344e-01 1.800000e+00
-4.247475e-01 -1.486256e-01 1.800000e+00
-4.054360e-01 -1.952477e-01 1.800000e+00
-3.810259e-01 -2.394144e-01 1.800000e+00
-3.518242e-01 -2.805704e-01 1.800000e+00
-3.181981e-01 -3.181981e-01 1.800000e+00
-2.805704e-01 -3.518242e-01 1.800000e+00
-2.394144e-01 -3.810259e-01 1.800000e+00
-1.952477e-01 -4.054360e-01 1.800000e+00
-1.486256e-01 -4.247475e-01 1.800000e+00
-1.001344e-01 -4.387176e-01 1.800000e+00
-5.038401e-02 -4.471705e-01 1.800000e+00
-8.266366e-17 -4.500000e-01 1.800000e+00
5.038401e-02 -4.471705e-01 1.800000e+00
1.001344e-01 -4.387176e-01 1.800000e+00
1.486256e-01 -4.247475e-01 1.800000e+00
1.952477e-01 -4.054360e-01 1.800000e+00
2.394144e-01 -3.810259e-01 1.800000e+00
2.805704e-01 -3.518242e-01 1.800000e+00
3.181981e-01 -3.181981e-01 1.800000e+00
3.518242e-01 -2.805704e-01 1.800000e+00
3.810259e-01 -2.394144e-01 1.800000e+00
4.054360e-01 -1.952477e-01 1.800000e+00
4.247475e-01 -1.486256e-01 1.800000e+00
4.387176e-01 -1.001344e-01 1.800000e+00
4.471705e-01 -5.038401e-02 1.800000e+00
4.625000e-01 0.000000e+00 1.850000e+00
4.596929e-01 5.087880e-02 1.850000e+00
4.513058e-01 1.011400e-01 1.850000e+00
4.374405e-01 1.501735e-01 1.850000e+00
4.182652e-01 1.973841e-01 1.850000e+00
3.940127e-01 2.421987e-01 1.850000e+00
3.649775e-01 2.840734e-01 1.850000e+00
3.315119e-01 3.224998e-01 1.850000e+00
2.940222e-01 3.570115e-01 1.850000e+00
2.529635e-01 3.871895e-01 1.850000e+00
2.088342e-01 4.126676e-01 1.850000e+00
1.621699e-01 4.331364e-01 1.850000e+00
1.135370e-01 4.483476e-01 1.850000e+00
6.352602e-02 4.581165e-01 1.850000e+00
1.274388e-02 4.623244e-01 1.850000e+00
-3.819295e-02 4.609203e-01 1.850000e+00
-8.866617e-02 4.539213e-01 1.850000e+00
-1.380631e-01 4.414123e-01 1.850000e+00
-1.857841e-01 4.235452e-01 1.850000e+00
-2.312500e-01 4.005367e-01 1.850000e+00
-2.739088e-01 3.726664e-01 1.850000e+00
-3.132427e-01 3.402723e-01 1.850000e+00
-3.487743e-01 3.037478e-01 1.850000e+00
-3.800722e-01 2.635362e-01 1.850000e+00
-4.067566e-01 2.201257e-01 1.850000e+00
-4.285035e-01 1.740431e-01 1.850000e+00
-4.450490e-01 1.258479e-01 1.850000e+00
-4.561921e-01 7.612500e-02 1.850000e+00
-4.617977e-01 2.547809e-02 1.850000e+00
-4.617977e-01 -2.547809e-02 1.850000e+00
-4.561921e-01 -7.612500e-02 1.850000e+00
-4.450490e-01 -1.258479e-01 1.850000e+00
-4.285035e-01 -1.740431e-01 1.850000e+00
-4.067566e-01 -2.201257e-01 1.850000e+00
-3.800722e-01 -2.635362e-01 1.850000e+00
-3.487743e-01 -3.037478e-01 1.850000e+00
-3.132427e-01 -3.402723e-01 1.850000e+00
-2.739088e-01 -3.726664e-01 1.850000e+00
-2.312500e-01 -4.005367e-01 1.850000e+00
-1.857841e-01 -4.235452e-01 1.850000e+00
-1.380631e-01 -4.414123e-01 1.850000e+00
-8.866617e-02 -4.539213e-01 1.850000e+00
-3.819295e-02 -4.609203e-01 1.850000e+00
1.274388e-02 -4.623244e-01 1.850000e+00
6.352602e-02 -4.581165e-01 1.850000e+00
1.135370e-01 -4.483476e-01 1.850000e+00
1.621699e-01 -4.331364e-01 1.850000e+00
2.088342e-01 -4.126676e-01 1.850000e+00
2.529635e-01 -3.871895e-01 1.850000e+00
2.940222e-01 -3.570115e-01 1.850000e+00
3.315119e-01 -3.224998e-01 1.850000e+00
3.649775e-01 -2.840734e-01 1.850000e+00
3.940127e-01 -2.421987e-01 1.850000e+00
4.182652e-01 -1.973841e-01 1.850000e+00
4.374405e-01 -1.501735e-01 1.850000e+00
4.513058e-01 -1.011400e-01 1.850000e+00
4.596929e-01 -5.087880e-02 1.850000e+00
4.750000e-01 0.000000e+00 1.900000e+00
4.723090e-01 5.048941e-02 1.900000e+00
4.642666e-01 1.004067e-01 1.900000e+00
4.509639e-01 1.491864e-01 1.900000e+00
4.325515e-01 1.962758e-01 1.900000e+00
4.092382e-01 2.411413e-01 1.900000e+00
3.812880e-01 2.832745e-01 1.900000e+00
3.490177e-01 3.221981e-01 1.900000e+00
3.127929e-01 3.574711e-01 1.900000e+00
2.730240e-01 3.886938e-01 1.900000e+00
2.301617e-01 4.155125e-01 1.900000e+00
1.846915e-01 4.376232e-01 1.900000e+00
1.371287e-01 4.547755e-01 1.900000e+00
8.801214e-02 4.667750e-01 1.900000e+00
3.789840e-02 4.734857e-01 1.900000e+00
-1.264475e-02 4.748317e-01 1.900000e+00
-6.304463e-02 4.707976e-01 1.900000e+00
-1.127302e-01 4.614292e-01 1.900000e+00
-1.611385e-01 4.468326e-01 1.900000e+00
-2.077210e-01 4.271733e-01 1.900000e+00
-2.519499e-01 4.026739e-01 1.900000e+00
-2.933242e-01 3.736120e-01 1.900000e+00
-3.313750e-01 3.403170e-01 1.900000e+00
-3.656711e-01 3.031660e-01 1.900000e+00
-3.958241e-01 2.625800e-01 1.900000e+00
-4.214922e-01 2.190189e-01 1.900000e+00
-4.423847e-01 1.729763e-01 1.900000e+00
-4.582647e-01 1.249737e-01 1.900000e+00
-4.689525e-01 7.555516e-02 1.900000e+00
-4.743268e-01 2.528053e-02 1.900000e+00
-4.743268e-01 -2.528053e-02 1.900000e+00
-4.689525e-01 -7.555516e-02 1.900000e+00
-4.582647e-01 -1.249737e-01 1.900000e+00
-4.423847e-01 -1.729763e-01 1.900000e+00
-4.214922e-01 -2.190189e-01 1.900000e+00
-3.958241e-01 -2.625800e-01 1.900000e+00
-3.656711e-01 -3.031660e-01 1.900000e+00
-3.313750e-01 -3.403170e-01 1.900000e+00
-2.933242e-01 -3.736120e-01 1.900000e+00
-2.519499e-01 -4.026739e-01 1.900000e+00
-2.077210e-01 -4.271733e-01 1.900000e+00
-1.611385e-01 -4.468326e-01 1.900000e+00
-1.127302e-01 -4.614292e-01 1.900000e+00
-6.304463e-02 -4.707976e-01 1.900000e+00
-1.264475e-02 -4.748317e-01 1.900000e+00
3.789840e-02 -4.734857e-01 1.900000e+00
8.801214e-02 -4.667750e-01 1.900000e+00
1.371287e-01 -4.547755e-01 1.900000e+00
1.846915e-01 -4.376232e-01 1.900000e+00
2.301617e-01 -4.155125e-01 1.900000e+00
2.730240e-01 -3.886938e-01 1.900000e+00
3.127929e-01 -3.574711e-01 1.900000e+00
3.490177e-01 -3.221981e-01 1.900000e+00
3.812880e-01 -2.832745e-01 1.900000e+00
4.092382e-01 -2.411413e-01 1.900000e+00
4.325515e-01 -1.962758e-01 1.900000e+00
4.509639e-01 -1.491864e-01 1.900000e+00
4.642666e-01 -1.004067e-01 1.900000e+00
4.723090e-01 -5.048941e-02 1.900000e+00
4.875000e-01 0.000000e+00 1.950000e+00
4.848294e-01 5.095763e-02 1.950000e+00
4.768470e-01 1.013569e-01 1.950000e+00
4.636401e-01 1.506458e-01 1.950000e+00
4.453534e-01 1.982841e-01 1.950000e+00
4.221874e-01 2.437500e-01 1.950000e+00
3.943958e-01 2.865453e-01 1.950000e+00
3.622831e-01 3.262012e-01 1.950000e+00
3.262012e-01 3.622831e-01 1.950000e+00
2.865453e-01 3.943958e-01 1.950000e+00
2.437500e-01 4.221874e-01 1.950000e+00
1.982841e-01 4.453534e-01 1.950000e+00
1.506458e-01 4.636401e-01 1.950000e+00
1.013569e-01 4.768470e-01 1.950000e+00
5.095763e-02 4.848294e-01 1.950000e+00
2.985077e-17 4.875000e-01 1.950000e+00
-5.095763e-02 4.848294e-01 1.950000e+00
-1.013569e-01 4.768470e-01 1.950000e+00
-1.506458e-01 4.636401e-01 1.950000e+00
-1.982841e-01 4.453534e-01 1.950000e+00
-2.437500e-01 4.221874e-01 1.950000e+00
-2.865453e-01 3.943958e-01 1.950000e+00
-3.262012e-01 3.622831e-01 1.950000e+00
-3.622831e-01 3.262012e-01 1.950000e+00
-3.943958e-01 2.865453e-01 1.950000e+00
-4.221874e-01 2.437500e-01 1.950000e+00
-4.453534e-01 1.982841e-01 1.950000e+00
-4.636401e-01 1.506458e-01 1.950000e+00
-4.768470e-01 1.013569e-01 1.950000e+00
-4.848294e-01 5.095763e-02 1.950000e+00
-4.875000e-01 5.970153e-17 1.950000e+00
-4.848294e-01 -5.095763e-02 1.950000e+00
-4.768470e-01 -1.013569e-01 1.950000e+00
-4.636401e-01 -1.506458e-01 1.950000e+00
-4.453534e-01 -1.982841e-01 1.950000e+00
-4.221874e-01 -2.437500e-01 1.950000e+00
-3.943958e-01 -2.865453e-01 1.950000e+00
-3.622831e-01 -3.262012e-01 1.950000e+00
-3.262012e-01 -3.622831e-01 1.950000e+00
-2.865453e-01 -3.943958e-01 1.950000e+00
-2.437500e-01 -4.221874e-01 1.950000e+00
-1.982841e-01 -4.453534e-01 1.950000e+00
-1.506458e-01 -4.636401e-01 1.950000e+00
-1.013569e-01 -4.768470e-01 1.950000e+00
-5.095763e-02 -4.848294e-01 1.950000e+00
-8.955230e-17 -4.875000e-01 1.950000e+00
5.095763e-02 -4.848294e-01 1.950000e+00
1.013569e-01 -4.768470e-01 1.950000e+00
1.506458e-01 -4.636401e-01 1.950000e+00
1.982841e-01 -4.453534e-01 1.950000e+00
2.437500e-01 -4.221874e-01 1.950000e+00
2.865453e-01 -3.943958e-01 1.950000e+00
3.262012e-01 -3.622831e-01 1.950000e+00
3.622831e-01 -3.262012e-01 1.950000e+00
3.943958e-01 -2.865453e-01 1.950000e+00
4.221874e-01 -2.437500e-01 1.950000e+00
4.453534e-01 -1.982841e-01 1.950000e+00
4.636401e-01 -1.506458e-01 1.950000e+00
4.768470e-01 -1.013569e-01 1.950000e+00
4.848294e-01 -5.095763e-02 1.950000e+00
5.000000e-01 0.000000e+00 2.000000e+00
4.974347e-01 5.058416e-02 2.000000e+00
4.897650e-01 1.006493e-01 2.000000e+00
4.770696e-01 1.496816e-01 2.000000e+00
4.594789e-01 1.971779e-01 2.000000e+00
4.371733e-01 2.426510e-01 2.000000e+00
4.103817e-01 2.856341e-01 2.000000e+00
3.793791e-01 3.256862e-01 2.000000e+00
3.444835e-01 3.623964e-01 2.000000e+00
3.060530e-01 3.953879e-01 2.000000e+00
2.644820e-01 4.243221e-01 2.000000e+00
2.201971e-01 4.489023e-01 2.000000e+00
1.736526e-01 4.688761e-01 2.000000e+00
1.253263e-01 4.840386e-01 2.000000e+00
7.571389e-02 4.942342e-01 2.000000e+00
2.532458e-02 4.993583e-01 2.000000e+00
-2.532458e-02 4.993583e-01 2.000000e+00
-7.571389e-02 4.942342e-01 2.000000e+00
-1.253263e-01 4.840386e-01 2.000000e+00
-1.736526e-01 4.688761e-01 2.000000e+00
-2.201971e-01 4.489023e-01 2.000000e+00
-2.644820e-01 4.243221e-01 2.000000e+00
-3.060530e-01 3.953879e-01 2.000000e+00
-3.444835e-01 3.623964e-01 2.000000e+00
-3.793791e-01 3.256862e-01 2.000000e+00
-4.103817e-01 2.856341e-01 2.000000e+00
-4.371733e-01 2.426510e-01 2.000000e+00
-4.594789e-01 1.971779e-01 2.000000e+00
-4.770696e-01 1.496816e-01 2.000000e+00
-4.897650e-01 1.006493e-01 2.000000e+00
-4.974347e-01 5.058416e-02 2.000000e+00
-5.000000e-01 6.123234e-17 2.000000e+00
-4.974347e-01 -5.058416e-02 2.000000e+00
-4.897650e-01 -1.006493e-01 2.000000e+00
-4.770696e-01 -1.496816e-01 2.000000e+00
-4.594789e-01 -1.971779e-01 2.000000e+00
-4.371733e-01 -2.426510e-01 2.000000e+00
-4.103817e-01 -2.856341e-01 2.000000e+00
-3.793791e-01 -3.256862e-01 2.000000e+00
-3.444835e-01 -3.623964e-01 2.000000e+00
-3.060530e-01 -3.953879e-01 2.000000e+00
-2.644820e-01 -4.243221e-01 2.000000e+00
-2.201971e-01 -4.489023e-01 2.000000e+00
-1.736526e-01 -4.688761e-01 2.000000e+00
-1.253263e-01 -4.840386e-01 2.000000e+00
-7.571389e-02 -4.942342e-01 2.000000e+00
-2.532458e-02 -4.993583e-01 2.000000e+00
2.532458e-02 -4.993583e-01 2.000000e+00
7.571389e-02 -4.942342e-01 2.000000e+00
1.253263e-01 -4.840386e-01 2.000000e+00
1.736526e-01 -4.688761e-01 2.000000e+00
2.201971e-01 -4.489023e-01 2.000000e+00
2.644820e-01 -4.243221e-01 2.000000e+00
3.060530e-01 -3.953879e-01 2.000000e+00
3.444835e-01 -3.623964e-01 2.000000e+00
3.793791e-01 -3.256862e-01 2.000000e+00
4.103817e-01 -2.856341e-01 2.000000e+00
4.371733e-01 -2.426510e-01 2.000000e+00
4.594789e-01 -1.971779e-01 2.000000e+00
4.770696e-01 -1.496816e-01 2.000000e+00
4.897650e-01 -1.006493e-01 2.000000e+00
4.974347e-01 -5.058416e-02 2.000000e+00
4.875000e-01 0.000000e+00 2.050000e+00
4.848294e-01 5.095763e-02 2.050000e+00
4.768470e-01 1.013569e-01 2.050000e+00
4.636401e-01 1.506458e-01 2.050000e+00
4.453534e-01 1.982841e-01 2.050000e+00
4.221874e-01 2.437500e-01 2.050000e+00
3.943958e-01 2.865453e-01 2.050000e+00
3.622831e-01 3.262012e-01 2.050000e+00
3.262012e-01 3.622831e-01 2.050000e+00
2.865453e-01 3.943958e-01 2.050000e+00
2.437500e-01 4.221874e-01 2.050000e+00
1.982841e-01 4.453534e-01 2.050000e+00
1.506458e-01 4.636401e-01 2.050000e+00
1.013569e-01 4.768470e-01 2.050000e+00
5.095763e-02 4.848294e-01 2.050000e+00
2.985077e-17 4.875000e-01 2.050000e+00
-5.095763e-02 4.848294e-01 2.050000e+00
-1.013569e-01 4.768470e-01 2.050000e+00
-1.506458e-01 4.636401e-01 2.050000e+00
-1.982841e-01 4.453534e-01 2.050000e+00
-2.437500e-01 4.221874e-01 2.050000e+00
-2.865453e-01 3.943958e-01 2.050000e+00
-3.262012e-01 3.622831e-01 2.050000e+00
-3.622831e-01 3.262012e-01 2.050000e+00
-3.943958e-01 2.865453e-01 2.050000e+00
-4.221874e-01 2.437500e-01 2.050000e+00
-4.453534e-01 1.982841e-01 2.050000e+00
-4.636401e-01 1.506458e-01 2.050000e+00
-4.768470e-01 1.013569e-01 2.050000e+00
-4.848294e-01 5.095763e-02 2.050000e+00
-4.875000e-01 5.970153e-17 2.050000e+00
-4.848294e-01 -5.095763e-02 2.050000e+00
-4.768470e-01 -1.013569e-01 2.050000e+00
-4.636401e-01 -1.506458e-01 2.050000e+00
-4.453534e-01 -1.982841e-01 2.050000e+00
-4.221874e-01 -2.437500e-01 2.050000e+00
-3.943958e-01 -2.865453e-01 2.050000e+00
-3.622831e-01 -3.262012e-01 2.050000e+00
-3.262012e-01 -3.622831e-01 2.050000e+00
-2.865453e-01 -3.943958e-01 2.050000e+00
-2.437500e-01 -4.221874e-01 2.050000e+00
-1.982841e-01 -4.453534e-01 2.050000e+00
-1.506458e-01 -4.636401e-01 2.050000e+00
-1.013569e-01 -4.768470e-01 2.050000e+00
-5.095763e-02 -4.848294e-01 2.050000e+00
-8.955230e-17 -4.875000e-01 2.050000e+00
5.095763e-02 -4.848294e-01 2.050000e+00
1.013569e-01 -4.768470e-01 2.050000e+00
1.506458e-01 -4.636401e-01 2.050000e+00
1.982841e-01 -4.453534e-01 2.050000e+00
2.437500e-01 -4.221874e-01 2.050000e+00
2.865453e-01 -3.943958e-01 2.050000e+00
3.262012e-01 -3.622831e-01 2.050000e+00
3.622831e-01 -3.262012e-01 2.050000e+00
3.943958e-01 -2.865453e-01 2.050000e+00
4.221874e-01 -2.437500e-01 2.050000e+00
4.453534e-01 -1.982841e-01 2.050000e+00
4.636401e-01 -1.506458e-01 2.050000e+00
4.768470e-01 -1.013569e-01 2.050000e+00
4.848294e-01 -5.095763e-02 2.050000e+00
4.750000e-01 0.000000e+00 2.100000e+00
4.723090e-01 5.048941e-02 2.100000e+00
4.642666e-01 1.004067e-01 2.100000e+00
4.509639e-01 1.491864e-01 2.100000e+00
4.325515e-01 1.962758e-01 2.100000e+00
4.092382e-01 2.411413e-01 2.100000e+00
3.812880e-01 2.832745e-01 2.100000e+00
3.490177e-01 3.221981e-01 2.100000e+00
3.127929e-01 3.574711e-01 2.100000e+00
2.730240e-01 3.886938e-01 2.100000e+00
2.301617e-01 4.155125e-01 2.100000e+00
1.846915e-01 4.376232e-01 2.100000e+00
1.371287e-01 4.547755e-01 2.100000e+00
8.801214e-02 4.667750e-01 2.100000e+00
3.789840e-02 4.734857e-01 2.100000e+00
-1.264475e-02 4.748317e-01 2.100000e+00
-6.304463e-02 4.707976e-01 2.100000e+00
-1.127302e-01 4.614292e-01 2.100000e+00
-1.611385e-01 4.468326e-01 2.100000e+00
-2.077210e-01 4.271733e-01 2.100000e+00
-2.519499e-01 4.026739e-01 2.100000e+00
-2.933242e-01 3.736120e-01 2.100000e+00
-3.313750e-01 3.403170e-01 2.100000e+00
-3.656711e-01 3.031660e-01 2.100000e+00
-3.958241e-01 2.625800e-01 2.100000e+00
-4.214922e-01 2.190189e-01 2.100000e+00
-4.423847e-01 1.729763e-01 2.100000e+00
-4.582647e-01 1.249737e-01 2.100000e+00
-4.689525e-01 7.555516e-02 2.100000e+00
-4.743268e-01 2.528053e-02 2.100000e+00
-4.743268e-01 -2.528053e-02 2.100000e+00
-4.689525e-01 -7.555516e-02 2.100000e+00
-4.582647e-01 -1.249737e-01 2.100000e+00
-4.423847e-01 -1.729763e-01 2.100000e+00
-4.214922e-01 -2.190189e-01 2.100000e+00
-3.958241e-01 -2.625800e-01 2.100000e+00
-3.656711e-01 -3.031660e-01 2.100000e+00
-3.313750e-01 -3.403170e-01 2.100000e+00
-2.933242e-01 -3.736120e-01 2.100000e+00
-2.519499e-01 -4.026739e-01 2.100000e+00
-2.077210e-01 -4.271733e-01 2.100000e+00
-1.611385e-01 -4.468326e-01 2.100000e+00
-1.127302e-01 -4.614292e-01 2.100000e+00
-6.304463e-02 -4.707976e-01 2.100000e+00
-1.264475e-02 -4.748317e-01 2.100000e+00
3.789840e-02 -4.734857e-01 2.100000e+00
8.801214e-02 -4.667750e-01 2.100000e+00
1.371287e-01 -4.547755e-01 2.100000e+00
1.846915e-01 -4.376232e-01 2.100000e+00
2.301617e-01 -4.155125e-01 2.100000e+00
2.730240e-01 -3.886938e-01 2.100000e+00
3.127929e-01 -3.574711e-01 2.100000e+00
3.490177e-01 -3.221981e-01 2.100000e+00
3.812880e-01 -2.832745e-01 2.100000e+00
4.092382e-01 -2.411413e-01 2.100000e+00
4.325515e-01 -1.962758e-01 2.100000e+00
4.509639e-01 -1.491864e-01 2.100000e+00
4.642666e-01 -1.004067e-01 2.100000e+00
4.723090e-01 -5.048941e-02 2.100000e+00
4.625000e-01 0.000000e+00 2.150000e+00
4.596929e-01 5.087880e-02 2.150000e+00
4.513058e-01 1.011400e-01 2.150000e+00
4.374405e-01 1.501735e-01 2.150000e+00
4.182652e-01 1.973841e-01 2.150000e+00
3.940127e-01 2.421987e-01 2.150000e+00
3.649775e-01 2.840734e-01 2.150000e+00
3.315119e-01 3.224998e-01 2.150000e+00
2.940222e-01 3.570115e-01 2.150000e+00
2.529635e-01 3.871895e-01 2.150000e+00
2.088342e-01 4.126676e-01 2.150000e+00
1.621699e-01 4.331364e-01 2.150000e+00
1.135370e-01 4.483476e-01 2.150000e+00
6.352602e-02 4.581165e-01 2.150000e+00
1.274388e-02 4.623244e-01 2.150000e+00
-3.819295e-02 4.609203e-01 2.150000e+00
-8.866617e-02 4.539213e-01 2.150000e+00
-1.380631e-01 4.414123e-01 2.150000e+00
-1.857841e-01 4.235452e-01 2.150000e+00
-2.312500e-01 4.005367e-01 2.150000e+00
-2.739088e-01 3.726664e-01 2.150000e+00
-3.132427e-01 3.402723e-01 2.150000e+00
-3.487743e-01 3.037478e-01 2.150000e+00
-3.800722e-01 2.635362e-01 2.150000e+00
-4.067566e-01 2.201257e-01 2.150000e+00
-4.285035e-01 1.740431e-01 2.150000e+00
-4.450490e-01 1.258479e-01 2.150000e+00
-4.561921e-01 7.612500e-02 2.150000e+00
-4.617977e-01 2.547809e-02 2.150000e+00
-4.617977e-01 -2.547809e-02 2.150000e+00
-4.561921e-01 -7.612500e-02 2.150000e+00
-4.450490e-01 -1.258479e-01 2.150000e+00
-4.285035e-01 -1.740431e-01 2.150000e+00
-4.067566e-01 -2.201257e-01 2.150000e+00
-3.800722e-01 -2.635362e-01 2.150000e+00
-3.487743e-01 -3.037478e-01 2.150000e+00
-3.132427e-01 -3.402723e-01 2.150000e+00
-2.739088e-01 -3.726664e-01 2.150000e+00
-2.312500e-01 -4.005367e-01 2.150000e+00
-1.857841e-01 -4.235452e-01 2.150000e+00
-1.380631e-01 -4.414123e-01 2.150000e+00
-8.866617e-02 -4.539213e-01 2.150000e+00
-3.819295e-02 -4.609203e-01 2.150000e+00
1.274388e-02 -4.623244e-01 2.150000e+00
6.352602e-02 -4.581165e-01 2.150000e+00
1.135370e-01 -4.483476e-01 2.150000e+00
1.621699e-01 -4.331364e-01 2.150000e+00
2.088342e-01 -4.126676e-01 2.150000e+00
2.529635e-01 -3.871895e-01 2.150000e+00
2.940222e-01 -3.570115e-01 2.150000e+00
3.315119e-01 -3.224998e-01 2.150000e+00
3.649775e-01 -2.840734e-01 2.150000e+00
3.940127e-01 -2.421987e-01 2.150000e+00
4.182652e-01 -1.973841e-01 2.150000e+00
4.374405e-01 -1.501735e-01 2.150000e+00
4.513058e-01 -1.011400e-01 2.150000e+00
4.596929e-01 -5.087880e-02 2.150000e+00
4.500000e-01 0.000000e+00 2.200000e+00
4.471705e-01 5.038401e-02 2.200000e+00
4.387176e-01 1.001344e-01 2.200000e+00
4.247475e-01 1.486256e-01 2.200000e+00
4.054360e-01 1.952477e-01 2.200000e+00
3.810259e-01 2.394144e-01 2.200000e+00
3.518242e-01 2.805704e-01 2.200000e+00
3.181981e-01 3.181981e-01 2.200000e+00
2.805704e-01 3.518242e-01 2.200000e+00
2.394144e-01 3.810259e-01 2.200000e+00
1.952477e-01 4.054360e-01 2.200000e+00
1.486256e-01 4.247475e-01 2.200000e+00
1.001344e-01 4.387176e-01 2.200000e+00
5.038401e-02 4.471705e-01 2.200000e+00
2.755455e-17 4.500000e-01 2.200000e+00
-5.038401e-02 4.471705e-01 2.200000e+00
-1.001344e-01 4.387176e-01 2.200000e+00
-1.486256e-01 4.247475e-01 2.200000e+00
-1.952477e-01 4.054360e-01 2.200000e+00
-2.394144e-01 3.810259e-01 2.200000e+00
-2.805704e-01 3.518242e-01 2.200000e+00
-3.181981e-01 3.181981e-01 2.200000e+00
-3.518242e-01 2.805704e-01 2.200000e+00
-3.810259e-01 2.394144e-01 2.200000e+00
-4.054360e-01 1.952477e-01 2.200000e+00
-4.247475e-01 1.486256e-01 2.200000e+00
-4.387176e-01 1.001344e-01 2.200000e+00
-4.471705e-01 5.038401e-02 2.200000e+00
-4.500000e-01 5.510911e-17 2.200000e+00
-4.471705e-01 -5.038401e-02 2.200000e+00
-4.387176e-01 -1.001344e-01 2.200000e+00
-4.247475e-01 -1.486256e-01 2.200000e+00
-4.054360e-01 -1.952477e-01 2.200000e+00
-3.810259e-01 -2.394144e-01 2.200000e+00
-3.518242e-01 -2.805704e-01 2.200000e+00
-3.181981e-01 -3.181981e-01 2.200000e+00
-2.805704e-01 -3.518242e-01 2.200000e+00
-2.394144e-01 -3.810259e-01 2.200000e+00
-1.952477e-01 -4.054360e-01 2.200000e+00
-1.486256e-01 -4.247475e-01 2.200000e+00
-1.001344e-01 -4.387176e-01 2.200000e+00
-5.038401e-02 -4.471705e-01 2.200000e+00
-8.266366e-17 -4.500000e-01 2.200000e+00
5.038401e-02 -4.471705e-01 2.200000e+00
1.001344e-01 -4.387176e-01 2.200000e+00
1.486256e-01 -4.247475e-01 2.200000e+00
1.952477e-01 -4.054360e-01 2.200000e+00
2.394144e-01 -3.810259e-01 2.200000e+00
2.805704e-01 -3.518242e-01 2.200000e+00
3.181981e-01 -3.181981e-01 2.200000e+00
3.518242e-01 -2.805704e-01 2.200000e+00
3.810259e-01 -2.394144e-01 2.200000e+00
4.054360e-01 -1.952477e-01 2.200000e+00
4.247475e-01 -1.486256e-01 2.200000e+00
4.387176e-01 -1.001344e-01 2.200000e+00
4.471705e-01 -5.038401e-02 2.200000e+00
4.375000e-01 0.000000e+00 2.250000e+00
4.345418e-01 5.079065e-02 2.250000e+00
4.257071e-01 1.008944e-01 2.250000e+00
4.111155e-01 1.496338e-01 2.250000e+00
3.909643e-01 1.963496e-01 2.250000e+00
3.655259e-01 2.404102e-01 2.250000e+00
3.351444e-01 2.812196e-01 2.250000e+00
3.002307e-01 3.182260e-01 2.250000e+00
2.612569e-01 3.509289e-01 2.250000e+00
2.187500e-01 3.788861e-01 2.250000e+00
1.732849e-01 4.017195e-01 2.250000e+00
1.254764e-01 4.191204e-01 2.250000e+00
7.597108e-02 4.308534e-01 2.250000e+00
2.543836e-02 4.367598e-01 2.250000e+00
-2.543836e-02 4.367598e-01 2.250000e+00
-7.597108e-02 4.308534e-01 2.250000e+00
-1.254764e-01 4.191204e-01 2.250000e+00
-1.732849e-01 4.017195e-01 2.250000e+00
-2.187500e-01 3.788861e-01 2.250000e+00
-2.612569e-01 3.509289e-01 2.250000e+00
-3.002307e-01 3.182260e-01 2.250000e+00
-3.351444e-01 2.812196e-01 2.250000e+00
-3.655259e-01 2.404102e-01 2.250000e+00
-3.909643e-01 1.963496e-01 2.250000e+00
-4.111155e-01 1.496338e-01 2.250000e+00
-4.257071e-01 1.008944e-01 2.250000e+00
-4.345418e-01 5.079065e-02 2.250000e+00
-4.375000e-01 5.357830e-17 2.250000e+00
-4.345418e-01 -5.079065e-02 2.250000e+00
-4.257071e-01 -1.008944e-01 2.250000e+00
-4.111155e-01 -1.496338e-01 2.250000e+00
-3.909643e-01 -1.963496e-01 2.250000e+00
-3.655259e-01 -2.404102e-01 2.250000e+00
-3.351444e-01 -2.812196e-01 2.250000e+00
-3.002307e-01 -3.182260e-01 2.250000e+00
-2.612569e-01 -3.509289e-01 2.250000e+00
-2.187500e-01 -3.788861e-01 2.250000e+00
-1.732849e-01 -4.017195e-01 2.250000e+00
-1.254764e-01 -4.191204e-01 2.250000e+00
-7.597108e-02 -4.308534e-01 2.250000e+00
-2.543836e-02 -4.367598e-01 2.250000e+00
2.543836e-02 -4.367598e-01 2.250000e+00
7.597108e-02 -4.308534e-01 2.250000e+00
1.254764e-01 -4.191204e-01 2.250000e+00
1.732849e-01 -4.017195e-01 2.250000e+00
2.187500e-01 -3.788861e-01 2.250000e+00
2.612569e-01 -3.509289e-01 2.250000e+00
3.002307e-01 -3.182260e-01 2.250000e+00
3.351444e-01 -2.812196e-01 2.250000e+00
3.655259e-01 -2.404102e-01 2.250000e+00
3.909643e-01 -1.963496e-01 2.250000e+00
4.111155e-01 -1.496338e-01 2.250000e+00
4.257071e-01 -1.008944e-01 2.250000e+00
4.345418e-01 -5.079065e-02 2.250000e+00
4.250000e-01 0.000000e+00 2.300000e+00
4.220170e-01 5.026610e-02 2.300000e+00
4.131097e-01 9.982657e-02 2.300000e+00
3.984034e-01 1.479857e-01 2.300000e+00
3.781043e-01 1.940674e-01 2.300000e+00
3.524974e-01 2.374249e-01 2.300000e+00
3.219423e-01 2.774494e-01 2.300000e+00
2.868678e-01 3.135791e-01 2.300000e+00
2.477663e-01 3.453069e-01 2.300000e+00
2.051867e-01 3.721874e-01 2.300000e+00
1.597267e-01 3.938431e-01 2.300000e+00
1.120245e-01 4.099701e-01 2.300000e+00
6.274979e-02 4.203421e-01 2.300000e+00
1.259416e-02 4.248134e-01 2.300000e+00
-3.773826e-02 4.233212e-01 2.300000e+00
-8.754091e-02 4.158865e-01 2.300000e+00
-1.361147e-01 4.026137e-01 2.300000e+00
-1.827777e-01 3.836891e-01 2.300000e+00
-2.268749e-01 3.593783e-01 2.300000e+00
-2.677873e-01 3.300226e-01 2.300000e+00
-3.049406e-01 2.960342e-01 2.300000e+00
-3.378131e-01 2.578901e-01 2.300000e+00
-3.659435e-01 2.161257e-01 2.300000e+00
-3.889369e-01 1.713275e-01 2.300000e+00
-4.064704e-01 1.241241e-01 2.300000e+00
-4.182980e-01 7.517837e-02 2.300000e+00
-4.242536e-01 2.517727e-02 2.300000e+00
-4.242536e-01 -2.517727e-02 2.300000e+00
-4.182980e-01 -7.517837e-02 2.300000e+00
-4.064704e-01 -1.241241e-01 2.300000e+00
-3.889369e-01 -1.713275e-01 2.300000e+00
-3.659435e-01 -2.161257e-01 2.300000e+00
-3.378131e-01 -2.578901e-01 2.300000e+00
-3.049406e-01 -2.960342e-01 2.300000e+00
-2.677873e-01 -3.300226e-01 2.300000e+00
-2.268749e-01 -3.593783e-01 2.300000e+00
-1.827777e-01 -3.836891e-01 2.300000e+00
-1.361147e-01 -4.026137e-01 2.300000e+00
-8.754091e-02 -4.158865e-01 2.300000e+00
-3.773826e-02 -4.233212e-01 2.300000e+00
1.259416e-02 -4.248134e-01 2.300000e+00
6.274979e-02 -4.203421e-01 2.300000e+00
1.120245e-01 -4.099701e-01 2.300000e+00
1.597267e-01 -3.938431e-01 2.300000e+00
2.051867e-01 -3.721874e-01 2.300000e+00
2.477663e-01 -3.453069e-01 2.300000e+00
2.868678e-01 -3.135791e-01 2.300000e+00
3.219423e-01 -2.774494e-01 2.300000e+00
3.524974e-01 -2.374249e-01 2.300000e+00
3.781043e-01 -1.940674e-01 2.300000e+00
3.984034e-01 -1.479857e-01 2.300000e+00
4.131097e-01 -9.982657e-02 2.300000e+00
4.220170e-01 -5.026610e-02 2.300000e+00
4.125000e-01 0.000000e+00 2.350000e+00
4.093735e-01 5.069142e-02 2.350000e+00
4.000412e-01 1.006144e-01 2.350000e+00
3.846448e-01 1.490122e-01 2.350000e+00
3.634175e-01 1.951511e-01 2.350000e+00
3.366812e-01 2.383317e-01 2.350000e+00
3.048412e-01 2.778995e-01 2.350000e+00
2.683800e-01 3.132545e-01 2.350000e+00
2.278506e-01 3.438610e-01 2.350000e+00
1.838671e-01 3.692549e-01 2.350000e+00
1.370964e-01 3.890512e-01 2.350000e+00
8.824740e-02 4.029499e-01 2.350000e+00
3.806070e-02 4.107403e-01 2.350000e+00
-1.270296e-02 4.123044e-01 2.350000e+00
-6.327406e-02 4.076183e-01 2.350000e+00
-1.128860e-01 3.967531e-01 2.350000e+00
-1.607867e-01 3.798735e-01 2.350000e+00
-2.062500e-01 3.572355e-01 2.350000e+00
-2.485868e-01 3.291821e-01 2.350000e+00
-2.871553e-01 2.961387e-01 2.350000e+00
-3.213707e-01 2.586061e-01 2.350000e+00
-3.507146e-01 2.171533e-01 2.350000e+00
-3.747419e-01 1.724086e-01 2.350000e+00
-3.930886e-01 1.250505e-01 2.350000e+00
-4.054764e-01 7.579668e-02 2.350000e+00
-4.117176e-01 2.539387e-02 2.350000e+00
-4.117176e-01 -2.539387e-02 2.350000e+00
-4.054764e-01 -7.579668e-02 2.350000e+00
-3.930886e-01 -1.250505e-01 2.350000e+00
-3.747419e-01 -1.724086e-01 2.350000e+00
-3.507146e-01 -2.171533e-01 2.350000e+00
-3.213707e-01 -2.586061e-01 2.350000e+00
-2.871553e-01 -2.961387e-01 2.350000e+00
-2.485868e-01 -3.291821e-01 2.350000e+00
-2.062500e-01 -3.572355e-01 2.350000e+00
-1.607867e-01 -3.798735e-01 2.350000e+00
-1.128860e-01 -3.967531e-01 2.350000e+00
-6.327406e-02 -4.076183e-01 2.350000e+00
-1.270296e-02 -4.123044e-01 2.350000e+00
3.806070e-02 -4.107403e-01 2.350000e+00
8.824740e-02 -4.029499e-01 2.350000e+00
1.370964e-01 -3.890512e-01 2.350000e+00
1.838671e-01 -3.692549e-01 2.350000e+00
2.278506e-01 -3.438610e-01 2.350000e+00
2.683800e-01 -3.132545e-01 2.350000e+00
3.048412e-01 -2.778995e-01 2.350000e+00
3.366812e-01 -2.383317e-01 2.350000e+00
3.634175e-01 -1.951511e-01 2.350000e+00
3.846448e-01 -1.490122e-01 2.350000e+00
4.000412e-01 -1.006144e-01 2.350000e+00
4.093735e-01 -5.069142e-02 2.350000e+00
4.000000e-01 0.000000e+00 2.400000e+00
3.968459e-01 5.013329e-02 2.400000e+00
3.874333e-01 9.947595e-02 2.400000e+00
3.719106e-01 1.472498e-01 2.400000e+00
3.505227e-01 1.927015e-01 2.400000e+00
3.236068e-01 2.351141e-01 2.400000e+00
2.915875e-01 2.738188e-01 2.400000e+00
2.549696e-01 3.082053e-01 2.400000e+00
2.143307e-01 3.377312e-01 2.400000e+00
1.703117e-01 3.619308e-01 2.400000e+00
1.236068e-01 3.804226e-01 2.400000e+00
7.495253e-02 3.929149e-01 2.400000e+00
2.511621e-02 3.992107e-01 2.400000e+00
-2.511621e-02 3.992107e-01 2.400000e+00
-7.495253e-02 3.929149e-01 2.400000e+00
-1.236068e-01 3.804226e-01 2.400000e+00
-1.703117e-01 3.619308e-01 2.400000e+00
-2.143307e-01 3.377312e-01 2.400000e+00
-2.549696e-01 3.082053e-01 2.400000e+00
-2.915875e-01 2.738188e-01 2.400000e+00
-3.236068e-01 2.351141e-01 2.400000e+00
-3.505227e-01 1.927015e-01 2.400000e+00
-3.719106e-01 1.472498e-01 2.400000e+00
-3.874333e-01 9.947595e-02 2.400000e+00
-3.968459e-01 5.013329e-02 2.400000e+00
-4.000000e-01 -1.286498e-16 2.400000e+00
-3.968459e-01 -5.013329e-02 2.400000e+00
-3.874333e-01 -9.947595e-02 2.400000e+00
-3.719106e-01 -1.472498e-01 2.400000e+00
-3.505227e-01 -1.927015e-01 2.400000e+00
-3.236068e-01 -2.351141e-01 2.400000e+00
-2.915875e-01 -2.738188e-01 2.400000e+00
-2.549696e-01 -3.082053e-01 2.400000e+00
-2.143307e-01 -3.377312e-01 2.400000e+00
-1.703117e-01 -3.619308e-01 2.400000e+00
-1.236068e-01 -3.804226e-01 2.400000e+00
-7.495253e-02 -3.929149e-01 2.400000e+00
-2.511621e-02 -3.992107e-01 2.400000e+00
2.511621e-02 -3.992107e-01 2.400000e+00
7.495253e-02 -3.929149e-01 2.400000e+00
1.236068e-01 -3.804226e-01 2.400000e+00
1.703117e-01 -3.619308e-01 2.400000e+00
2.143307e-01 -3.377312e-01 2.400000e+00
2.549696e-01 -3.082053e-01 2.400000e+00
2.915875e-01 -2.738188e-01 2.400000e+00
3.236068e-01 -2.351141e-01 2.400000e+00
3.505227e-01 -1.927015e-01 2.400000e+00
3.719106e-01 -1.472498e-01 2.400000e+00
3.874333e-01 -9.947595e-02 2.400000e+00
3.968459e-01 -5.013329e-02 2.400000e+00
3.875000e-01 0.000000e+00 2.450000e+00
3.841849e-01 5.057890e-02 2.450000e+00
3.742963e-01 1.002924e-01 2.450000e+00
3.580033e-01 1.482898e-01 2.450000e+00
3.355848e-01 1.937500e-01 2.450000e+00
3.074244e-01 2.358951e-01 2.450000e+00
2.740039e-01 2.740039e-01 2.450000e+00
2.358951e-01 3.074244e-01 2.450000e+00
1.937500e-01 3.355848e-01 2.450000e+00
1.482898e-01 3.580033e-01 2.450000e+00
1.002924e-01 3.742963e-01 2.450000e+00
5.057890e-02 3.841849e-01 2.450000e+00
2.372753e-17 3.875000e-01 2.450000e+00
-5.057890e-02 3.841849e-01 2.450000e+00
-1.002924e-01 3.742963e-01 2.450000e+00
-1.482898e-01 3.580033e-01 2.450000e+00
-1.937500e-01 3.355848e-01 2.450000e+00
-2.358951e-01 3.074244e-01 2.450000e+00
-2.740039e-01 2.740039e-01 2.450000e+00
-3.074244e-01 2.358951e-01 2.450000e+00
-3.355848e-01 1.937500e-01 2.450000e+00
-3.580033e-01 1.482898e-01 2.450000e+00
-3.742963e-01 1.002924e-01 2.450000e+00
-3.841849e-01 5.057890e-02 2.450000e+00
-3.875000e-01 4.745506e-17 2.450000e+00
-3.841849e-01 -5.057890e-02 2.450000e+00
-3.742963e-01 -1.002924e-01 2.450000e+00
-3.580033e-01 -1.482898e-01 2.450000e+00
-3.355848e-01 -1.937500e-01 2.450000e+00
-3.074244e-01 -2.358951e-01 2.450000e+00
-2.740039e-01 -2.740039e-01 2.450000e+00
-2.358951e-01 -3.074244e-01 2.450000e+00
-1.937500e-01 -3.355848e-01 2.450000e+00
-1.482898e-01 -3.580033e-01 2.450000e+00
-1.002924e-01 -3.742963e-01 2.450000e+00
-5.057890e-02 -3.841849e-01 2.450000e+00
-7.118260e-17 -3.875000e-01 2.450000e+00
5.057890e-02 -3.841849e-01 2.450000e+00
1.002924e-01 -3.742963e-01 2.450000e+00
1.482898e-01 -3.580033e-01 2.450000e+00
1.937500e-01 -3.355848e-01 2.450000e+00
2.358951e-01 -3.074244e-01 2.450000e+00
2.740039e-01 -2.740039e-01 2.450000e+00
3.074244e-01 -2.358951e-01 2.450000e+00
3.355848e-01 -1.937500e-01 2.450000e+00
3.580033e-01 -1.482898e-01 2.450000e+00
3.742963e-01 -1.002924e-01 2.450000e+00
3.841849e-01 -5.057890e-02 2.450000e+00
3.750000e-01 0.000000e+00 2.500000e+00
3.715072e-01 5.106249e-02 2.500000e+00
3.610940e-01 1.011738e-01 2.500000e+00
3.439542e-01 1.494004e-01 2.500000e+00
3.204073e-01 1.948440e-01 2.500000e+00
2.908917e-01 2.366580e-01 2.500000e+00
2.559574e-01 2.740635e-01 2.500000e+00
2.162551e-01 3.063637e-01 2.500000e+00
1.725244e-01 3.329570e-01 2.500000e+00
1.255799e-01 3.533478e-01 2.500000e+00
7.629600e-02 3.671565e-01 2.500000e+00
2.559091e-02 3.741258e-01 2.500000e+00
-2.559091e-02 3.741258e-01 2.500000e+00
-7.629600e-02 3.671565e-01 2.500000e+00
-1.255799e-01 3.533478e-01 2.500000e+00
-1.725244e-01 3.329570e-01 2.500000e+00
-2.162551e-01 3.063637e-01 2.500000e+00
-2.559574e-01 2.740635e-01 2.500000e+00
-2.908917e-01 2.366580e-01 2.500000e+00
-3.204073e-01 1.948440e-01 2.500000e+00
-3.439542e-01 1.494004e-01 2.500000e+00
-3.610940e-01 1.011738e-01 2.500000e+00
-3.715072e-01 5.106249e-02 2.500000e+00
-3.750000e-01 4.592425e-17 2.500000e+00
-3.715072e-01 -5.106249e-02 2.500000e+00
-3.610940e-01 -1.011738e-01 2.500000e+00
-3.439542e-01 -1.494004e-01 2.500000e+00
-3.204073e-01 -1.948440e-01 2.500000e+00
-2.908917e-01 -2.366580e-01 2.500000e+00
-2.559574e-01 -2.740635e-01 2.500000e+00
-2.162551e-01 -3.063637e-01 2.500000e+00
-1.725244e-01 -3.329570e-01 2.500000e+00
-1.255799e-01 -3.533478e-01 2.500000e+00
-7.629600e-02 -3.671565e-01 2.500000e+00
-2.559091e-02 -3.741258e-01 2.500000e+00
2.559091e-02 -3.741258e-01 2.500000e+00
7.629600e-02 -3.671565e-01 2.500000e+00
1.255799e-01 -3.533478e-01 2.500000e+00
1.725244e-01 -3.329570e-01 2.500000e+00
2.162551e-01 -3.063637e-01 2.500000e+00
2.559574e-01 -2.740635e-01 2.500000e+00
2.908917e-01 -2.366580e-01 2.500000e+00
3.204073e-01 -1.948440e-01 2.500000e+00
3.439542e-01 -1.494004e-01 2.500000e+00
3.610940e-01 -1.011738e-01 2.500000e+00
3.715072e-01 -5.106249e-02 2.500000e+00
3.625000e-01 0.000000e+00 2.550000e+00
3.589722e-01 5.045025e-02 2.550000e+00
3.484574e-01 9.991854e-02 2.550000e+00
3.311602e-01 1.474420e-01 2.550000e+00
3.074174e-01 1.920957e-01 2.550000e+00
2.776911e-01 2.330105e-01 2.550000e+00
2.425598e-01 2.693900e-01 2.550000e+00
2.027074e-01 3.005261e-01 2.550000e+00
1.589095e-01 3.258128e-01 2.550000e+00
1.120187e-01 3.447580e-01 2.550000e+00
6.294746e-02 3.569928e-01 2.550000e+00
1.265107e-02 3.622792e-01 2.550000e+00
-3.789157e-02 3.605142e-01 2.550000e+00
-8.769669e-02 3.517322e-01 2.550000e+00
-1.357949e-01 3.361041e-01 2.550000e+00
-1.812500e-01 3.139342e-01 2.550000e+00
-2.231773e-01 2.856539e-01 2.550000e+00
-2.607607e-01 2.518137e-01 2.550000e+00
-2.932687e-01 2.130722e-01 2.550000e+00
-3.200685e-01 1.701834e-01 2.550000e+00
-3.406386e-01 1.239823e-01 2.550000e+00
-3.545785e-01 7.536799e-02 2.550000e+00
-3.616170e-01 2.528672e-02 2.550000e+00
-3.616170e-01 -2.528672e-02 2.550000e+00
-3.545785e-01 -7.536799e-02 2.550000e+00
-3.406386e-01 -1.239823e-01 2.550000e+00
-3.200685e-01 -1.701834e-01 2.550000e+00
-2.932687e-01 -2.130722e-01 2.550000e+00
-2.607607e-01 -2.518137e-01 2.550000e+00
-2.231773e-01 -2.856539e-01 2.550000e+00
-1.812500e-01 -3.139342e-01 2.550000e+00
-1.357949e-01 -3.361041e-01 2.550000e+00
-8.769669e-02 -3.517322e-01 2.550000e+00
-3.789157e-02 -3.605142e-01 2.550000e+00
1.265107e-02 -3.622792e-01 2.550000e+00
6.294746e-02 -3.569928e-01 2.550000e+00
1.120187e-01 -3.447580e-01 2.550000e+00
1.589095e-01 -3.258128e-01 2.550000e+00
2.027074e-01 -3.005261e-01 2.550000e+00
2.425598e-01 -2.693900e-01 2.550000e+00
2.776911e-01 -2.330105e-01 2.550000e+00
3.074174e-01 -1.920957e-01 2.550000e+00
3.311602e-01 -1.474420e-01 2.550000e+00
3.484574e-01 -9.991854e-02 2.550000e+00
3.589722e-01 -5.045025e-02 2.550000e+00
3.500000e-01 0.000000e+00 2.600000e+00
3.462702e-01 5.096041e-02 2.600000e+00
3.351602e-01 1.008347e-01 2.600000e+00
3.169069e-01 1.485598e-01 2.600000e+00
2.918992e-01 1.931187e-01 2.600000e+00
2.606703e-01 2.335616e-01 2.600000e+00
2.238856e-01 2.690265e-01 2.600000e+00
1.823291e-01 2.987576e-01 2.600000e+00
1.368867e-01 3.221212e-01 2.600000e+00
8.852668e-02 3.386193e-01 2.600000e+00
3.827992e-02 3.479003e-01 2.600000e+00
-1.278271e-02 3.497665e-01 2.600000e+00
-6.357290e-02 3.441780e-01 2.600000e+00
-1.130081e-01 3.312539e-01 2.600000e+00
-1.600348e-01 3.112698e-01 2.600000e+00
-2.036506e-01 2.846514e-01 2.600000e+00
-2.429260e-01 2.519662e-01 2.600000e+00
-2.770238e-01 2.139108e-01 2.600000e+00
-3.052173e-01 1.712962e-01 2.600000e+00
-3.269056e-01 1.250308e-01 2.600000e+00
-3.416266e-01 7.610056e-02 2.600000e+00
-3.490663e-01 2.554836e-02 2.600000e+00
-3.490663e-01 -2.554836e-02 2.600000e+00
-3.416266e-01 -7.610056e-02 2.600000e+00
-3.269056e-01 -1.250308e-01 2.600000e+00
-3.052173e-01 -1.712962e-01 2.600000e+00
-2.770238e-01 -2.139108e-01 2.600000e+00
-2.429260e-01 -2.519662e-01 2.600000e+00
-2.036506e-01 -2.846514e-01 2.600000e+00
-1.600348e-01 -3.112698e-01 2.600000e+00
-1.130081e-01 -3.312539e-01 2.600000e+00
-6.357290e-02 -3.441780e-01 2.600000e+00
-1.278271e-02 -3.497665e-01 2.600000e+00
3.827992e-02 -3.479003e-01 2.600000e+00
8.852668e-02 -3.386193e-01 2.600000e+00
1.368867e-01 -3.221212e-01 2.600000e+00
1.823291e-01 -2.987576e-01 2.600000e+00
2.238856e-01 -2.690265e-01 2.600000e+00
2.606703e-01 -2.335616e-01 2.600000e+00
2.918992e-01 -1.931187e-01 2.600000e+00
3.169069e-01 -1.485598e-01 2.600000e+00
3.351602e-01 -1.008347e-01 2.600000e+00
3.462702e-01 -5.096041e-02 2.600000e+00
3.375000e-01 0.000000e+00 2.650000e+00
3.337304e-01 5.030176e-02 2.650000e+00
3.225058e-01 9.947987e-02 2.650000e+00
3.040770e-01 1.464358e-01 2.650000e+00
2.788556e-01 1.901205e-01 2.650000e+00
2.474050e-01 2.295583e-01 2.650000e+00
2.104278e-01 2.638681e-01 2.650000e+00
1.687500e-01 2.922836e-01 2.650000e+00
1.233026e-01 3.141699e-01 2.650000e+00
7.510082e-02 3.290382e-01 2.650000e+00
2.522141e-02 3.365563e-01 2.650000e+00
-2.522141e-02 3.365563e-01 2.650000e+00
-7.510082e-02 3.290382e-01 2.650000e+00
-1.233026e-01 3.141699e-01 2.650000e+00
-1.687500e-01 2.922836e-01 2.650000e+00
-2.104278e-01 2.638681e-01 2.650000e+00
-2.474050e-01 2.295583e-01 2.650000e+00
-2.788556e-01 1.901205e-01 2.650000e+00
-3.040770e-01 1.464358e-01 2.650000e+00
-3.225058e-01 9.947987e-02 2.650000e+00
-3.337304e-01 5.030176e-02 2.650000e+00
-3.375000e-01 4.133183e-17 2.650000e+00
-3.337304e-01 -5.030176e-02 2.650000e+00
-3.225058e-01 -9.947987e-02 2.650000e+00
-3.040770e-01 -1.464358e-01 2.650000e+00
-2.788556e-01 -1.901205e-01 2.650000e+00
-2.474050e-01 -2.295583e-01 2.650000e+00
-2.104278e-01 -2.638681e-01 2.650000e+00
-1.687500e-01 -2.922836e-01 2.650000e+00
-1.233026e-01 -3.141699e-01 2.650000e+00
-7.510082e-02 -3.290382e-01 2.650000e+00
-2.522141e-02 -3.365563e-01 2.650000e+00
2.522141e-02 -3.365563e-01 2.650000e+00
7.510082e-02 -3.290382e-01 2.650000e+00
1.233026e-01 -3.141699e-01 2.650000e+00
1.687500e-01 -2.922836e-01 2.650000e+00
2.104278e-01 -2.638681e-01 2.650000e+00
2.474050e-01 -2.295583e-01 2.650000e+00
2.788556e-01 -1.901205e-01 2.650000e+00
3.040770e-01 -1.464358e-01 2.650000e+00
3.225058e-01 -9.947987e-02 2.650000e+00
3.337304e-01 -5.030176e-02 2.650000e+00
3.250000e-01 0.000000e+00 2.700000e+00
3.209987e-01 5.084120e-02 2.700000e+00
3.090934e-01 1.004305e-01 2.700000e+00
2.895771e-01 1.475469e-01 2.700000e+00
2.629305e-01 1.910302e-01 2.700000e+00
2.298097e-01 2.298097e-01 2.700000e+00
1.910302e-01 2.629305e-01 2.700000e+00
1.475469e-01 2.895771e-01 2.700000e+00
1.004305e-01 3.090934e-01 2.700000e+00
5.084120e-02 3.209987e-01 2.700000e+00
1.990051e-17 3.250000e-01 2.700000e+00
-5.084120e-02 3.209987e-01 2.700000e+00
-1.004305e-01 3.090934e-01 2.700000e+00
-1.475469e-01 2.895771e-01 2.700000e+00
-1.910302e-01 2.629305e-01 2.700000e+00
-2.298097e-01 2.298097e-01 2.700000e+00
-2.629305e-01 1.910302e-01 2.700000e+00
-2.895771e-01 1.475469e-01 2.700000e+00
-3.090934e-01 1.004305e-01 2.700000e+00
-3.209987e-01 5.084120e-02 2.700000e+00
-3.250000e-01 3.980102e-17 2.700000e+00
-3.209987e-01 -5.084120e-02 2.700000e+00
-3.090934e-01 -1.004305e-01 2.700000e+00
-2.895771e-01 -1.475469e-01 2.700000e+00
-2.629305e-01 -1.910302e-01 2.700000e+00
-2.298097e-01 -2.298097e-01 2.700000e+00
-1.910302e-01 -2.629305e-01 2.700000e+00
-1.475469e-01 -2.895771e-01 2.700000e+00
-1.004305e-01 -3.090934e-01 2.700000e+00
-5.084120e-02 -3.209987e-01 2.700000e+00
-5.970153e-17 -3.250000e-01 2.700000e+00
5.084120e-02 -3.209987e-01 2.700000e+00
1.004305e-01 -3.090934e-01 2.700000e+00
1.475469e-01 -2.895771e-01 2.700000e+00
1.910302e-01 -2.629305e-01 2.700000e+00
2.298097e-01 -2.298097e-01 2.700000e+00
2.629305e-01 -1.910302e-01 2.700000e+00
2.895771e-01 -1.475469e-01 2.700000e+00
3.090934e-01 -1.004305e-01 2.700000e+00
3.209987e-01 -5.084120e-02 2.700000e+00
3.125000e-01 0.000000e+00 2.750000e+00
3.084532e-01 5.012853e-02 2.750000e+00
2.964176e-01 9.895875e-02 2.750000e+00
2.767050e-01 1.452260e-01 2.750000e+00
2.498259e-01 1.877320e-01 2.750000e+00
2.164764e-01 2.253758e-01 2.750000e+00
1.775202e-01 2.571825e-01 2.750000e+00
1.339664e-01 2.823283e-01 2.750000e+00
8.694296e-02 3.001619e-01 2.750000e+00
3.766771e-02 3.102215e-01 2.750000e+00
-1.258311e-02 3.122466e-01 2.750000e+00
-6.250803e-02 3.061846e-01 2.750000e+00
-1.108140e-01 2.921926e-01 2.750000e+00
-1.562500e-01 2.706329e-01 2.750000e+00
-1.976392e-01 2.420641e-01 2.750000e+00
-2.339096e-01 2.072258e-01 2.750000e+00
-2.641219e-01 1.670206e-01 2.750000e+00
-2.874936e-01 1.224896e-01 2.750000e+00
-3.034193e-01 7.478615e-02 2.750000e+00
-3.114867e-01 2.514580e-02 2.750000e+00
-3.114867e-01 -2.514580e-02 2.750000e+00
-3.034193e-01 -7.478615e-02 2.750000e+00
-2.874936e-01 -1.224896e-01 2.750000e+00
-2.641219e-01 -1.670206e-01 2.750000e+00
-2.339096e-01 -2.072258e-01 2.750000e+00
-1.976392e-01 -2.420641e-01 2.750000e+00
-1.562500e-01 -2.706329e-01 2.750000e+00
-1.108140e-01 -2.921926e-01 2.750000e+00
-6.250803e-02 -3.061846e-01 2.750000e+00
-1.258311e-02 -3.122466e-01 2.750000e+00
3.766771e-02 -3.102215e-01 2.750000e+00
8.694296e-02 -3.001619e-01 2.750000e+00
1.339664e-01 -2.823283e-01 2.750000e+00
1.775202e-01 -2.571825e-01 2.750000e+00
2.164764e-01 -2.253758e-01 2.750000e+00
2.498259e-01 -1.877320e-01 2.750000e+00
2.767050e-01 -1.452260e-01 2.750000e+00
2.964176e-01 -9.895875e-02 2.750000e+00
3.084532e-01 -5.012853e-02 2.750000e+00
3.000000e-01 0.000000e+00 2.800000e+00
2.956848e-01 5.070025e-02 2.800000e+00
2.828632e-01 9.994194e-02 2.800000e+00
2.619042e-01 1.463085e-01 2.800000e+00
2.334107e-01 1.884660e-01 2.800000e+00
1.982024e-01 2.252017e-01 2.800000e+00
1.572922e-01 2.554587e-01 2.800000e+00
1.118569e-01 2.783667e-01 2.800000e+00
6.320378e-02 2.932666e-01 2.800000e+00
1.273236e-02 2.997297e-01 2.800000e+00
-3.810535e-02 2.975701e-01 2.800000e+00
-8.784683e-02 2.868500e-01 2.800000e+00
-1.350611e-01 2.678778e-01 2.800000e+00
-1.783900e-01 2.411991e-01 2.800000e+00
-2.165868e-01 2.075817e-01 2.800000e+00
-2.485529e-01 1.679924e-01 2.800000e+00
-2.733685e-01 1.235704e-01 2.800000e+00
-2.903199e-01 7.559342e-02 2.800000e+00
-2.989192e-01 2.544178e-02 2.800000e+00
-2.989192e-01 -2.544178e-02 2.800000e+00
-2.903199e-01 -7.559342e-02 2.800000e+00
-2.733685e-01 -1.235704e-01 2.800000e+00
-2.485529e-01 -1.679924e-01 2.800000e+00
-2.165868e-01 -2.075817e-01 2.800000e+00
-1.783900e-01 -2.411991e-01 2.800000e+00
-1.350611e-01 -2.678778e-01 2.800000e+00
-8.784683e-02 -2.868500e-01 2.800000e+00
-3.810535e-02 -2.975701e-01 2.800000e+00
1.273236e-02 -2.997297e-01 2.800000e+00
6.320378e-02 -2.932666e-01 2.800000e+00
1.118569e-01 -2.783667e-01 2.800000e+00
1.572922e-01 -2.554587e-01 2.800000e+00
1.982024e-01 -2.252017e-01 2.800000e+00
2.334107e-01 -1.884660e-01 2.800000e+00
2.619042e-01 -1.463085e-01 2.800000e+00
2.828632e-01 -9.994194e-02 2.800000e+00
2.956848e-01 -5.070025e-02 2.800000e+00
2.875000e-01 0.000000e+00 2.850000e+00
2.828798e-01 5.133511e-02 2.850000e+00
2.691675e-01 1.010203e-01 2.850000e+00
2.468040e-01 1.474585e-01 2.850000e+00
2.165080e-01 1.891574e-01 2.850000e+00
1.792533e-01 2.247766e-01 2.850000e+00
1.362372e-01 2.531712e-01 2.850000e+00
8.884239e-02 2.734287e-01 2.850000e+00
3.859206e-02 2.848981e-01 2.850000e+00
-1.289864e-02 2.872105e-01 2.850000e+00
-6.397477e-02 2.802918e-01 2.850000e+00
-1.129947e-01 2.643642e-01 2.850000e+00
-1.583829e-01 2.399398e-01 2.850000e+00
-1.986805e-01 2.078035e-01 2.850000e+00
-2.325924e-01 1.689883e-01 2.850000e+00
-2.590285e-01 1.247416e-01 2.850000e+00
-2.771393e-01 7.648559e-02 2.850000e+00
-2.863426e-01 2.577130e-02 2.850000e+00
-2.863426e-01 -2.577130e-02 2.850000e+00
-2.771393e-01 -7.648559e-02 2.850000e+00
-2.590285e-01 -1.247416e-01 2.850000e+00
-2.325924e-01 -1.689883e-01 2.850000e+00
-1.986805e-01 -2.078035e-01 2.850000e+00
-1.583829e-01 -2.399398e-01 2.850000e+00
-1.129947e-01 -2.643642e-01 2.850000e+00
-6.397477e-02 -2.802918e-01 2.850000e+00
-1.289864e-02 -2.872105e-01 2.850000e+00
3.859206e-02 -2.848981e-01 2.850000e+00
8.884239e-02 -2.734287e-01 2.850000e+00
1.362372e-01 -2.531712e-01 2.850000e+00
1.792533e-01 -2.247766e-01 2.850000e+00
2.165080e-01 -1.891574e-01 2.850000e+00
2.468040e-01 -1.474585e-01 2.850000e+00
2.691675e-01 -1.010203e-01 2.850000e+00
2.828798e-01 -5.133511e-02 2.850000e+00
2.750000e-01 0.000000e+00 2.900000e+00
2.703176e-01 5.053112e-02 2.900000e+00
2.564299e-01 9.934146e-02 2.900000e+00
2.338097e-01 1.447688e-01 2.900000e+00
2.032275e-01 1.852663e-01 2.900000e+00
1.657245e-01 2.194547e-01 2.900000e+00
1.225780e-01 2.461699e-01 2.900000e+00
7.525732e-02 2.645021e-01 2.900000e+00
2.537380e-02 2.738269e-01 2.900000e+00
-2.537380e-02 2.738269e-01 2.900000e+00
-7.525732e-02 2.645021e-01 2.900000e+00
-1.225780e-01 2.461699e-01 2.900000e+00
-1.657245e-01 2.194547e-01 2.900000e+00
-2.032275e-01 1.852663e-01 2.900000e+00
-2.338097e-01 1.447688e-01 2.900000e+00
-2.564299e-01 9.934146e-02 2.900000e+00
-2.703176e-01 5.053112e-02 2.900000e+00
-2.750000e-01 3.367779e-17 2.900000e+00
-2.703176e-01 -5.053112e-02 2.900000e+00
-2.564299e-01 -9.934146e-02 2.900000e+00
-2.338097e-01 -1.447688e-01 2.900000e+00
-2.032275e-01 -1.852663e-01 2.900000e+00
-1.657245e-01 -2.194547e-01 2.900000e+00
-1.225780e-01 -2.461699e-01 2.900000e+00
-7.525732e-02 -2.645021e-01 2.900000e+00
-2.537380e-02 -2.738269e-01 2.900000e+00
2.537380e-02 -2.738269e-01 2.900000e+00
7.525732e-02 -2.645021e-01 2.900000e+00
1.225780e-01 -2.461699e-01 2.900000e+00
1.657245e-01 -2.194547e-01 2.900000e+00
2.032275e-01 -1.852663e-01 2.900000e+00
2.338097e-01 -1.447688e-01 2.900000e+00
2.564299e-01 -9.934146e-02 2.900000e+00
2.703176e-01 -5.053112e-02 2.900000e+00
2.625000e-01 0.000000e+00 2.950000e+00
2.574561e-01 5.121121e-02 2.950000e+00
2.425184e-01 1.004544e-01 2.950000e+00
2.182608e-01 1.458372e-01 2.950000e+00
1.856155e-01 1.856155e-01 2.950000e+00
1.458372e-01 2.182608e-01 2.950000e+00
1.004544e-01 2.425184e-01 2.950000e+00
5.121121e-02 2.574561e-01 2.950000e+00
1.607349e-17 2.625000e-01 2.950000e+00
-5.121121e-02 2.574561e-01 2.950000e+00
-1.004544e-01 2.425184e-01 2.950000e+00
-1.458372e-01 2.182608e-01 2.950000e+00
-1.856155e-01 1.856155e-01 2.950000e+00
-2.182608e-01 1.458372e-01 2.950000e+00
-2.425184e-01 1.004544e-01 2.950000e+00
-2.574561e-01 5.121121e-02 2.950000e+00
-2.625000e-01 3.214698e-17 2.950000e+00
-2.574561e-01 -5.121121e-02 2.950000e+00
-2.425184e-01 -1.004544e-01 2.950000e+00
-2.182608e-01 -1.458372e-01 2.950000e+00
-1.856155e-01 -1.856155e-01 2.950000e+00
-1.458372e-01 -2.182608e-01 2.950000e+00
-1.004544e-01 -2.425184e-01 2.950000e+00
-5.121121e-02 -2.574561e-01 2.950000e+00
-4.822047e-17 -2.625000e-01 2.950000e+00
5.121121e-02 -2.574561e-01 2.950000e+00
1.004544e-01 -2.425184e-01 2.950000e+00
1.458372e-01 -2.182608e-01 2.950000e+00
1.856155e-01 -1.856155e-01 2.950000e+00
2.182608e-01 -1.458372e-01 2.950000e+00
2.425184e-01 -1.004544e-01 2.950000e+00
2.574561e-01 -5.121121e-02 2.950000e+00
2.500000e-01 0.000000e+00 3.000000e+00
2.448825e-01 5.032463e-02 3.000000e+00
2.297395e-01 9.858896e-02 3.000000e+00
2.051909e-01 1.428171e-01 3.000000e+00
1.722417e-01 1.811982e-01 3.000000e+00
1.322410e-01 2.121611e-01 3.000000e+00
8.682631e-02 2.344380e-01 3.000000e+00
3.785694e-02 2.471171e-01 3.000000e+00
-1.266229e-02 2.496791e-01 3.000000e+00
-6.266313e-02 2.420193e-01 3.000000e+00
-1.100985e-01 2.244511e-01 3.000000e+00
-1.530265e-01 1.976939e-01 3.000000e+00
-1.896895e-01 1.628431e-01 3.000000e+00
-2.185867e-01 1.213255e-01 3.000000e+00
-2.385348e-01 7.484078e-02 3.000000e+00
-2.487173e-01 2.529208e-02 3.000000e+00
-2.487173e-01 -2.529208e-02 3.000000e+00
-2.385348e-01 -7.484078e-02 3.000000e+00
-2.185867e-01 -1.213255e-01 3.000000e+00
-1.896895e-01 -1.628431e-01 3.000000e+00
-1.530265e-01 -1.976939e-01 3.000000e+00
-1.100985e-01 -2.244511e-01 3.000000e+00
-6.266313e-02 -2.420193e-01 3.000000e+00
-1.266229e-02 -2.496791e-01 3.000000e+00
3.785694e-02 -2.471171e-01 3.000000e+00
8.682631e-02 -2.344380e-01 3.000000e+00
1.322410e-01 -2.121611e-01 3.000000e+00
1.722417e-01 -1.811982e-01 3.000000e+00
2.051909e-01 -1.428171e-01 3.000000e+00
2.297395e-01 -9.858896e-02 3.000000e+00
2.448825e-01 -5.032463e-02 3.000000e+00
2.375000e-01 0.000000e+00 3.050000e+00
2.319474e-01 5.105548e-02 3.050000e+00
2.155492e-01 9.972366e-02 3.050000e+00
1.890721e-01 1.437289e-01 3.050000e+00
1.537542e-01 1.810135e-01 3.050000e+00
1.112470e-01 2.098341e-01 3.050000e+00
6.353798e-02 2.288431e-01 3.050000e+00
1.285799e-02 2.371517e-01 3.050000e+00
-3.842322e-02 2.343713e-01 3.050000e+00
-8.790781e-02 2.206320e-01 3.050000e+00
-1.332819e-01 1.965761e-01 3.050000e+00
-1.724239e-01 1.633286e-01 3.050000e+00
-2.035036e-01 1.224440e-01 3.050000e+00
-2.250676e-01 7.583411e-02 3.050000e+00
-2.361078e-01 2.567827e-02 3.050000e+00
-2.361078e-01 -2.567827e-02 3.050000e+00
-2.250676e-01 -7.583411e-02 3.050000e+00
-2.035036e-01 -1.224440e-01 3.050000e+00
-1.724239e-01 -1.633286e-01 3.050000e+00
-1.332819e-01 -1.965761e-01 3.050000e+00
-8.790781e-02 -2.206320e-01 3.050000e+00
-3.842322e-02 -2.343713e-01 3.050000e+00
1.285799e-02 -2.371517e-01 3.050000e+00
6.353798e-02 -2.288431e-01 3.050000e+00
1.112470e-01 -2.098341e-01 3.050000e+00
1.537542e-01 -1.810135e-01 3.050000e+00
1.890721e-01 -1.437289e-01 3.050000e+00
2.155492e-01 -9.972366e-02 3.050000e+00
2.319474e-01 -5.105548e-02 3.050000e+00
2.250000e-01 0.000000e+00 3.100000e+00
2.193588e-01 5.006721e-02 3.100000e+00
2.027180e-01 9.762384e-02 3.100000e+00
1.759121e-01 1.402852e-01 3.100000e+00
1.402852e-01 1.759121e-01 3.100000e+00
9.762384e-02 2.027180e-01 3.100000e+00
5.006721e-02 2.193588e-01 3.100000e+00
1.377728e-17 2.250000e-01 3.100000e+00
-5.006721e-02 2.193588e-01 3.100000e+00
-9.762384e-02 2.027180e-01 3.100000e+00
-1.402852e-01 1.759121e-01 3.100000e+00
-1.759121e-01 1.402852e-01 3.100000e+00
-2.027180e-01 9.762384e-02 3.100000e+00
-2.193588e-01 5.006721e-02 3.100000e+00
-2.250000e-01 2.755455e-17 3.100000e+00
-2.193588e-01 -5.006721e-02 3.100000e+00
-2.027180e-01 -9.762384e-02 3.100000e+00
-1.759121e-01 -1.402852e-01 3.100000e+00
-1.402852e-01 -1.759121e-01 3.100000e+00
-9.762384e-02 -2.027180e-01 3.100000e+00
-5.006721e-02 -2.193588e-01 3.100000e+00
-4.133183e-17 -2.250000e-01 3.100000e+00
5.006721e-02 -2.193588e-01 3.100000e+00
9.762384e-02 -2.027180e-01 3.100000e+00
1.402852e-01 -1.759121e-01 3.100000e+00
1.759121e-01 -1.402852e-01 3.100000e+00
2.027180e-01 -9.762384e-02 3.100000e+00
2.193588e-01 -5.006721e-02 3.100000e+00
2.125000e-01 0.000000e+00 3.150000e+00
2.063251e-01 5.085458e-02 3.150000e+00
1.881594e-01 9.875367e-02 3.150000e+00
1.590585e-01 1.409136e-01 3.150000e+00
1.207138e-01 1.748841e-01 3.150000e+00
7.535354e-02 1.986910e-01 3.150000e+00
2.561404e-02 2.109506e-01 3.150000e+00
-2.561404e-02 2.109506e-01 3.150000e+00
-7.535354e-02 1.986910e-01 3.150000e+00
-1.207138e-01 1.748841e-01 3.150000e+00
-1.590585e-01 1.409136e-01 3.150000e+00
-1.881594e-01 9.875367e-02 3.150000e+00
-2.063251e-01 5.085458e-02 3.150000e+00
-2.125000e-01 2.602374e-17 3.150000e+00
-2.063251e-01 -5.085458e-02 3.150000e+00
-1.881594e-01 -9.875367e-02 3.150000e+00
-1.590585e-01 -1.409136e-01 3.150000e+00
-1.207138e-01 -1.748841e-01 3.150000e+00
-7.535354e-02 -1.986910e-01 3.150000e+00
-2.561404e-02 -2.109506e-01 3.150000e+00
2.561404e-02 -2.109506e-01 3.150000e+00
7.535354e-02 -1.986910e-01 3.150000e+00
1.207138e-01 -1.748841e-01 3.150000e+00
1.590585e-01 -1.409136e-01 3.150000e+00
1.881594e-01 -9.875367e-02 3.150000e+00
2.063251e-01 -5.085458e-02 3.150000e+00
2.000000e-01 0.000000e+00 3.200000e+00
1.931852e-01 5.176381e-02 3.200000e+00
1.732051e-01 1.000000e-01 3.200000e+00
1.414214e-01 1.414214e-01 3.200000e+00
1.000000e-01 1.732051e-01 3.200000e+00
5.176381e-02 1.931852e-01 3.200000e+00
1.224647e-17 2.000000e-01 3.200000e+00
-5.176381e-02 1.931852e-01 3.200000e+00
-1.000000e-01 1.732051e-01 3.200000e+00
-1.414214e-01 1.414214e-01 3.200000e+00
-1.732051e-01 1.000000e-01 3.200000e+00
-1.931852e-01 5.176381e-02 3.200000e+00
-2.000000e-01 2.449294e-17 3.200000e+00
-1.931852e-01 -5.176381e-02 3.200000e+00
-1.732051e-01 -1.000000e-01 3.200000e+00
-1.414214e-01 -1.414214e-01 3.200000e+00
-1.000000e-01 -1.732051e-01 3.200000e+00
-5.176381e-02 -1.931852e-01 3.200000e+00
-3.673940e-17 -2.000000e-01 3.200000e+00
5.176381e-02 -1.931852e-01 3.200000e+00
1.000000e-01 -1.732051e-01 3.200000e+00
1.414214e-01 -1.414214e-01 3.200000e+00
1.732051e-01 -1.000000e-01 3.200000e+00
1.931852e-01 -5.176381e-02 3.200000e+00
1.875000e-01 0.000000e+00 3.250000e+00
1.805470e-01 5.058689e-02 3.250000e+00
1.602036e-01 9.742199e-02 3.250000e+00
1.279787e-01 1.370317e-01 3.250000e+00
8.626219e-02 1.664785e-01 3.250000e+00
3.814800e-02 1.835783e-01 3.250000e+00
-1.279545e-02 1.870629e-01 3.250000e+00
-6.278993e-02 1.766739e-01 3.250000e+00
-1.081276e-01 1.531819e-01 3.250000e+00
-1.454459e-01 1.183290e-01 3.250000e+00
-1.719771e-01 7.470020e-02 3.250000e+00
-1.857536e-01 2.553125e-02 3.250000e+00
-1.857536e-01 -2.553125e-02 3.250000e+00
-1.719771e-01 -7.470020e-02 3.250000e+00
-1.454459e-01 -1.183290e-01 3.250000e+00
-1.081276e-01 -1.531819e-01 3.250000e+00
-6.278993e-02 -1.766739e-01 3.250000e+00
-1.279545e-02 -1.870629e-01 3.250000e+00
3.814800e-02 -1.835783e-01 3.250000e+00
8.626219e-02 -1.664785e-01 3.250000e+00
1.279787e-01 -1.370317e-01 3.250000e+00
1.602036e-01 -9.742199e-02 3.250000e+00
1.805470e-01 -5.058689e-02 3.250000e+00
1.750000e-01 0.000000e+00 3.300000e+00
1.672252e-01 5.158216e-02 3.300000e+00
1.445918e-01 9.858101e-02 3.300000e+00
1.091107e-01 1.368205e-01 3.300000e+00
6.393468e-02 1.629029e-01 3.300000e+00
1.307777e-02 1.745107e-01 3.300000e+00
-3.894116e-02 1.706124e-01 3.300000e+00
-8.750000e-02 1.515544e-01 3.300000e+00
-1.282841e-01 1.190302e-01 3.300000e+00
-1.576696e-01 7.592965e-02 3.300000e+00
-1.730454e-01 2.608240e-02 3.300000e+00
-1.730454e-01 -2.608240e-02 3.300000e+00
-1.576696e-01 -7.592965e-02 3.300000e+00
-1.282841e-01 -1.190302e-01 3.300000e+00
-8.750000e-02 -1.515544e-01 3.300000e+00
-3.894116e-02 -1.706124e-01 3.300000e+00
1.307777e-02 -1.745107e-01 3.300000e+00
6.393468e-02 -1.629029e-01 3.300000e+00
1.091107e-01 -1.368205e-01 3.300000e+00
1.445918e-01 -9.858101e-02 3.300000e+00
1.672252e-01 -5.158216e-02 3.300000e+00
1.625000e-01 0.000000e+00 3.350000e+00
1.545467e-01 5.021526e-02 3.350000e+00
1.314653e-01 9.551510e-02 3.350000e+00
9.551510e-02 1.314653e-01 3.350000e+00
5.021526e-02 1.545467e-01 3.350000e+00
9.950255e-18 1.625000e-01 3.350000e+00
-5.021526e-02 1.545467e-01 3.350000e+00
-9.551510e-02 1.314653e-01 3.350000e+00
-1.314653e-01 9.551510e-02 3.350000e+00
-1.545467e-01 5.021526e-02 3.350000e+00
-1.625000e-01 1.990051e-17 3.350000e+00
-1.545467e-01 -5.021526e-02 3.350000e+00
-1.314653e-01 -9.551510e-02 3.350000e+00
-9.551510e-02 -1.314653e-01 3.350000e+00
-5.021526e-02 -1.545467e-01 3.350000e+00
-2.985077e-17 -1.625000e-01 3.350000e+00
5.021526e-02 -1.545467e-01 3.350000e+00
9.551510e-02 -1.314653e-01 3.350000e+00
1.314653e-01 -9.551510e-02 3.350000e+00
1.545467e-01 -5.021526e-02 3.350000e+00
1.500000e-01 0.000000e+00 3.400000e+00
1.409539e-01 5.130302e-02 3.400000e+00
1.149067e-01 9.641814e-02 3.400000e+00
7.500000e-02 1.299038e-01 3.400000e+00
2.604723e-02 1.477212e-01 3.400000e+00
-2.604723e-02 1.477212e-01 3.400000e+00
-7.500000e-02 1.299038e-01 3.400000e+00
-1.149067e-01 9.641814e-02 3.400000e+00
-1.409539e-01 5.130302e-02 3.400000e+00
-1.500000e-01 1.836970e-17 3.400000e+00
-1.409539e-01 -5.130302e-02 3.400000e+00
-1.149067e-01 -9.641814e-02 3.400000e+00
-7.500000e-02 -1.299038e-01 3.400000e+00
-2.604723e-02 -1.477212e-01 3.400000e+00
2.604723e-02 -1.477212e-01 3.400000e+00
7.500000e-02 -1.299038e-01 3.400000e+00
1.149067e-01 -9.641814e-02 3.400000e+00
1.409539e-01 -5.130302e-02 3.400000e+00
1.375000e-01 0.000000e+00 3.450000e+00
1.282149e-01 4.967073e-02 3.450000e+00
1.016137e-01 9.263315e-02 3.450000e+00
6.128902e-02 1.230850e-01 3.450000e+00
1.268690e-02 1.369134e-01 3.450000e+00
-3.762866e-02 1.322510e-01 3.450000e+00
-8.286226e-02 1.097274e-01 3.450000e+00
-1.169049e-01 7.238442e-02 3.450000e+00
-1.351588e-01 2.526556e-02 3.450000e+00
-1.351588e-01 -2.526556e-02 3.450000e+00
-1.169049e-01 -7.238442e-02 3.450000e+00
-8.286226e-02 -1.097274e-01 3.450000e+00
-3.762866e-02 -1.322510e-01 3.450000e+00
1.268690e-02 -1.369134e-01 3.450000e+00
6.128902e-02 -1.230850e-01 3.450000e+00
1.016137e-01 -9.263315e-02 3.450000e+00
1.282149e-01 -4.967073e-02 3.450000e+00
1.250000e-01 0.000000e+00 3.500000e+00
1.141932e-01 5.084208e-02 3.500000e+00
8.364133e-02 9.289310e-02 3.500000e+00
3.862712e-02 1.188821e-01 3.500000e+00
-1.306606e-02 1.243152e-01 3.500000e+00
-6.250000e-02 1.082532e-01 3.500000e+00
-1.011271e-01 7.347316e-02 3.500000e+00
-1.222685e-01 2.598896e-02 3.500000e+00
-1.222685e-01 -2.598896e-02 3.500000e+00
-1.011271e-01 -7.347316e-02 3.500000e+00
-6.250000e-02 -1.082532e-01 3.500000e+00
-1.306606e-02 -1.243152e-01 3.500000e+00
3.862712e-02 -1.188821e-01 3.500000e+00
8.364133e-02 -9.289310e-02 3.500000e+00
1.141932e-01 -5.084208e-02 3.500000e+00
1.125000e-01 0.000000e+00 3.550000e+00
1.013590e-01 4.881192e-02 3.550000e+00
7.014260e-02 8.795604e-02 3.550000e+00
2.503361e-02 1.096794e-01 3.550000e+00
-2.503361e-02 1.096794e-01 3.550000e+00
-7.014260e-02 8.795604e-02 3.550000e+00
-1.013590e-01 4.881192e-02 3.550000e+00
-1.125000e-01 1.377728e-17 3.550000e+00
-1.013590e-01 -4.881192e-02 3.550000e+00
-7.014260e-02 -8.795604e-02 3.550000e+00
-2.503361e-02 -1.096794e-01 3.550000e+00
2.503361e-02 -1.096794e-01 3.550000e+00
7.014260e-02 -8.795604e-02 3.550000e+00
1.013590e-01 -4.881192e-02 3.550000e+00
1.000000e-01 0.000000e+00 3.600000e+00
8.660254e-02 5.000000e-02 3.600000e+00
5.000000e-02 8.660254e-02 3.600000e+00
6.123234e-18 1.000000e-01 3.600000e+00
-5.000000e-02 8.660254e-02 3.600000e+00
-8.660254e-02 5.000000e-02 3.600000e+00
-1.000000e-01 1.224647e-17 3.600000e+00
-8.660254e-02 -5.000000e-02 3.600000e+00
-5.000000e-02 -8.660254e-02 3.600000e+00
-1.836970e-17 -1.000000e-01 3.600000e+00
5.000000e-02 -8.660254e-02 3.600000e+00
8.660254e-02 -5.000000e-02 3.600000e+00
8.750000e-02 0.000000e+00 3.650000e+00
7.078899e-02 5.143121e-02 3.650000e+00
2.703899e-02 8.321745e-02 3.650000e+00
-2.703899e-02 8.321745e-02 3.650000e+00
-7.078899e-02 5.143121e-02 3.650000e+00
-8.750000e-02 1.071566e-17 3.650000e+00
-7.078899e-02 -5.143121e-02 3.650000e+00
-2.703899e-02 -8.321745e-02 3.650000e+00
2.703899e-02 -8.321745e-02 3.650000e+00
7.078899e-02 -5.143121e-02 3.650000e+00
7.500000e-02 0.000000e+00 3.700000e+00
5.745333e-02 4.820907e-02 3.700000e+00
1.302361e-02 7.386058e-02 3.700000e+00
-3.750000e-02 6.495191e-02 3.700000e+00
-7.047695e-02 2.565151e-02 3.700000e+00
-7.047695e-02 -2.565151e-02 3.700000e+00
-3.750000e-02 -6.495191e-02 3.700000e+00
1.302361e-02 -7.386058e-02 3.700000e+00
5.745333e-02 -4.820907e-02 3.700000e+00
6.250000e-02 0.000000e+00 3.750000e+00
3.896811e-02 4.886447e-02 3.750000e+00
-1.390756e-02 6.093299e-02 3.750000e+00
-5.631055e-02 2.711773e-02 3.750000e+00
-5.631055e-02 -2.711773e-02 3.750000e+00
-1.390756e-02 -6.093299e-02 3.750000e+00
3.896811e-02 -4.886447e-02 3.750000e+00
5.000000e-02 0.000000e+00 3.800000e+00
2.500000e-02 4.330127e-02 3.800000e+00
-2.500000e-02 4.330127e-02 3.800000e+00
-5.000000e-02 6.123234e-18 3.800000e+00
-2.500000e-02 -4.330127e-02 3.800000e+00
2.500000e-02 -4.330127e-02 3.800000e+00
3.750000e-02 0.000000e+00 3.850000e+00
2.296213e-18 3.750000e-02 3.850000e+00
-3.750000e-02 4.592425e-18 3.850000e+00
-6.888638e-18 -3.750000e-02 3.850000e+00
2.500000e-02 0.000000e+00 3.900000e+00
-1.250000e-02 2.165064e-02 3.900000e+00
-1.250000e-02 -2.165064e-02 3.900000e+00
1.250000e-02 0.000000e+00 3.950000e+00
